%YAML 1.1
%TAG !u! tag:unity3d.com,2011:
--- !u!74 &7400000
AnimationClip:
  m_ObjectHideFlags: 0
  m_PrefabParentObject: {fileID: 0}
  m_PrefabInternal: {fileID: 0}
  m_Name: Skull9
  serializedVersion: 6
  m_Legacy: 0
  m_Compressed: 0
  m_UseHighQualityCurve: 1
  m_RotationCurves: []
  m_CompressedRotationCurves: []
  m_EulerCurves:
  - curve:
      serializedVersion: 2
      m_Curve:
      - time: 0
        value: {x: 0, y: 0, z: 180}
        inSlope: {x: 0, y: 0, z: 432}
        outSlope: {x: 0, y: 0, z: 432}
        tangentMode: 0
      - time: 0.41666666
        value: {x: 0, y: 0, z: 360}
        inSlope: {x: 0, y: 0, z: 432}
        outSlope: {x: 0, y: 0, z: 432}
        tangentMode: 0
      m_PreInfinity: 2
      m_PostInfinity: 2
      m_RotationOrder: 4
    path: 
  m_PositionCurves:
  - curve:
      serializedVersion: 2
      m_Curve:
      - time: 0
        value: {x: 0, y: 0, z: 0}
        inSlope: {x: 4, y: -147.2, z: 0}
        outSlope: {x: 4, y: -147.2, z: 0}
        tangentMode: 0
      - time: 0.25
        value: {x: 1, y: -36.8, z: 0}
        inSlope: {x: -0.48000026, y: -30.430004, z: 0}
        outSlope: {x: -0.48000026, y: -30.430004, z: 0}
        tangentMode: 0
      - time: 0.33333334
        value: {x: 0.5866666, y: -29.605, z: 0}
        inSlope: {x: -6.2400007, y: 119.70001, z: 0}
        outSlope: {x: -6.2400007, y: 119.70001, z: 0}
        tangentMode: 0
      - time: 0.41666666
        value: {x: -0.04, y: -16.85, z: 0}
        inSlope: {x: -7.520001, y: 153.06003, z: 0}
        outSlope: {x: -7.520001, y: 153.06003, z: 0}
        tangentMode: 0
      m_PreInfinity: 2
      m_PostInfinity: 2
      m_RotationOrder: 4
    path: 
  m_ScaleCurves:
  - curve:
      serializedVersion: 2
      m_Curve:
      - time: 0
        value: {x: 0.1, y: 0.1, z: 0.1}
        inSlope: {x: 3.8450248, y: 3.845024, z: 3.845024}
        outSlope: {x: 3.8450248, y: 3.845024, z: 3.845024}
        tangentMode: 0
      - time: 0.33333334
        value: {x: 1.381675, y: 1.3816748, z: 1.3816748}
        inSlope: {x: -0.3675381, y: -0.36753702, z: -0.36753702}
        outSlope: {x: -0.3675381, y: -0.36753702, z: -0.36753702}
        tangentMode: 0
      - time: 0.41666666
        value: {x: 1, y: 1, z: 1}
        inSlope: {x: -4.580101, y: -4.580098, z: -4.580098}
        outSlope: {x: -4.580101, y: -4.580098, z: -4.580098}
        tangentMode: 0
      m_PreInfinity: 2
      m_PostInfinity: 2
      m_RotationOrder: 4
    path: 
  m_FloatCurves: []
  m_PPtrCurves: []
  m_SampleRate: 60
  m_WrapMode: 0
  m_Bounds:
    m_Center: {x: 0, y: 0, z: 0}
    m_Extent: {x: 0, y: 0, z: 0}
  m_ClipBindingConstant:
    genericBindings:
    - path: 0
      attribute: 1
      script: {fileID: 0}
      classID: 4
      customType: 0
      isPPtrCurve: 0
    - path: 0
      attribute: 4
      script: {fileID: 0}
      classID: 4
      customType: 14
      isPPtrCurve: 0
    - path: 0
      attribute: 3
      script: {fileID: 0}
      classID: 4
      customType: 0
      isPPtrCurve: 0
    pptrCurveMapping: []
  m_AnimationClipSettings:
    serializedVersion: 2
    m_AdditiveReferencePoseClip: {fileID: 0}
    m_AdditiveReferencePoseTime: 0
    m_StartTime: 0
    m_StopTime: 0.41666666
    m_OrientationOffsetY: 0
    m_Level: 0
    m_CycleOffset: 0
    m_HasAdditiveReferencePose: 0
    m_LoopTime: 0
    m_LoopBlend: 0
    m_LoopBlendOrientation: 0
    m_LoopBlendPositionY: 0
    m_LoopBlendPositionXZ: 0
    m_KeepOriginalOrientation: 0
    m_KeepOriginalPositionY: 1
    m_KeepOriginalPositionXZ: 0
    m_HeightFromFeet: 0
    m_Mirror: 0
  m_EditorCurves:
  - curve:
      serializedVersion: 2
      m_Curve:
      - time: 0
        value: 0
        inSlope: 4
        outSlope: 4
        tangentMode: 10
      - time: 0.25
        value: 1
        inSlope: -0.48000026
        outSlope: -0.48000026
        tangentMode: 10
      - time: 0.33333334
        value: 0.5866666
        inSlope: -6.2400007
        outSlope: -6.2400007
        tangentMode: 10
      - time: 0.41666666
        value: -0.04
        inSlope: -7.520001
        outSlope: -7.520001
        tangentMode: 10
      m_PreInfinity: 2
      m_PostInfinity: 2
      m_RotationOrder: 4
    attribute: m_LocalPosition.x
    path: 
    classID: 4
    script: {fileID: 0}
  - curve:
      serializedVersion: 2
      m_Curve:
      - time: 0
        value: 0
        inSlope: -147.2
        outSlope: -147.2
        tangentMode: 10
      - time: 0.25
        value: -36.8
        inSlope: -30.430004
        outSlope: -30.430004
        tangentMode: 10
      - time: 0.33333334
        value: -29.605
        inSlope: 119.70001
        outSlope: 119.70001
        tangentMode: 10
      - time: 0.41666666
        value: -16.85
        inSlope: 153.06003
        outSlope: 153.06003
        tangentMode: 10
      m_PreInfinity: 2
      m_PostInfinity: 2
      m_RotationOrder: 4
    attribute: m_LocalPosition.y
    path: 
    classID: 4
    script: {fileID: 0}
  - curve:
      serializedVersion: 2
      m_Curve:
      - time: 0
        value: 0
        inSlope: 0
        outSlope: 0
        tangentMode: 10
      - time: 0.25
        value: 0
        inSlope: 0
        outSlope: 0
        tangentMode: 10
      - time: 0.33333334
        value: 0
        inSlope: 0
        outSlope: 0
        tangentMode: 10
      - time: 0.41666666
        value: 0
        inSlope: 0
        outSlope: 0
        tangentMode: 10
      m_PreInfinity: 2
      m_PostInfinity: 2
      m_RotationOrder: 4
    attribute: m_LocalPosition.z
    path: 
    classID: 4
    script: {fileID: 0}
  - curve:
      serializedVersion: 2
      m_Curve:
      - time: 0
        value: 0
        inSlope: 0
        outSlope: 0
        tangentMode: 10
      - time: 0.41666666
        value: 0
        inSlope: 0
        outSlope: 0
        tangentMode: 10
      m_PreInfinity: 2
      m_PostInfinity: 2
      m_RotationOrder: 4
    attribute: localEulerAnglesRaw.x
    path: 
    classID: 4
    script: {fileID: 0}
  - curve:
      serializedVersion: 2
      m_Curve:
      - time: 0
        value: 0
        inSlope: 0
        outSlope: 0
        tangentMode: 10
      - time: 0.41666666
        value: 0
        inSlope: 0
        outSlope: 0
        tangentMode: 10
      m_PreInfinity: 2
      m_PostInfinity: 2
      m_RotationOrder: 4
    attribute: localEulerAnglesRaw.y
    path: 
    classID: 4
    script: {fileID: 0}
  - curve:
      serializedVersion: 2
      m_Curve:
      - time: 0
        value: 180
        inSlope: 432
        outSlope: 432
        tangentMode: 10
      - time: 0.41666666
        value: 360
        inSlope: 432
        outSlope: 432
        tangentMode: 10
      m_PreInfinity: 2
      m_PostInfinity: 2
      m_RotationOrder: 4
    attribute: localEulerAnglesRaw.z
    path: 
    classID: 4
    script: {fileID: 0}
  - curve:
      serializedVersion: 2
      m_Curve:
      - time: 0
        value: 0.1
        inSlope: 3.8450248
        outSlope: 3.8450248
        tangentMode: 10
      - time: 0.33333334
        value: 1.381675
        inSlope: -0.3675381
        outSlope: -0.3675381
        tangentMode: 10
      - time: 0.41666666
        value: 1
        inSlope: -4.580101
        outSlope: -4.580101
        tangentMode: 10
      m_PreInfinity: 2
      m_PostInfinity: 2
      m_RotationOrder: 4
    attribute: m_LocalScale.x
    path: 
    classID: 4
    script: {fileID: 0}
  - curve:
      serializedVersion: 2
      m_Curve:
      - time: 0
        value: 0.1
        inSlope: 3.845024
        outSlope: 3.845024
        tangentMode: 10
      - time: 0.33333334
        value: 1.3816748
        inSlope: -0.36753702
        outSlope: -0.36753702
        tangentMode: 10
      - time: 0.41666666
        value: 1
        inSlope: -4.580098
        outSlope: -4.580098
        tangentMode: 10
      m_PreInfinity: 2
      m_PostInfinity: 2
      m_RotationOrder: 4
    attribute: m_LocalScale.y
    path: 
    classID: 4
    script: {fileID: 0}
  - curve:
      serializedVersion: 2
      m_Curve:
      - time: 0
        value: 0.1
        inSlope: 3.845024
        outSlope: 3.845024
        tangentMode: 10
      - time: 0.33333334
        value: 1.3816748
        inSlope: -0.36753702
        outSlope: -0.36753702
        tangentMode: 10
      - time: 0.41666666
        value: 1
        inSlope: -4.580098
        outSlope: -4.580098
        tangentMode: 10
      m_PreInfinity: 2
      m_PostInfinity: 2
      m_RotationOrder: 4
    attribute: m_LocalScale.z
    path: 
    classID: 4
    script: {fileID: 0}
  m_EulerEditorCurves:
  - curve:
      serializedVersion: 2
      m_Curve: []
      m_PreInfinity: 2
      m_PostInfinity: 2
      m_RotationOrder: 4
    attribute: m_LocalEulerAngles.x
    path: 
    classID: 4
    script: {fileID: 0}
  - curve:
      serializedVersion: 2
      m_Curve: []
      m_PreInfinity: 2
      m_PostInfinity: 2
      m_RotationOrder: 4
    attribute: m_LocalEulerAngles.y
    path: 
    classID: 4
    script: {fileID: 0}
  - curve:
      serializedVersion: 2
      m_Curve: []
      m_PreInfinity: 2
      m_PostInfinity: 2
      m_RotationOrder: 4
    attribute: m_LocalEulerAngles.z
    path: 
    classID: 4
    script: {fileID: 0}
  m_HasGenericRootTransform: 1
  m_HasMotionFloatCurves: 0
  m_GenerateMotionCurves: 0
  m_Events: []
