%YAML 1.1
%TAG !u! tag:unity3d.com,2011:
--- !u!74 &7400000
AnimationClip:
  m_ObjectHideFlags: 0
  m_PrefabParentObject: {fileID: 0}
  m_PrefabInternal: {fileID: 0}
  m_Name: Skull10
  serializedVersion: 6
  m_Legacy: 0
  m_Compressed: 0
  m_UseHighQualityCurve: 1
  m_RotationCurves: []
  m_CompressedRotationCurves: []
  m_EulerCurves:
  - curve:
      serializedVersion: 2
      m_Curve:
      - time: 0
        value: {x: 0, y: 0, z: 0}
        inSlope: {x: 0, y: 0, z: 0}
        outSlope: {x: 0, y: 0, z: 0}
        tangentMode: 0
      - time: 0.2
        value: {x: 0, y: 0, z: 0}
        inSlope: {x: 0, y: 0, z: 0}
        outSlope: {x: 0, y: 0, z: 0}
        tangentMode: 0
      m_PreInfinity: 2
      m_PostInfinity: 2
      m_RotationOrder: 4
    path: 
  m_PositionCurves:
  - curve:
      serializedVersion: 2
      m_Curve:
      - time: 0
        value: {x: 0, y: -16.850006, z: 0}
        inSlope: {x: 0, y: 0, z: 0}
        outSlope: {x: 0, y: 0, z: 0}
        tangentMode: 0
      - time: 0.083333336
        value: {x: 0, y: -16.850006, z: 0}
        inSlope: {x: 0, y: -11.423061, z: 0}
        outSlope: {x: 0, y: -11.423061, z: 0}
        tangentMode: 0
      - time: 0.3
        value: {x: 0, y: -21.8, z: 0}
        inSlope: {x: 0, y: 9.576941, z: 0}
        outSlope: {x: 0, y: 9.576941, z: 0}
        tangentMode: 0
      - time: 0.41666666
        value: {x: 0, y: -16.9, z: 0}
        inSlope: {x: -10.199999, y: 16.799997, z: 0}
        outSlope: {x: -10.199999, y: 16.799997, z: 0}
        tangentMode: 0
      - time: 0.5
        value: {x: -1.7, y: -17.6, z: 0}
        inSlope: {x: 7.799988, y: -29.699966, z: 0}
        outSlope: {x: 7.799988, y: -29.699966, z: 0}
        tangentMode: 0
      - time: 0.53333336
        value: {x: -0.5, y: -19.3, z: 0}
        inSlope: {x: 35.999973, y: -50.999924, z: 0}
        outSlope: {x: 35.999973, y: -50.999924, z: 0}
        tangentMode: 0
      m_PreInfinity: 2
      m_PostInfinity: 2
      m_RotationOrder: 4
    path: 
  m_ScaleCurves:
  - curve:
      serializedVersion: 2
      m_Curve:
      - time: 0
        value: {x: 0.2, y: 0.2, z: 0.2}
        inSlope: {x: 3.3333333, y: 3.3333333, z: 3.3333333}
        outSlope: {x: 3.3333333, y: 3.3333333, z: 3.3333333}
        tangentMode: 0
      - time: 0.3
        value: {x: 1.2, y: 1.2, z: 1.2}
        inSlope: {x: 0.8095234, y: 0.8095234, z: 0.8095234}
        outSlope: {x: 0.8095234, y: 0.8095234, z: 0.8095234}
        tangentMode: 0
      - time: 0.41666666
        value: {x: 1, y: 1, z: 1}
        inSlope: {x: -1.7142864, y: -1.7142864, z: -1.7142864}
        outSlope: {x: -1.7142864, y: -1.7142864, z: -1.7142864}
        tangentMode: 0
      m_PreInfinity: 2
      m_PostInfinity: 2
      m_RotationOrder: 4
    path: 
  m_FloatCurves: []
  m_PPtrCurves: []
  m_SampleRate: 60
  m_WrapMode: 0
  m_Bounds:
    m_Center: {x: 0, y: 0, z: 0}
    m_Extent: {x: 0, y: 0, z: 0}
  m_ClipBindingConstant:
    genericBindings:
    - path: 0
      attribute: 1
      script: {fileID: 0}
      classID: 4
      customType: 0
      isPPtrCurve: 0
    - path: 0
      attribute: 3
      script: {fileID: 0}
      classID: 4
      customType: 0
      isPPtrCurve: 0
    - path: 0
      attribute: 4
      script: {fileID: 0}
      classID: 4
      customType: 14
      isPPtrCurve: 0
    pptrCurveMapping: []
  m_AnimationClipSettings:
    serializedVersion: 2
    m_AdditiveReferencePoseClip: {fileID: 0}
    m_AdditiveReferencePoseTime: 0
    m_StartTime: 0
    m_StopTime: 0.53333336
    m_OrientationOffsetY: 0
    m_Level: 0
    m_CycleOffset: 0
    m_HasAdditiveReferencePose: 0
    m_LoopTime: 0
    m_LoopBlend: 0
    m_LoopBlendOrientation: 0
    m_LoopBlendPositionY: 0
    m_LoopBlendPositionXZ: 0
    m_KeepOriginalOrientation: 0
    m_KeepOriginalPositionY: 1
    m_KeepOriginalPositionXZ: 0
    m_HeightFromFeet: 0
    m_Mirror: 0
  m_EditorCurves:
  - curve:
      serializedVersion: 2
      m_Curve:
      - time: 0
        value: 0
        inSlope: 0
        outSlope: 0
        tangentMode: 10
      - time: 0.083333336
        value: 0
        inSlope: 0
        outSlope: 0
        tangentMode: 10
      - time: 0.3
        value: 0
        inSlope: 0
        outSlope: 0
        tangentMode: 10
      - time: 0.41666666
        value: 0
        inSlope: -10.199999
        outSlope: -10.199999
        tangentMode: 10
      - time: 0.5
        value: -1.7
        inSlope: 7.799988
        outSlope: 7.799988
        tangentMode: 10
      - time: 0.53333336
        value: -0.5
        inSlope: 35.999973
        outSlope: 35.999973
        tangentMode: 10
      m_PreInfinity: 2
      m_PostInfinity: 2
      m_RotationOrder: 4
    attribute: m_LocalPosition.x
    path: 
    classID: 4
    script: {fileID: 0}
  - curve:
      serializedVersion: 2
      m_Curve:
      - time: 0
        value: -16.850006
        inSlope: 0
        outSlope: 0
        tangentMode: 10
      - time: 0.083333336
        value: -16.850006
        inSlope: -11.423061
        outSlope: -11.423061
        tangentMode: 10
      - time: 0.3
        value: -21.8
        inSlope: 9.576941
        outSlope: 9.576941
        tangentMode: 10
      - time: 0.41666666
        value: -16.9
        inSlope: 16.799997
        outSlope: 16.799997
        tangentMode: 10
      - time: 0.5
        value: -17.6
        inSlope: -29.699966
        outSlope: -29.699966
        tangentMode: 10
      - time: 0.53333336
        value: -19.3
        inSlope: -50.999924
        outSlope: -50.999924
        tangentMode: 10
      m_PreInfinity: 2
      m_PostInfinity: 2
      m_RotationOrder: 4
    attribute: m_LocalPosition.y
    path: 
    classID: 4
    script: {fileID: 0}
  - curve:
      serializedVersion: 2
      m_Curve:
      - time: 0
        value: 0
        inSlope: 0
        outSlope: 0
        tangentMode: 10
      - time: 0.083333336
        value: 0
        inSlope: 0
        outSlope: 0
        tangentMode: 10
      - time: 0.3
        value: 0
        inSlope: 0
        outSlope: 0
        tangentMode: 10
      - time: 0.41666666
        value: 0
        inSlope: 0
        outSlope: 0
        tangentMode: 10
      - time: 0.5
        value: 0
        inSlope: 0
        outSlope: 0
        tangentMode: 10
      - time: 0.53333336
        value: 0
        inSlope: 0
        outSlope: 0
        tangentMode: 10
      m_PreInfinity: 2
      m_PostInfinity: 2
      m_RotationOrder: 4
    attribute: m_LocalPosition.z
    path: 
    classID: 4
    script: {fileID: 0}
  - curve:
      serializedVersion: 2
      m_Curve:
      - time: 0
        value: 0
        inSlope: 0
        outSlope: 0
        tangentMode: 10
      - time: 0.2
        value: 0
        inSlope: 0
        outSlope: 0
        tangentMode: 10
      m_PreInfinity: 2
      m_PostInfinity: 2
      m_RotationOrder: 4
    attribute: localEulerAnglesRaw.x
    path: 
    classID: 4
    script: {fileID: 0}
  - curve:
      serializedVersion: 2
      m_Curve:
      - time: 0
        value: 0
        inSlope: 0
        outSlope: 0
        tangentMode: 10
      - time: 0.2
        value: 0
        inSlope: 0
        outSlope: 0
        tangentMode: 10
      m_PreInfinity: 2
      m_PostInfinity: 2
      m_RotationOrder: 4
    attribute: localEulerAnglesRaw.y
    path: 
    classID: 4
    script: {fileID: 0}
  - curve:
      serializedVersion: 2
      m_Curve:
      - time: 0
        value: 0
        inSlope: 0
        outSlope: 0
        tangentMode: 10
      - time: 0.2
        value: 0
        inSlope: 0
        outSlope: 0
        tangentMode: 10
      m_PreInfinity: 2
      m_PostInfinity: 2
      m_RotationOrder: 4
    attribute: localEulerAnglesRaw.z
    path: 
    classID: 4
    script: {fileID: 0}
  - curve:
      serializedVersion: 2
      m_Curve:
      - time: 0
        value: 0.2
        inSlope: 3.3333333
        outSlope: 3.3333333
        tangentMode: 10
      - time: 0.3
        value: 1.2
        inSlope: 0.8095234
        outSlope: 0.8095234
        tangentMode: 10
      - time: 0.41666666
        value: 1
        inSlope: -1.7142864
        outSlope: -1.7142864
        tangentMode: 10
      m_PreInfinity: 2
      m_PostInfinity: 2
      m_RotationOrder: 4
    attribute: m_LocalScale.x
    path: 
    classID: 4
    script: {fileID: 0}
  - curve:
      serializedVersion: 2
      m_Curve:
      - time: 0
        value: 0.2
        inSlope: 3.3333333
        outSlope: 3.3333333
        tangentMode: 10
      - time: 0.3
        value: 1.2
        inSlope: 0.8095234
        outSlope: 0.8095234
        tangentMode: 10
      - time: 0.41666666
        value: 1
        inSlope: -1.7142864
        outSlope: -1.7142864
        tangentMode: 10
      m_PreInfinity: 2
      m_PostInfinity: 2
      m_RotationOrder: 4
    attribute: m_LocalScale.y
    path: 
    classID: 4
    script: {fileID: 0}
  - curve:
      serializedVersion: 2
      m_Curve:
      - time: 0
        value: 0.2
        inSlope: 3.3333333
        outSlope: 3.3333333
        tangentMode: 10
      - time: 0.3
        value: 1.2
        inSlope: 0.8095234
        outSlope: 0.8095234
        tangentMode: 10
      - time: 0.41666666
        value: 1
        inSlope: -1.7142864
        outSlope: -1.7142864
        tangentMode: 10
      m_PreInfinity: 2
      m_PostInfinity: 2
      m_RotationOrder: 4
    attribute: m_LocalScale.z
    path: 
    classID: 4
    script: {fileID: 0}
  m_EulerEditorCurves:
  - curve:
      serializedVersion: 2
      m_Curve: []
      m_PreInfinity: 2
      m_PostInfinity: 2
      m_RotationOrder: 4
    attribute: m_LocalEulerAngles.x
    path: 
    classID: 4
    script: {fileID: 0}
  - curve:
      serializedVersion: 2
      m_Curve: []
      m_PreInfinity: 2
      m_PostInfinity: 2
      m_RotationOrder: 4
    attribute: m_LocalEulerAngles.y
    path: 
    classID: 4
    script: {fileID: 0}
  - curve:
      serializedVersion: 2
      m_Curve: []
      m_PreInfinity: 2
      m_PostInfinity: 2
      m_RotationOrder: 4
    attribute: m_LocalEulerAngles.z
    path: 
    classID: 4
    script: {fileID: 0}
  m_HasGenericRootTransform: 1
  m_HasMotionFloatCurves: 0
  m_GenerateMotionCurves: 0
  m_Events: []
