%YAML 1.1
%TAG !u! tag:unity3d.com,2011:
--- !u!74 &7400000
AnimationClip:
  m_ObjectHideFlags: 0
  m_PrefabParentObject: {fileID: 0}
  m_PrefabInternal: {fileID: 0}
  m_Name: Skull5
  serializedVersion: 6
  m_Legacy: 0
  m_Compressed: 0
  m_UseHighQualityCurve: 1
  m_RotationCurves: []
  m_CompressedRotationCurves: []
  m_EulerCurves:
  - curve:
      serializedVersion: 2
      m_Curve:
      - time: 0
        value: {x: 0, y: 0, z: 180}
        inSlope: {x: 0, y: 0, z: -1202.2925}
        outSlope: {x: 0, y: 0, z: -1202.2925}
        tangentMode: 0
      - time: 0.16666667
        value: {x: 0, y: 0, z: -20.3821}
        inSlope: {x: 0, y: 0, z: -560.382}
        outSlope: {x: 0, y: 0, z: -560.382}
        tangentMode: 0
      - time: 0.41666666
        value: {x: 0, y: 0, z: 0}
        inSlope: {x: 0, y: 0, z: 81.528404}
        outSlope: {x: 0, y: 0, z: 81.528404}
        tangentMode: 0
      m_PreInfinity: 2
      m_PostInfinity: 2
      m_RotationOrder: 4
    path: 
  m_PositionCurves:
  - curve:
      serializedVersion: 2
      m_Curve:
      - time: 0
        value: {x: 0, y: 0, z: 0}
        inSlope: {x: 342, y: 48.600037, z: 0}
        outSlope: {x: 342, y: 48.600037, z: 0}
        tangentMode: 0
      - time: 0.16666667
        value: {x: 57, y: 8.100006, z: 0}
        inSlope: {x: 83.21999, y: 22.560005, z: 0}
        outSlope: {x: 83.21999, y: 22.560005, z: 0}
        tangentMode: 0
      - time: 0.41666666
        value: {x: 13.11, y: 7.23, z: 0}
        inSlope: {x: -175.56001, y: -3.4800246, z: 0}
        outSlope: {x: -175.56001, y: -3.4800246, z: 0}
        tangentMode: 0
      m_PreInfinity: 2
      m_PostInfinity: 2
      m_RotationOrder: 4
    path: 
  m_ScaleCurves:
  - curve:
      serializedVersion: 2
      m_Curve:
      - time: 0
        value: {x: 0.1, y: 0.1, z: 0.1}
        inSlope: {x: 7.313351, y: 7.3133516, z: 7.3133516}
        outSlope: {x: 7.313351, y: 7.3133516, z: 7.3133516}
        tangentMode: 0
      - time: 0.16666667
        value: {x: 1.3188919, y: 1.318892, z: 1.318892}
        inSlope: {x: 3.0188918, y: 3.0188918, z: 3.0188918}
        outSlope: {x: 3.0188918, y: 3.0188918, z: 3.0188918}
        tangentMode: 0
      - time: 0.41666666
        value: {x: 1, y: 1, z: 1}
        inSlope: {x: -1.2755677, y: -1.2755681, z: -1.2755681}
        outSlope: {x: -1.2755677, y: -1.2755681, z: -1.2755681}
        tangentMode: 0
      m_PreInfinity: 2
      m_PostInfinity: 2
      m_RotationOrder: 4
    path: 
  m_FloatCurves: []
  m_PPtrCurves: []
  m_SampleRate: 60
  m_WrapMode: 0
  m_Bounds:
    m_Center: {x: 0, y: 0, z: 0}
    m_Extent: {x: 0, y: 0, z: 0}
  m_ClipBindingConstant:
    genericBindings:
    - path: 0
      attribute: 1
      script: {fileID: 0}
      classID: 4
      customType: 0
      isPPtrCurve: 0
    - path: 0
      attribute: 4
      script: {fileID: 0}
      classID: 4
      customType: 14
      isPPtrCurve: 0
    - path: 0
      attribute: 3
      script: {fileID: 0}
      classID: 4
      customType: 0
      isPPtrCurve: 0
    pptrCurveMapping: []
  m_AnimationClipSettings:
    serializedVersion: 2
    m_AdditiveReferencePoseClip: {fileID: 0}
    m_AdditiveReferencePoseTime: 0
    m_StartTime: 0
    m_StopTime: 0.41666666
    m_OrientationOffsetY: 0
    m_Level: 0
    m_CycleOffset: 0
    m_HasAdditiveReferencePose: 0
    m_LoopTime: 0
    m_LoopBlend: 0
    m_LoopBlendOrientation: 0
    m_LoopBlendPositionY: 0
    m_LoopBlendPositionXZ: 0
    m_KeepOriginalOrientation: 0
    m_KeepOriginalPositionY: 1
    m_KeepOriginalPositionXZ: 0
    m_HeightFromFeet: 0
    m_Mirror: 0
  m_EditorCurves:
  - curve:
      serializedVersion: 2
      m_Curve:
      - time: 0
        value: 0
        inSlope: 342
        outSlope: 342
        tangentMode: 10
      - time: 0.16666667
        value: 57
        inSlope: 83.21999
        outSlope: 83.21999
        tangentMode: 10
      - time: 0.41666666
        value: 13.11
        inSlope: -175.56001
        outSlope: -175.56001
        tangentMode: 10
      m_PreInfinity: 2
      m_PostInfinity: 2
      m_RotationOrder: 4
    attribute: m_LocalPosition.x
    path: 
    classID: 4
    script: {fileID: 0}
  - curve:
      serializedVersion: 2
      m_Curve:
      - time: 0
        value: 0
        inSlope: 48.600037
        outSlope: 48.600037
        tangentMode: 10
      - time: 0.16666667
        value: 8.100006
        inSlope: 22.560005
        outSlope: 22.560005
        tangentMode: 10
      - time: 0.41666666
        value: 7.23
        inSlope: -3.4800246
        outSlope: -3.4800246
        tangentMode: 10
      m_PreInfinity: 2
      m_PostInfinity: 2
      m_RotationOrder: 4
    attribute: m_LocalPosition.y
    path: 
    classID: 4
    script: {fileID: 0}
  - curve:
      serializedVersion: 2
      m_Curve:
      - time: 0
        value: 0
        inSlope: 0
        outSlope: 0
        tangentMode: 10
      - time: 0.16666667
        value: 0
        inSlope: 0
        outSlope: 0
        tangentMode: 10
      - time: 0.41666666
        value: 0
        inSlope: 0
        outSlope: 0
        tangentMode: 10
      m_PreInfinity: 2
      m_PostInfinity: 2
      m_RotationOrder: 4
    attribute: m_LocalPosition.z
    path: 
    classID: 4
    script: {fileID: 0}
  - curve:
      serializedVersion: 2
      m_Curve:
      - time: 0
        value: 0
        inSlope: 0
        outSlope: 0
        tangentMode: 10
      - time: 0.16666667
        value: 0
        inSlope: 0
        outSlope: 0
        tangentMode: 10
      - time: 0.41666666
        value: 0
        inSlope: 0
        outSlope: 0
        tangentMode: 10
      m_PreInfinity: 2
      m_PostInfinity: 2
      m_RotationOrder: 4
    attribute: localEulerAnglesRaw.x
    path: 
    classID: 4
    script: {fileID: 0}
  - curve:
      serializedVersion: 2
      m_Curve:
      - time: 0
        value: 0
        inSlope: 0
        outSlope: 0
        tangentMode: 10
      - time: 0.16666667
        value: 0
        inSlope: 0
        outSlope: 0
        tangentMode: 10
      - time: 0.41666666
        value: 0
        inSlope: 0
        outSlope: 0
        tangentMode: 10
      m_PreInfinity: 2
      m_PostInfinity: 2
      m_RotationOrder: 4
    attribute: localEulerAnglesRaw.y
    path: 
    classID: 4
    script: {fileID: 0}
  - curve:
      serializedVersion: 2
      m_Curve:
      - time: 0
        value: 180
        inSlope: -1202.2925
        outSlope: -1202.2925
        tangentMode: 10
      - time: 0.16666667
        value: -20.3821
        inSlope: -560.382
        outSlope: -560.382
        tangentMode: 10
      - time: 0.41666666
        value: 0
        inSlope: 81.528404
        outSlope: 81.528404
        tangentMode: 10
      m_PreInfinity: 2
      m_PostInfinity: 2
      m_RotationOrder: 4
    attribute: localEulerAnglesRaw.z
    path: 
    classID: 4
    script: {fileID: 0}
  - curve:
      serializedVersion: 2
      m_Curve:
      - time: 0
        value: 0.1
        inSlope: 7.313351
        outSlope: 7.313351
        tangentMode: 10
      - time: 0.16666667
        value: 1.3188919
        inSlope: 3.0188918
        outSlope: 3.0188918
        tangentMode: 10
      - time: 0.41666666
        value: 1
        inSlope: -1.2755677
        outSlope: -1.2755677
        tangentMode: 10
      m_PreInfinity: 2
      m_PostInfinity: 2
      m_RotationOrder: 4
    attribute: m_LocalScale.x
    path: 
    classID: 4
    script: {fileID: 0}
  - curve:
      serializedVersion: 2
      m_Curve:
      - time: 0
        value: 0.1
        inSlope: 7.3133516
        outSlope: 7.3133516
        tangentMode: 10
      - time: 0.16666667
        value: 1.318892
        inSlope: 3.0188918
        outSlope: 3.0188918
        tangentMode: 10
      - time: 0.41666666
        value: 1
        inSlope: -1.2755681
        outSlope: -1.2755681
        tangentMode: 10
      m_PreInfinity: 2
      m_PostInfinity: 2
      m_RotationOrder: 4
    attribute: m_LocalScale.y
    path: 
    classID: 4
    script: {fileID: 0}
  - curve:
      serializedVersion: 2
      m_Curve:
      - time: 0
        value: 0.1
        inSlope: 7.3133516
        outSlope: 7.3133516
        tangentMode: 10
      - time: 0.16666667
        value: 1.318892
        inSlope: 3.0188918
        outSlope: 3.0188918
        tangentMode: 10
      - time: 0.41666666
        value: 1
        inSlope: -1.2755681
        outSlope: -1.2755681
        tangentMode: 10
      m_PreInfinity: 2
      m_PostInfinity: 2
      m_RotationOrder: 4
    attribute: m_LocalScale.z
    path: 
    classID: 4
    script: {fileID: 0}
  m_EulerEditorCurves:
  - curve:
      serializedVersion: 2
      m_Curve: []
      m_PreInfinity: 2
      m_PostInfinity: 2
      m_RotationOrder: 4
    attribute: m_LocalEulerAngles.x
    path: 
    classID: 4
    script: {fileID: 0}
  - curve:
      serializedVersion: 2
      m_Curve: []
      m_PreInfinity: 2
      m_PostInfinity: 2
      m_RotationOrder: 4
    attribute: m_LocalEulerAngles.y
    path: 
    classID: 4
    script: {fileID: 0}
  - curve:
      serializedVersion: 2
      m_Curve: []
      m_PreInfinity: 2
      m_PostInfinity: 2
      m_RotationOrder: 4
    attribute: m_LocalEulerAngles.z
    path: 
    classID: 4
    script: {fileID: 0}
  m_HasGenericRootTransform: 1
  m_HasMotionFloatCurves: 0
  m_GenerateMotionCurves: 0
  m_Events: []
