%YAML 1.1
%TAG !u! tag:unity3d.com,2011:
--- !u!74 &7400000
AnimationClip:
  m_ObjectHideFlags: 0
  m_PrefabParentObject: {fileID: 0}
  m_PrefabInternal: {fileID: 0}
  m_Name: Skull7
  serializedVersion: 6
  m_Legacy: 0
  m_Compressed: 0
  m_UseHighQualityCurve: 1
  m_RotationCurves: []
  m_CompressedRotationCurves: []
  m_EulerCurves:
  - curve:
      serializedVersion: 2
      m_Curve:
      - time: 0
        value: {x: 0, y: 0, z: 180}
        inSlope: {x: 0, y: 0, z: -432}
        outSlope: {x: 0, y: 0, z: -432}
        tangentMode: 0
      - time: 0.41666666
        value: {x: 0, y: 0, z: 0}
        inSlope: {x: 0, y: 0, z: -432}
        outSlope: {x: 0, y: 0, z: -432}
        tangentMode: 0
      m_PreInfinity: 2
      m_PostInfinity: 2
      m_RotationOrder: 4
    path: 
  m_PositionCurves:
  - curve:
      serializedVersion: 2
      m_Curve:
      - time: 0
        value: {x: 0, y: 0, z: 0}
        inSlope: {x: -30.599998, y: -283.19998, z: 0}
        outSlope: {x: -30.599998, y: -283.19998, z: 0}
        tangentMode: 0
      - time: 0.16666667
        value: {x: -5.1, y: -47.2, z: 0}
        inSlope: {x: -2.3000002, y: -40.34999, z: 0}
        outSlope: {x: -2.3000002, y: -40.34999, z: 0}
        tangentMode: 0
      - time: 0.36666667
        value: {x: 0.1, y: -6.7, z: 0}
        inSlope: {x: 16.1, y: 100.24999, z: 0}
        outSlope: {x: 16.1, y: 100.24999, z: 0}
        tangentMode: 0
      - time: 0.41666666
        value: {x: 0.41, y: -6.8, z: 0}
        inSlope: {x: 6.200002, y: -2.0000083, z: 0}
        outSlope: {x: 6.200002, y: -2.0000083, z: 0}
        tangentMode: 0
      m_PreInfinity: 2
      m_PostInfinity: 2
      m_RotationOrder: 4
    path: 
  m_ScaleCurves:
  - curve:
      serializedVersion: 2
      m_Curve:
      - time: 0
        value: {x: 0.1, y: 0.1, z: 0.1}
        inSlope: {x: 5.443306, y: 5.4433036, z: 5.4433036}
        outSlope: {x: 5.443306, y: 5.4433036, z: 5.4433036}
        tangentMode: 0
      - time: 0.36666667
        value: {x: 2.0958788, y: 2.0958781, z: 2.0958781}
        inSlope: {x: -8.23714, y: -8.237133, z: -8.237133}
        outSlope: {x: -8.23714, y: -8.237133, z: -8.237133}
        tangentMode: 0
      - time: 0.41666666
        value: {x: 1, y: 1, z: 1}
        inSlope: {x: -21.917585, y: -21.91757, z: -21.91757}
        outSlope: {x: -21.917585, y: -21.91757, z: -21.91757}
        tangentMode: 0
      m_PreInfinity: 2
      m_PostInfinity: 2
      m_RotationOrder: 4
    path: 
  m_FloatCurves: []
  m_PPtrCurves: []
  m_SampleRate: 60
  m_WrapMode: 0
  m_Bounds:
    m_Center: {x: 0, y: 0, z: 0}
    m_Extent: {x: 0, y: 0, z: 0}
  m_ClipBindingConstant:
    genericBindings:
    - path: 0
      attribute: 1
      script: {fileID: 0}
      classID: 4
      customType: 0
      isPPtrCurve: 0
    - path: 0
      attribute: 4
      script: {fileID: 0}
      classID: 4
      customType: 14
      isPPtrCurve: 0
    - path: 0
      attribute: 3
      script: {fileID: 0}
      classID: 4
      customType: 0
      isPPtrCurve: 0
    pptrCurveMapping: []
  m_AnimationClipSettings:
    serializedVersion: 2
    m_AdditiveReferencePoseClip: {fileID: 0}
    m_AdditiveReferencePoseTime: 0
    m_StartTime: 0
    m_StopTime: 0.41666666
    m_OrientationOffsetY: 0
    m_Level: 0
    m_CycleOffset: 0
    m_HasAdditiveReferencePose: 0
    m_LoopTime: 0
    m_LoopBlend: 0
    m_LoopBlendOrientation: 0
    m_LoopBlendPositionY: 0
    m_LoopBlendPositionXZ: 0
    m_KeepOriginalOrientation: 0
    m_KeepOriginalPositionY: 1
    m_KeepOriginalPositionXZ: 0
    m_HeightFromFeet: 0
    m_Mirror: 0
  m_EditorCurves:
  - curve:
      serializedVersion: 2
      m_Curve:
      - time: 0
        value: 0
        inSlope: -30.599998
        outSlope: -30.599998
        tangentMode: 10
      - time: 0.16666667
        value: -5.1
        inSlope: -2.3000002
        outSlope: -2.3000002
        tangentMode: 10
      - time: 0.36666667
        value: 0.1
        inSlope: 16.1
        outSlope: 16.1
        tangentMode: 10
      - time: 0.41666666
        value: 0.41
        inSlope: 6.200002
        outSlope: 6.200002
        tangentMode: 10
      m_PreInfinity: 2
      m_PostInfinity: 2
      m_RotationOrder: 4
    attribute: m_LocalPosition.x
    path: 
    classID: 4
    script: {fileID: 0}
  - curve:
      serializedVersion: 2
      m_Curve:
      - time: 0
        value: 0
        inSlope: -283.19998
        outSlope: -283.19998
        tangentMode: 10
      - time: 0.16666667
        value: -47.2
        inSlope: -40.34999
        outSlope: -40.34999
        tangentMode: 10
      - time: 0.36666667
        value: -6.7
        inSlope: 100.24999
        outSlope: 100.24999
        tangentMode: 10
      - time: 0.41666666
        value: -6.8
        inSlope: -2.0000083
        outSlope: -2.0000083
        tangentMode: 10
      m_PreInfinity: 2
      m_PostInfinity: 2
      m_RotationOrder: 4
    attribute: m_LocalPosition.y
    path: 
    classID: 4
    script: {fileID: 0}
  - curve:
      serializedVersion: 2
      m_Curve:
      - time: 0
        value: 0
        inSlope: 0
        outSlope: 0
        tangentMode: 10
      - time: 0.16666667
        value: 0
        inSlope: 0
        outSlope: 0
        tangentMode: 10
      - time: 0.36666667
        value: 0
        inSlope: 0
        outSlope: 0
        tangentMode: 10
      - time: 0.41666666
        value: 0
        inSlope: 0
        outSlope: 0
        tangentMode: 10
      m_PreInfinity: 2
      m_PostInfinity: 2
      m_RotationOrder: 4
    attribute: m_LocalPosition.z
    path: 
    classID: 4
    script: {fileID: 0}
  - curve:
      serializedVersion: 2
      m_Curve:
      - time: 0
        value: 0
        inSlope: 0
        outSlope: 0
        tangentMode: 10
      - time: 0.41666666
        value: 0
        inSlope: 0
        outSlope: 0
        tangentMode: 10
      m_PreInfinity: 2
      m_PostInfinity: 2
      m_RotationOrder: 4
    attribute: localEulerAnglesRaw.x
    path: 
    classID: 4
    script: {fileID: 0}
  - curve:
      serializedVersion: 2
      m_Curve:
      - time: 0
        value: 0
        inSlope: 0
        outSlope: 0
        tangentMode: 10
      - time: 0.41666666
        value: 0
        inSlope: 0
        outSlope: 0
        tangentMode: 10
      m_PreInfinity: 2
      m_PostInfinity: 2
      m_RotationOrder: 4
    attribute: localEulerAnglesRaw.y
    path: 
    classID: 4
    script: {fileID: 0}
  - curve:
      serializedVersion: 2
      m_Curve:
      - time: 0
        value: 180
        inSlope: -432
        outSlope: -432
        tangentMode: 10
      - time: 0.41666666
        value: 0
        inSlope: -432
        outSlope: -432
        tangentMode: 10
      m_PreInfinity: 2
      m_PostInfinity: 2
      m_RotationOrder: 4
    attribute: localEulerAnglesRaw.z
    path: 
    classID: 4
    script: {fileID: 0}
  - curve:
      serializedVersion: 2
      m_Curve:
      - time: 0
        value: 0.1
        inSlope: 5.443306
        outSlope: 5.443306
        tangentMode: 10
      - time: 0.36666667
        value: 2.0958788
        inSlope: -8.23714
        outSlope: -8.23714
        tangentMode: 10
      - time: 0.41666666
        value: 1
        inSlope: -21.917585
        outSlope: -21.917585
        tangentMode: 10
      m_PreInfinity: 2
      m_PostInfinity: 2
      m_RotationOrder: 4
    attribute: m_LocalScale.x
    path: 
    classID: 4
    script: {fileID: 0}
  - curve:
      serializedVersion: 2
      m_Curve:
      - time: 0
        value: 0.1
        inSlope: 5.4433036
        outSlope: 5.4433036
        tangentMode: 10
      - time: 0.36666667
        value: 2.0958781
        inSlope: -8.237133
        outSlope: -8.237133
        tangentMode: 10
      - time: 0.41666666
        value: 1
        inSlope: -21.91757
        outSlope: -21.91757
        tangentMode: 10
      m_PreInfinity: 2
      m_PostInfinity: 2
      m_RotationOrder: 4
    attribute: m_LocalScale.y
    path: 
    classID: 4
    script: {fileID: 0}
  - curve:
      serializedVersion: 2
      m_Curve:
      - time: 0
        value: 0.1
        inSlope: 5.4433036
        outSlope: 5.4433036
        tangentMode: 10
      - time: 0.36666667
        value: 2.0958781
        inSlope: -8.237133
        outSlope: -8.237133
        tangentMode: 10
      - time: 0.41666666
        value: 1
        inSlope: -21.91757
        outSlope: -21.91757
        tangentMode: 10
      m_PreInfinity: 2
      m_PostInfinity: 2
      m_RotationOrder: 4
    attribute: m_LocalScale.z
    path: 
    classID: 4
    script: {fileID: 0}
  m_EulerEditorCurves:
  - curve:
      serializedVersion: 2
      m_Curve: []
      m_PreInfinity: 2
      m_PostInfinity: 2
      m_RotationOrder: 4
    attribute: m_LocalEulerAngles.x
    path: 
    classID: 4
    script: {fileID: 0}
  - curve:
      serializedVersion: 2
      m_Curve: []
      m_PreInfinity: 2
      m_PostInfinity: 2
      m_RotationOrder: 4
    attribute: m_LocalEulerAngles.y
    path: 
    classID: 4
    script: {fileID: 0}
  - curve:
      serializedVersion: 2
      m_Curve: []
      m_PreInfinity: 2
      m_PostInfinity: 2
      m_RotationOrder: 4
    attribute: m_LocalEulerAngles.z
    path: 
    classID: 4
    script: {fileID: 0}
  m_HasGenericRootTransform: 1
  m_HasMotionFloatCurves: 0
  m_GenerateMotionCurves: 0
  m_Events: []
