%YAML 1.1
%TAG !u! tag:unity3d.com,2011:
--- !u!1 &199784
GameObject:
  m_ObjectHideFlags: 0
  m_PrefabParentObject: {fileID: 0}
  m_PrefabInternal: {fileID: 100100000}
  serializedVersion: 4
  m_Component:
  - 4: {fileID: 470356}
  - 114: {fileID: 11472952}
  m_Layer: 0
  m_Name: Passive1
  m_TagString: Untagged
  m_Icon: {fileID: 0}
  m_NavMeshLayer: 0
  m_StaticEditorFlags: 0
  m_IsActive: 1
--- !u!4 &470356
Transform:
  m_ObjectHideFlags: 1
  m_PrefabParentObject: {fileID: 0}
  m_PrefabInternal: {fileID: 100100000}
  m_GameObject: {fileID: 199784}
  m_LocalRotation: {x: 0, y: 0, z: 0, w: 1}
  m_LocalPosition: {x: 0, y: -1.25, z: 0}
  m_LocalScale: {x: 1, y: 1, z: 1}
  m_Children: []
  m_Father: {fileID: 0}
  m_RootOrder: 0
--- !u!114 &11472952
MonoBehaviour:
  m_ObjectHideFlags: 1
  m_PrefabParentObject: {fileID: 0}
  m_PrefabInternal: {fileID: 100100000}
  m_GameObject: {fileID: 199784}
  m_Enabled: 1
  m_EditorHideFlags: 0
  m_Script: {fileID: 11500000, guid: fec00d0c432981744ae0abd13ea11155, type: 3}
  m_Name: 
  m_EditorClassIdentifier: 
  casterID: 0
  affectedPlayers: 
  callfrequenz: 0.25
  fadeStep: 0.05
  speedUpAmount: 5
  slowAmount: 2.5
  slimePrefab: {fileID: 112654, guid: affbaa97357f94e4297cfe34491d6ad6, type: 2}
--- !u!1001 &100100000
Prefab:
  m_ObjectHideFlags: 1
  serializedVersion: 2
  m_Modification:
    m_TransformParent: {fileID: 0}
    m_Modifications:
    - target: {fileID: 0}
      propertyPath: platforms.m_Bits
      value: 256
      objectReference: {fileID: 0}
    - target: {fileID: 0}
      propertyPath: players.m_Bits
      value: 512
      objectReference: {fileID: 0}
    - target: {fileID: 0}
      propertyPath: duration
      value: 3
      objectReference: {fileID: 0}
    - target: {fileID: 0}
      propertyPath: groundCheckRange
      value: 3
      objectReference: {fileID: 0}
    - target: {fileID: 0}
      propertyPath: slidingmat
      value: 
      objectReference: {fileID: 6200000, guid: ce3790862791259468483abc704cb741, type: 2}
    - target: {fileID: 0}
      propertyPath: oldcolor.r
      value: 1
      objectReference: {fileID: 0}
    - target: {fileID: 0}
      propertyPath: oldcolor.g
      value: 1
      objectReference: {fileID: 0}
    - target: {fileID: 0}
      propertyPath: oldcolor.b
      value: 1
      objectReference: {fileID: 0}
    - target: {fileID: 0}
      propertyPath: oldcolor.a
      value: 1
      objectReference: {fileID: 0}
    - target: {fileID: 0}
      propertyPath: cloudPrefab
      value: 
      objectReference: {fileID: 112654, guid: affbaa97357f94e4297cfe34491d6ad6, type: 2}
    - target: {fileID: 0}
      propertyPath: slimePrefab
      value: 
      objectReference: {fileID: 112654, guid: affbaa97357f94e4297cfe34491d6ad6, type: 2}
    - target: {fileID: 0}
      propertyPath: callfrequenz
      value: 0.25
      objectReference: {fileID: 0}
    - target: {fileID: 0}
      propertyPath: fadeStep
      value: 0.05
      objectReference: {fileID: 0}
    - target: {fileID: 0}
      propertyPath: m_LocalPosition.y
      value: -1.25
      objectReference: {fileID: 0}
    m_RemovedComponents: []
  m_ParentPrefab: {fileID: 0}
  m_RootGameObject: {fileID: 199784}
  m_IsPrefabParent: 1
