%YAML 1.1
%TAG !u! tag:unity3d.com,2011:
--- !u!74 &7400000
AnimationClip:
  m_ObjectHideFlags: 0
  m_PrefabParentObject: {fileID: 0}
  m_PrefabInternal: {fileID: 0}
  m_Name: MaskmanJumpEnde
  serializedVersion: 6
  m_Legacy: 0
  m_Compressed: 0
  m_UseHighQualityCurve: 1
  m_RotationCurves:
  - curve:
      serializedVersion: 2
      m_Curve:
      - time: 0
        value: {x: 0, y: 0, z: 0.0850233, w: -0.99637896}
        inSlope: {x: 0, y: 0, z: 1.2458082, w: 0.11940836}
        outSlope: {x: 0, y: 0, z: 1.2458082, w: 0.11940836}
        tangentMode: 0
      - time: 0.016666668
        value: {x: 0, y: 0, z: 0.10578677, w: -0.9943888}
        inSlope: {x: 0, y: 0, z: 1.3708627, w: 0.1487839}
        outSlope: {x: 0, y: 0, z: 1.3708627, w: 0.1487839}
        tangentMode: 0
      - time: 0.033333335
        value: {x: 0, y: 0, z: 0.13071872, w: -0.9914195}
        inSlope: {x: 0, y: 0, z: 1.43046, w: 0.18705902}
        outSlope: {x: 0, y: 0, z: 1.43046, w: 0.18705902}
        tangentMode: 0
      - time: 0.050000004
        value: {x: 0, y: 0, z: 0.15346877, w: -0.9881535}
        inSlope: {x: 0, y: 0, z: 1.1113808, w: 0.16777396}
        outSlope: {x: 0, y: 0, z: 1.1113808, w: 0.16777396}
        tangentMode: 0
      - time: 0.06666667
        value: {x: 0, y: 0, z: 0.16776475, w: -0.985827}
        inSlope: {x: 0, y: 0, z: 0.4173294, w: 0.067831285}
        outSlope: {x: 0, y: 0, z: 0.4173294, w: 0.067831285}
        tangentMode: 0
      - time: 0.083333336
        value: {x: 0, y: 0, z: 0.16737975, w: -0.9858925}
        inSlope: {x: 0, y: 0, z: -0.57975864, w: -0.09283484}
        outSlope: {x: 0, y: 0, z: -0.57975864, w: -0.09283484}
        tangentMode: 0
      - time: 0.1
        value: {x: 0, y: 0, z: 0.14843947, w: -0.9889215}
        inSlope: {x: 0, y: 0, z: -1.6006876, w: -0.22756758}
        outSlope: {x: 0, y: 0, z: -1.6006876, w: -0.22756758}
        tangentMode: 0
      - time: 0.11666667
        value: {x: 0, y: 0, z: 0.1140235, w: -0.99347806}
        inSlope: {x: 0, y: 0, z: -2.402803, w: -0.26220378}
        outSlope: {x: 0, y: 0, z: -2.402803, w: -0.26220378}
        tangentMode: 0
      - time: 0.13333334
        value: {x: 0, y: 0, z: 0.06834602, w: -0.99766165}
        inSlope: {x: 0, y: 0, z: -2.9481072, w: -0.19193527}
        outSlope: {x: 0, y: 0, z: -2.9481072, w: -0.19193527}
        tangentMode: 0
      - time: 0.15
        value: {x: 0, y: 0, z: 0.015753245, w: -0.9998759}
        inSlope: {x: 0, y: 0, z: -3.2285714, w: -0.047006615}
        outSlope: {x: 0, y: 0, z: -3.2285714, w: -0.047006615}
        tangentMode: 0
      - time: 0.16666667
        value: {x: 0, y: 0, z: -0.039273024, w: -0.99922854}
        inSlope: {x: 0, y: 0, z: -3.2385302, w: 0.12405575}
        outSlope: {x: 0, y: 0, z: -3.2385302, w: 0.12405575}
        tangentMode: 0
      - time: 0.18333334
        value: {x: 0, y: 0, z: -0.09219775, w: -0.9957407}
        inSlope: {x: 0, y: 0, z: -2.9784803, w: 0.26621643}
        outSlope: {x: 0, y: 0, z: -2.9784803, w: 0.26621643}
        tangentMode: 0
      - time: 0.2
        value: {x: 0, y: 0, z: -0.13855569, w: -0.99035466}
        inSlope: {x: 0, y: 0, z: -2.455031, w: 0.3300226}
        outSlope: {x: 0, y: 0, z: -2.455031, w: 0.3300226}
        tangentMode: 0
      - time: 0.21666667
        value: {x: 0, y: 0, z: -0.1740321, w: -0.98473996}
        inSlope: {x: 0, y: 0, z: -1.67713, w: 0.28332713}
        outSlope: {x: 0, y: 0, z: -1.67713, w: 0.28332713}
        tangentMode: 0
      - time: 0.23333333
        value: {x: 0, y: 0, z: -0.19446002, w: -0.9809104}
        inSlope: {x: 0, y: 0, z: -0.650109, w: 0.12229801}
        outSlope: {x: 0, y: 0, z: -0.650109, w: 0.12229801}
        tangentMode: 0
      - time: 0.25
        value: {x: 0, y: 0, z: -0.1957024, w: -0.98066336}
        inSlope: {x: 0, y: 0, z: 0.88317287, w: -0.16139017}
        outSlope: {x: 0, y: 0, z: 0.88317287, w: -0.16139017}
        tangentMode: 0
      - time: 0.26666668
        value: {x: 0, y: 0, z: -0.1650209, w: -0.9862901}
        inSlope: {x: 0, y: 0, z: 2.7552202, w: -0.41785204}
        outSlope: {x: 0, y: 0, z: 2.7552202, w: -0.41785204}
        tangentMode: 0
      - time: 0.28333336
        value: {x: 0, y: 0, z: -0.10386165, w: -0.9945918}
        inSlope: {x: 0, y: 0, z: 4.059551, w: -0.39806095}
        outSlope: {x: 0, y: 0, z: 4.059551, w: -0.39806095}
        tangentMode: 0
      - time: 0.30000004
        value: {x: 0, y: 0, z: -0.029702434, w: -0.9995588}
        inSlope: {x: 0, y: 0, z: 4.2953176, w: -0.13905098}
        outSlope: {x: 0, y: 0, z: 4.2953176, w: -0.13905098}
        tangentMode: 0
      - time: 0.31666672
        value: {x: 0, y: 0, z: 0.03931573, w: -0.9992268}
        inSlope: {x: 0, y: 0, z: 3.4417691, w: 0.095395364}
        outSlope: {x: 0, y: 0, z: 3.4417691, w: 0.095395364}
        tangentMode: 0
      - time: 0.3333334
        value: {x: 0, y: 0, z: 0.0850233, w: -0.99637896}
        inSlope: {x: 0, y: 0, z: 1.9104468, w: 0.13635445}
        outSlope: {x: 0, y: 0, z: 1.9104468, w: 0.13635445}
        tangentMode: 0
      - time: 0.35000008
        value: {x: 0, y: 0, z: 0.10299734, w: -0.99468166}
        inSlope: {x: 0, y: 0, z: 0.60655874, w: 0.05796964}
        outSlope: {x: 0, y: 0, z: 0.60655874, w: 0.05796964}
        tangentMode: 0
      - time: 0.36666676
        value: {x: 0, y: 0, z: 0.10524194, w: -0.99444664}
        inSlope: {x: 0, y: 0, z: -0.13471586, w: -0.013641704}
        outSlope: {x: 0, y: 0, z: -0.13471586, w: -0.013641704}
        tangentMode: 0
      - time: 0.38333344
        value: {x: 0, y: 0, z: 0.09850681, w: -0.9951364}
        inSlope: {x: 0, y: 0, z: -0.4716705, w: -0.046153627}
        outSlope: {x: 0, y: 0, z: -0.4716705, w: -0.046153627}
        tangentMode: 0
      - time: 0.40000013
        value: {x: 0, y: 0, z: 0.089519575, w: -0.9959851}
        inSlope: {x: 0, y: 0, z: -0.40450615, w: -0.037277415}
        outSlope: {x: 0, y: 0, z: -0.40450615, w: -0.037277415}
        tangentMode: 0
      - time: 0.41666666
        value: {x: 0, y: 0, z: 0.0850233, w: -0.99637896}
        inSlope: {x: 0, y: 0, z: -0.26977876, w: -0.023632241}
        outSlope: {x: 0, y: 0, z: -0.26977876, w: -0.023632241}
        tangentMode: 0
      m_PreInfinity: 2
      m_PostInfinity: 2
      m_RotationOrder: 4
    path: Brust_CTRL_GRP/Brust_CTRL
  - curve:
      serializedVersion: 2
      m_Curve:
      - time: 0
        value: {x: -0.008299798, y: -0.0018866882, z: 0.2158816, w: 0.9763824}
        inSlope: {x: 0.0024835018, y: -0.004635262, z: 0.5951115, w: -0.13474345}
        outSlope: {x: 0.0024835018, y: -0.004635262, z: 0.5951115, w: -0.13474345}
        tangentMode: 0
      - time: 0.016666668
        value: {x: -0.008258406, y: -0.0019639425, z: 0.22580013, w: 0.97413665}
        inSlope: {x: 0.0025425942, y: -0.004954871, z: 0.6306423, w: -0.14657915}
        outSlope: {x: 0.0025425942, y: -0.004954871, z: 0.6306423, w: -0.14657915}
        tangentMode: 0
      - time: 0.033333335
        value: {x: -0.008215045, y: -0.0020518505, z: 0.23690301, w: 0.9714964}
        inSlope: {x: 0.0026006526, y: -0.0055276062, z: 0.6923344, w: -0.16915974}
        outSlope: {x: 0.0026006526, y: -0.0055276062, z: 0.6923344, w: -0.16915974}
        tangentMode: 0
      - time: 0.050000004
        value: {x: -0.008171718, y: -0.002148196, z: 0.24887794, w: 0.968498}
        inSlope: {x: 0.0025570113, y: -0.005980648, z: 0.73535526, w: -0.18920124}
        outSlope: {x: 0.0025570113, y: -0.005980648, z: 0.73535526, w: -0.18920124}
        tangentMode: 0
      - time: 0.06666667
        value: {x: -0.008129811, y: -0.0022512055, z: 0.26141486, w: 0.9651897}
        inSlope: {x: 0.0024061652, y: -0.006284053, z: 0.7598618, w: -0.20592393}
        outSlope: {x: 0.0024061652, y: -0.006284053, z: 0.7598618, w: -0.20592393}
        tangentMode: 0
      - time: 0.083333336
        value: {x: -0.008091512, y: -0.0023576645, z: 0.27420667, w: 0.96163386}
        inSlope: {x: 0.0021814185, y: -0.0064397817, z: 0.7660595, w: -0.21843554}
        outSlope: {x: 0.0021814185, y: -0.0064397817, z: 0.7660595, w: -0.21843554}
        tangentMode: 0
      - time: 0.1
        value: {x: -0.008057097, y: -0.0024658649, z: 0.28695017, w: 0.9579085}
        inSlope: {x: 0.0019094257, y: -0.006454918, z: 0.7541997, w: -0.22580089}
        outSlope: {x: 0.0019094257, y: -0.006454918, z: 0.7541997, w: -0.22580089}
        tangentMode: 0
      - time: 0.11666667
        value: {x: -0.008027865, y: -0.0025728284, z: 0.29934666, w: 0.95410717}
        inSlope: {x: 0.0015944054, y: -0.006287195, z: 0.7245647, w: -0.22708651}
        outSlope: {x: 0.0015944054, y: -0.006287195, z: 0.7245647, w: -0.22708651}
        tangentMode: 0
      - time: 0.13333334
        value: {x: -0.00800395, y: -0.002675438, z: 0.31110233, w: 0.95033896}
        inSlope: {x: 0.0012825986, y: -0.0059530223, z: 0.6774463, w: -0.22142348}
        outSlope: {x: 0.0012825986, y: -0.0059530223, z: 0.6774463, w: -0.22142348}
        tangentMode: 0
      - time: 0.15
        value: {x: -0.007985111, y: -0.0027712625, z: 0.3219282, w: 0.9467264}
        inSlope: {x: 0.0009919704, y: -0.0054560397, z: 0.6131262, w: -0.20807149}
        outSlope: {x: 0.0009919704, y: -0.0054560397, z: 0.6131262, w: -0.20807149}
        tangentMode: 0
      - time: 0.16666667
        value: {x: -0.007970884, y: -0.002857306, z: 0.33153987, w: 0.94340324}
        inSlope: {x: 0.00072260393, y: -0.0047739972, z: 0.53184545, w: -0.18645109}
        outSlope: {x: 0.00072260393, y: -0.0047739972, z: 0.53184545, w: -0.18645109}
        tangentMode: 0
      - time: 0.18333334
        value: {x: -0.0079610245, y: -0.0029303958, z: 0.33965638, w: 0.94051135}
        inSlope: {x: 0.00048179185, y: -0.003935758, z: 0.4337794, w: -0.15621008}
        outSlope: {x: 0.00048179185, y: -0.003935758, z: 0.4337794, w: -0.15621008}
        tangentMode: 0
      - time: 0.2
        value: {x: -0.007954825, y: -0.002988498, z: 0.34599918, w: 0.93819624}
        inSlope: {x: 0.00029822814, y: -0.0029137942, z: 0.3190041, w: -0.11725904}
        outSlope: {x: 0.00029822814, y: -0.0029137942, z: 0.3190041, w: -0.11725904}
        tangentMode: 0
      - time: 0.21666667
        value: {x: -0.007951084, y: -0.0030275222, z: 0.35028985, w: 0.9366027}
        inSlope: {x: 0.00015006402, y: -0.0017125069, z: 0.1874596, w: -0.06984473}
        outSlope: {x: 0.00015006402, y: -0.0017125069, z: 0.1874596, w: -0.06984473}
        tangentMode: 0
      - time: 0.23333333
        value: {x: -0.007949823, y: -0.0030455815, z: 0.35224783, w: 0.9358681}
        inSlope: {x: 0.000011259692, y: -0.00036248245, z: 0.038934946, w: -0.014594795}
        outSlope: {x: 0.000011259692, y: -0.00036248245, z: 0.038934946, w: -0.014594795}
        tangentMode: 0
      - time: 0.25
        value: {x: -0.007950708, y: -0.003039605, z: 0.35158768, w: 0.9361162}
        inSlope: {x: -0.00013690433, y: 0.0013152664, z: -0.14406402, w: 0.053806864}
        outSlope: {x: -0.00013690433, y: 0.0013152664, z: -0.14406402, w: 0.053806864}
        tangentMode: 0
      - time: 0.26666668
        value: {x: -0.007954386, y: -0.0030017393, z: 0.3474457, w: 0.93766165}
        inSlope: {x: -0.00036656827, y: 0.0032861922, z: -0.36043227, w: 0.13275313}
        outSlope: {x: -0.00036656827, y: 0.0032861922, z: -0.36043227, w: 0.13275313}
        tangentMode: 0
      - time: 0.28333336
        value: {x: -0.007962927, y: -0.0029300652, z: 0.33957326, w: 0.9405413}
        inSlope: {x: -0.00068603025, y: 0.0051185936, z: -0.5654485, w: 0.20311457}
        outSlope: {x: -0.00068603025, y: 0.0051185936, z: -0.5654485, w: 0.20311457}
        tangentMode: 0
      - time: 0.30000004
        value: {x: -0.007977254, y: -0.0028311193, z: 0.3285974, w: 0.94443214}
        inSlope: {x: -0.0010951785, y: 0.0065520722, z: -0.7328406, w: 0.25393704}
        outSlope: {x: -0.0010951785, y: 0.0065520722, z: -0.7328406, w: 0.25393704}
        tangentMode: 0
      - time: 0.31666672
        value: {x: -0.007999433, y: -0.0027116626, z: 0.31514522, w: 0.9490059}
        inSlope: {x: -0.0015997128, y: 0.007604028, z: -0.86237687, w: 0.2854941}
        outSlope: {x: -0.0015997128, y: 0.007604028, z: -0.86237687, w: 0.2854941}
        tangentMode: 0
      - time: 0.3333334
        value: {x: -0.008030578, y: -0.0025776515, z: 0.29985148, w: 0.9539486}
        inSlope: {x: -0.0021424685, y: 0.008270081, z: -0.9534646, w: 0.2990911}
        outSlope: {x: -0.0021424685, y: 0.008270081, z: -0.9534646, w: 0.2990911}
        tangentMode: 0
      - time: 0.35000008
        value: {x: -0.008070849, y: -0.002435993, z: 0.28336304, w: 0.9589756}
        inSlope: {x: -0.002667287, y: 0.0085373875, z: -1.0053054, w: 0.2967987}
        outSlope: {x: -0.002667287, y: 0.0085373875, z: -1.0053054, w: 0.2967987}
        tangentMode: 0
      - time: 0.36666676
        value: {x: -0.008119487, y: -0.0022930717, z: 0.26634127, w: 0.9638419}
        inSlope: {x: -0.0031418141, y: 0.008454414, z: -1.0170369, w: 0.28116143}
        outSlope: {x: -0.0031418141, y: 0.008454414, z: -1.0170369, w: 0.28116143}
        tangentMode: 0
      - time: 0.38333344
        value: {x: -0.008175576, y: -0.002154179, z: 0.24946178, w: 0.96834767}
        inSlope: {x: -0.0034629805, y: 0.008027035, z: -0.98785585, w: 0.254967}
        outSlope: {x: -0.0034629805, y: 0.008027035, z: -0.98785585, w: 0.254967}
        tangentMode: 0
      - time: 0.40000013
        value: {x: -0.00823492, y: -0.0020255037, z: 0.23341271, w: 0.9723408}
        inSlope: {x: -0.003552487, y: 0.0072709974, z: -0.91709864, w: 0.2209307}
        outSlope: {x: -0.003552487, y: 0.0072709974, z: -0.91709864, w: 0.2209307}
        tangentMode: 0
      - time: 0.41666666
        value: {x: -0.008293992, y: -0.0019118132, z: 0.21889193, w: 0.975712}
        inSlope: {x: -0.0035443443, y: 0.0068214857, z: -0.8712538, w: 0.20227239}
        outSlope: {x: -0.0035443443, y: 0.0068214857, z: -0.8712538, w: 0.20227239}
        tangentMode: 0
      m_PreInfinity: 2
      m_PostInfinity: 2
      m_RotationOrder: 4
    path: SchniedelA_CTRL_GRP/SchniedelA_CTRL
  m_CompressedRotationCurves: []
  m_EulerCurves: []
  m_PositionCurves:
  - curve:
      serializedVersion: 2
      m_Curve:
      - time: 0
        value: {x: -22.4, y: 22.5, z: 0}
        inSlope: {x: 158.4, y: 26.40001, z: -0}
        outSlope: {x: 158.4, y: 26.40001, z: -0}
        tangentMode: 0
      - time: 0.083333336
        value: {x: -9.2, y: 24.7, z: -0}
        inSlope: {x: 144, y: -68.399994, z: 0}
        outSlope: {x: 144, y: -68.399994, z: 0}
        tangentMode: 0
      - time: 0.16666667
        value: {x: 1.6, y: 11.1, z: -0}
        inSlope: {x: 56.399994, y: -141, z: 0}
        outSlope: {x: 56.399994, y: -141, z: 0}
        tangentMode: 0
      - time: 0.25
        value: {x: 0.2, y: 1.2, z: 0}
        inSlope: {x: -8.400001, y: -59.400005, z: 0}
        outSlope: {x: -8.400001, y: -59.400005, z: 0}
        tangentMode: 0
      - time: 0.33333334
        value: {x: 0.2, y: 1.2, z: 0}
        inSlope: {x: 0, y: 0, z: 0}
        outSlope: {x: 0, y: 0, z: 0}
        tangentMode: 0
      - time: 0.41666666
        value: {x: 0.2, y: 1.2, z: 0}
        inSlope: {x: 0, y: 0, z: 0}
        outSlope: {x: 0, y: 0, z: 0}
        tangentMode: 0
      m_PreInfinity: 2
      m_PostInfinity: 2
      m_RotationOrder: 4
    path: "Fu\xDFL_CTRL_GRP/Fu\xDFL_CTRL"
  - curve:
      serializedVersion: 2
      m_Curve:
      - time: 0
        value: {x: 22.4, y: 33.4, z: 0}
        inSlope: {x: -272.39996, y: -396, z: -0}
        outSlope: {x: -272.39996, y: -396, z: -0}
        tangentMode: 0
      - time: 0.083333336
        value: {x: -0.3, y: 0.4, z: -0}
        inSlope: {x: -119.39998, y: -193.2, z: 0}
        outSlope: {x: -119.39998, y: -193.2, z: 0}
        tangentMode: 0
      - time: 0.16666667
        value: {x: 2.5, y: 1.2, z: -0}
        inSlope: {x: 7.9799986, y: 0.7199993, z: 0}
        outSlope: {x: 7.9799986, y: 0.7199993, z: 0}
        tangentMode: 0
      - time: 0.25
        value: {x: 1.03, y: 0.52, z: 0}
        inSlope: {x: -8.820001, y: -4.080001, z: 0}
        outSlope: {x: -8.820001, y: -4.080001, z: 0}
        tangentMode: 0
      - time: 0.33333334
        value: {x: 1.03, y: 0.52, z: 0}
        inSlope: {x: 0, y: 0, z: 0}
        outSlope: {x: 0, y: 0, z: 0}
        tangentMode: 0
      - time: 0.41666666
        value: {x: 1.03, y: 0.52, z: 0}
        inSlope: {x: 0, y: 0, z: 0}
        outSlope: {x: 0, y: 0, z: 0}
        tangentMode: 0
      m_PreInfinity: 2
      m_PostInfinity: 2
      m_RotationOrder: 4
    path: "Fu\xDFR_CTRL_GRP/Fu\xDFR_CTRL"
  - curve:
      serializedVersion: 2
      m_Curve:
      - time: 0
        value: {x: -3.7, y: 16.5, z: 0}
        inSlope: {x: 8.400001, y: 44.40001, z: 0}
        outSlope: {x: 8.400001, y: 44.40001, z: 0}
        tangentMode: 0
      - time: 0.083333336
        value: {x: -3, y: 20.2, z: 0}
        inSlope: {x: -4.2000003, y: 1.7999954, z: 0}
        outSlope: {x: -4.2000003, y: 1.7999954, z: 0}
        tangentMode: 0
      - time: 0.16666667
        value: {x: -4.4, y: 16.8, z: -0}
        inSlope: {x: -34.800003, y: -130.80002, z: 0}
        outSlope: {x: -34.800003, y: -130.80002, z: 0}
        tangentMode: 0
      - time: 0.25
        value: {x: -8.8, y: -1.6, z: -0}
        inSlope: {x: 43.799995, y: -61.800007, z: 0}
        outSlope: {x: 43.799995, y: -61.800007, z: 0}
        tangentMode: 0
      - time: 0.33333334
        value: {x: 2.9, y: 6.5, z: 0}
        inSlope: {x: 75.96, y: 37.499992, z: 0}
        outSlope: {x: 75.96, y: 37.499992, z: 0}
        tangentMode: 0
      - time: 0.41666666
        value: {x: 3.86, y: 4.65, z: 0}
        inSlope: {x: 11.52, y: -22.200005, z: 0}
        outSlope: {x: 11.52, y: -22.200005, z: 0}
        tangentMode: 0
      m_PreInfinity: 2
      m_PostInfinity: 2
      m_RotationOrder: 4
    path: HandL_CTRL_GRP/HandL_CTRL
  - curve:
      serializedVersion: 2
      m_Curve:
      - time: 0
        value: {x: 1, y: 2.3, z: 0}
        inSlope: {x: 8.400001, y: 32.399998, z: 0}
        outSlope: {x: 8.400001, y: 32.399998, z: 0}
        tangentMode: 0
      - time: 0.083333336
        value: {x: 1.7, y: 5, z: 0}
        inSlope: {x: -14.399998, y: -10.800001, z: 0}
        outSlope: {x: -14.399998, y: -10.800001, z: 0}
        tangentMode: 0
      - time: 0.16666667
        value: {x: -1.4, y: 0.5, z: 0}
        inSlope: {x: -53.399998, y: -67.2, z: 0}
        outSlope: {x: -53.399998, y: -67.2, z: 0}
        tangentMode: 0
      - time: 0.25
        value: {x: -7.2, y: -6.2, z: 0}
        inSlope: {x: -26.400002, y: -4.2000046, z: 0}
        outSlope: {x: -26.400002, y: -4.2000046, z: 0}
        tangentMode: 0
      - time: 0.33333334
        value: {x: -5.8, y: -0.2, z: 0}
        inSlope: {x: 15, y: 22.799992, z: 0}
        outSlope: {x: 15, y: 22.799992, z: 0}
        tangentMode: 0
      - time: 0.41666666
        value: {x: -4.7, y: -2.4, z: -0}
        inSlope: {x: 13.200007, y: -26.400007, z: -0}
        outSlope: {x: 13.200007, y: -26.400007, z: -0}
        tangentMode: 0
      m_PreInfinity: 2
      m_PostInfinity: 2
      m_RotationOrder: 4
    path: HandR_CTRL_GRP/HandR_CTRL
  - curve:
      serializedVersion: 2
      m_Curve:
      - time: 0
        value: {x: 0, y: 0, z: 0}
        inSlope: {x: 0, y: 0, z: 0}
        outSlope: {x: 0, y: 0, z: 0}
        tangentMode: 0
      - time: 0.16666667
        value: {x: 0, y: 0, z: 0}
        inSlope: {x: -43.2, y: -96.00001, z: 0}
        outSlope: {x: -43.2, y: -96.00001, z: 0}
        tangentMode: 0
      - time: 0.25
        value: {x: -7.2, y: -16, z: 0}
        inSlope: {x: -0.0000076293945, y: -0.000015258789, z: 0}
        outSlope: {x: -0.0000076293945, y: -0.000015258789, z: 0}
        tangentMode: 0
      - time: 0.33333334
        value: {x: 0, y: 0, z: 0}
        inSlope: {x: 43.199993, y: 95.99999, z: 0}
        outSlope: {x: 43.199993, y: 95.99999, z: 0}
        tangentMode: 0
      - time: 0.41666666
        value: {x: 0, y: 0, z: 0}
        inSlope: {x: 0, y: 0, z: 0}
        outSlope: {x: 0, y: 0, z: 0}
        tangentMode: 0
      m_PreInfinity: 2
      m_PostInfinity: 2
      m_RotationOrder: 4
    path: "H\xFCfte_CTRL_GRP/H\xFCfte_CTRL"
  - curve:
      serializedVersion: 2
      m_Curve:
      - time: 0
        value: {x: 0.62, y: 0.874, z: 0}
        inSlope: {x: -0.16799998, y: -0.028000116, z: 0}
        outSlope: {x: -0.16799998, y: -0.028000116, z: 0}
        tangentMode: 0
      - time: 0.25
        value: {x: 0.578, y: 0.867, z: 0}
        inSlope: {x: 0.16799995, y: 0.028000113, z: 0}
        outSlope: {x: 0.16799995, y: 0.028000113, z: 0}
        tangentMode: 0
      - time: 0.33333334
        value: {x: 0.62, y: 0.874, z: -0}
        inSlope: {x: 0.25199994, y: 0.04200017, z: 0}
        outSlope: {x: 0.25199994, y: 0.04200017, z: 0}
        tangentMode: 0
      - time: 0.41666666
        value: {x: 0.62, y: 0.874, z: -0}
        inSlope: {x: 0, y: 0, z: 0}
        outSlope: {x: 0, y: 0, z: 0}
        tangentMode: 0
      m_PreInfinity: 2
      m_PostInfinity: 2
      m_RotationOrder: 4
    path: "H\xFCfte/Brust/Kopf"
  - curve:
      serializedVersion: 2
      m_Curve:
      - time: 0
        value: {x: -0.086, y: 0.845, z: -8.900906e-11}
        inSlope: {x: -0.852, y: -0.80400014, z: 3.5603623e-10}
        outSlope: {x: -0.852, y: -0.80400014, z: 3.5603623e-10}
        tangentMode: 0
      - time: 0.25
        value: {x: -0.299, y: 0.644, z: -0}
        inSlope: {x: 1.9019998, y: 0.5339999, z: 1.7801811e-10}
        outSlope: {x: 1.9019998, y: 0.5339999, z: 1.7801811e-10}
        tangentMode: 0
      - time: 0.33333334
        value: {x: 0.089, y: 0.8, z: 0}
        inSlope: {x: 1.7939999, y: 2.1360044, z: -5.3405447e-10}
        outSlope: {x: 1.7939999, y: 2.1360044, z: -5.3405447e-10}
        tangentMode: 0
      - time: 0.41666666
        value: {x: 0.00000003237068, y: 1.0000007, z: -8.900906e-11}
        inSlope: {x: -1.068, y: 2.400009, z: -0.0000000010681089}
        outSlope: {x: -1.068, y: 2.400009, z: -0.0000000010681089}
        tangentMode: 0
      m_PreInfinity: 2
      m_PostInfinity: 2
      m_RotationOrder: 4
    path: "H\xFCfte/SchniedelA/SchniedelM"
  - curve:
      serializedVersion: 2
      m_Curve:
      - time: 0
        value: {x: -0.42, y: 0.38, z: -0}
        inSlope: {x: 0.52, y: 0.324, z: 0}
        outSlope: {x: 0.52, y: 0.324, z: 0}
        tangentMode: 0
      - time: 0.25
        value: {x: -0.29, y: 0.461, z: 0}
        inSlope: {x: 2.8099997, y: 0.672, z: 0}
        outSlope: {x: 2.8099997, y: 0.672, z: 0}
        tangentMode: 0
      - time: 0.33333334
        value: {x: 0.135, y: 0.546, z: 0}
        inSlope: {x: 1.3799994, y: 0.3179999, z: 0}
        outSlope: {x: 1.3799994, y: 0.3179999, z: 0}
        tangentMode: 0
      - time: 0.41666666
        value: {x: -0.06, y: 0.514, z: 0}
        inSlope: {x: -2.3400006, y: -0.38400015, z: 0}
        outSlope: {x: -2.3400006, y: -0.38400015, z: 0}
        tangentMode: 0
      m_PreInfinity: 2
      m_PostInfinity: 2
      m_RotationOrder: 4
    path: "H\xFCfte/SchniedelA/SchniedelM/SchniedelE"
  m_ScaleCurves: []
  m_FloatCurves: []
  m_PPtrCurves: []
  m_SampleRate: 60
  m_WrapMode: 0
  m_Bounds:
    m_Center: {x: 0, y: 0, z: 0}
    m_Extent: {x: 0, y: 0, z: 0}
  m_ClipBindingConstant:
    genericBindings:
    - path: 2501583950
      attribute: 1
      script: {fileID: 0}
      classID: 4
      customType: 0
      isPPtrCurve: 0
    - path: 887904761
      attribute: 1
      script: {fileID: 0}
      classID: 4
      customType: 0
      isPPtrCurve: 0
    - path: 3395650270
      attribute: 1
      script: {fileID: 0}
      classID: 4
      customType: 0
      isPPtrCurve: 0
    - path: 1804795753
      attribute: 1
      script: {fileID: 0}
      classID: 4
      customType: 0
      isPPtrCurve: 0
    - path: 1986355893
      attribute: 1
      script: {fileID: 0}
      classID: 4
      customType: 0
      isPPtrCurve: 0
    - path: 1872252437
      attribute: 1
      script: {fileID: 0}
      classID: 4
      customType: 0
      isPPtrCurve: 0
    - path: 3357235420
      attribute: 1
      script: {fileID: 0}
      classID: 4
      customType: 0
      isPPtrCurve: 0
    - path: 4067861515
      attribute: 1
      script: {fileID: 0}
      classID: 4
      customType: 0
      isPPtrCurve: 0
    - path: 4199396277
      attribute: 2
      script: {fileID: 0}
      classID: 4
      customType: 0
      isPPtrCurve: 0
    - path: 2551158490
      attribute: 2
      script: {fileID: 0}
      classID: 4
      customType: 0
      isPPtrCurve: 0
    pptrCurveMapping: []
  m_AnimationClipSettings:
    serializedVersion: 2
    m_AdditiveReferencePoseClip: {fileID: 0}
    m_AdditiveReferencePoseTime: 0
    m_StartTime: 0
    m_StopTime: 0.41666666
    m_OrientationOffsetY: 0
    m_Level: 0
    m_CycleOffset: 0
    m_HasAdditiveReferencePose: 0
    m_LoopTime: 1
    m_LoopBlend: 0
    m_LoopBlendOrientation: 0
    m_LoopBlendPositionY: 0
    m_LoopBlendPositionXZ: 0
    m_KeepOriginalOrientation: 0
    m_KeepOriginalPositionY: 1
    m_KeepOriginalPositionXZ: 0
    m_HeightFromFeet: 0
    m_Mirror: 0
  m_EditorCurves:
  - curve:
      serializedVersion: 2
      m_Curve:
      - time: 0
        value: -22.4
        inSlope: 158.4
        outSlope: 158.4
        tangentMode: 10
      - time: 0.083333336
        value: -9.2
        inSlope: 144
        outSlope: 144
        tangentMode: 10
      - time: 0.16666667
        value: 1.6
        inSlope: 56.399994
        outSlope: 56.399994
        tangentMode: 10
      - time: 0.25
        value: 0.2
        inSlope: -8.400001
        outSlope: -8.400001
        tangentMode: 10
      - time: 0.33333334
        value: 0.2
        inSlope: 0
        outSlope: 0
        tangentMode: 10
      - time: 0.41666666
        value: 0.2
        inSlope: 0
        outSlope: 0
        tangentMode: 10
      m_PreInfinity: 2
      m_PostInfinity: 2
      m_RotationOrder: 4
    attribute: m_LocalPosition.x
    path: "Fu\xDFL_CTRL_GRP/Fu\xDFL_CTRL"
    classID: 4
    script: {fileID: 0}
  - curve:
      serializedVersion: 2
      m_Curve:
      - time: 0
        value: 22.5
        inSlope: 26.40001
        outSlope: 26.40001
        tangentMode: 10
      - time: 0.083333336
        value: 24.7
        inSlope: -68.399994
        outSlope: -68.399994
        tangentMode: 10
      - time: 0.16666667
        value: 11.1
        inSlope: -141
        outSlope: -141
        tangentMode: 10
      - time: 0.25
        value: 1.2
        inSlope: -59.400005
        outSlope: -59.400005
        tangentMode: 10
      - time: 0.33333334
        value: 1.2
        inSlope: 0
        outSlope: 0
        tangentMode: 10
      - time: 0.41666666
        value: 1.2
        inSlope: 0
        outSlope: 0
        tangentMode: 10
      m_PreInfinity: 2
      m_PostInfinity: 2
      m_RotationOrder: 4
    attribute: m_LocalPosition.y
    path: "Fu\xDFL_CTRL_GRP/Fu\xDFL_CTRL"
    classID: 4
    script: {fileID: 0}
  - curve:
      serializedVersion: 2
      m_Curve:
      - time: 0
        value: 0
        inSlope: -0
        outSlope: -0
        tangentMode: 10
      - time: 0.083333336
        value: -0
        inSlope: 0
        outSlope: 0
        tangentMode: 10
      - time: 0.16666667
        value: -0
        inSlope: 0
        outSlope: 0
        tangentMode: 10
      - time: 0.25
        value: 0
        inSlope: 0
        outSlope: 0
        tangentMode: 10
      - time: 0.33333334
        value: 0
        inSlope: 0
        outSlope: 0
        tangentMode: 10
      - time: 0.41666666
        value: 0
        inSlope: 0
        outSlope: 0
        tangentMode: 10
      m_PreInfinity: 2
      m_PostInfinity: 2
      m_RotationOrder: 4
    attribute: m_LocalPosition.z
    path: "Fu\xDFL_CTRL_GRP/Fu\xDFL_CTRL"
    classID: 4
    script: {fileID: 0}
  - curve:
      serializedVersion: 2
      m_Curve:
      - time: 0
        value: 22.4
        inSlope: -272.39996
        outSlope: -272.39996
        tangentMode: 10
      - time: 0.083333336
        value: -0.3
        inSlope: -119.39998
        outSlope: -119.39998
        tangentMode: 10
      - time: 0.16666667
        value: 2.5
        inSlope: 7.9799986
        outSlope: 7.9799986
        tangentMode: 10
      - time: 0.25
        value: 1.03
        inSlope: -8.820001
        outSlope: -8.820001
        tangentMode: 10
      - time: 0.33333334
        value: 1.03
        inSlope: 0
        outSlope: 0
        tangentMode: 10
      - time: 0.41666666
        value: 1.03
        inSlope: 0
        outSlope: 0
        tangentMode: 10
      m_PreInfinity: 2
      m_PostInfinity: 2
      m_RotationOrder: 4
    attribute: m_LocalPosition.x
    path: "Fu\xDFR_CTRL_GRP/Fu\xDFR_CTRL"
    classID: 4
    script: {fileID: 0}
  - curve:
      serializedVersion: 2
      m_Curve:
      - time: 0
        value: 33.4
        inSlope: -396
        outSlope: -396
        tangentMode: 10
      - time: 0.083333336
        value: 0.4
        inSlope: -193.2
        outSlope: -193.2
        tangentMode: 10
      - time: 0.16666667
        value: 1.2
        inSlope: 0.7199993
        outSlope: 0.7199993
        tangentMode: 10
      - time: 0.25
        value: 0.52
        inSlope: -4.080001
        outSlope: -4.080001
        tangentMode: 10
      - time: 0.33333334
        value: 0.52
        inSlope: 0
        outSlope: 0
        tangentMode: 10
      - time: 0.41666666
        value: 0.52
        inSlope: 0
        outSlope: 0
        tangentMode: 10
      m_PreInfinity: 2
      m_PostInfinity: 2
      m_RotationOrder: 4
    attribute: m_LocalPosition.y
    path: "Fu\xDFR_CTRL_GRP/Fu\xDFR_CTRL"
    classID: 4
    script: {fileID: 0}
  - curve:
      serializedVersion: 2
      m_Curve:
      - time: 0
        value: 0
        inSlope: -0
        outSlope: -0
        tangentMode: 10
      - time: 0.083333336
        value: -0
        inSlope: 0
        outSlope: 0
        tangentMode: 10
      - time: 0.16666667
        value: -0
        inSlope: 0
        outSlope: 0
        tangentMode: 10
      - time: 0.25
        value: 0
        inSlope: 0
        outSlope: 0
        tangentMode: 10
      - time: 0.33333334
        value: 0
        inSlope: 0
        outSlope: 0
        tangentMode: 10
      - time: 0.41666666
        value: 0
        inSlope: 0
        outSlope: 0
        tangentMode: 10
      m_PreInfinity: 2
      m_PostInfinity: 2
      m_RotationOrder: 4
    attribute: m_LocalPosition.z
    path: "Fu\xDFR_CTRL_GRP/Fu\xDFR_CTRL"
    classID: 4
    script: {fileID: 0}
  - curve:
      serializedVersion: 2
      m_Curve:
      - time: 0
        value: -3.7
        inSlope: 8.400001
        outSlope: 8.400001
        tangentMode: 10
      - time: 0.083333336
        value: -3
        inSlope: -4.2000003
        outSlope: -4.2000003
        tangentMode: 10
      - time: 0.16666667
        value: -4.4
        inSlope: -34.800003
        outSlope: -34.800003
        tangentMode: 10
      - time: 0.25
        value: -8.8
        inSlope: 43.799995
        outSlope: 43.799995
        tangentMode: 10
      - time: 0.33333334
        value: 2.9
        inSlope: 75.96
        outSlope: 75.96
        tangentMode: 10
      - time: 0.41666666
        value: 3.86
        inSlope: 11.52
        outSlope: 11.52
        tangentMode: 10
      m_PreInfinity: 2
      m_PostInfinity: 2
      m_RotationOrder: 4
    attribute: m_LocalPosition.x
    path: HandL_CTRL_GRP/HandL_CTRL
    classID: 4
    script: {fileID: 0}
  - curve:
      serializedVersion: 2
      m_Curve:
      - time: 0
        value: 16.5
        inSlope: 44.40001
        outSlope: 44.40001
        tangentMode: 10
      - time: 0.083333336
        value: 20.2
        inSlope: 1.7999954
        outSlope: 1.7999954
        tangentMode: 10
      - time: 0.16666667
        value: 16.8
        inSlope: -130.80002
        outSlope: -130.80002
        tangentMode: 10
      - time: 0.25
        value: -1.6
        inSlope: -61.800007
        outSlope: -61.800007
        tangentMode: 10
      - time: 0.33333334
        value: 6.5
        inSlope: 37.499992
        outSlope: 37.499992
        tangentMode: 10
      - time: 0.41666666
        value: 4.65
        inSlope: -22.200005
        outSlope: -22.200005
        tangentMode: 10
      m_PreInfinity: 2
      m_PostInfinity: 2
      m_RotationOrder: 4
    attribute: m_LocalPosition.y
    path: HandL_CTRL_GRP/HandL_CTRL
    classID: 4
    script: {fileID: 0}
  - curve:
      serializedVersion: 2
      m_Curve:
      - time: 0
        value: 0
        inSlope: 0
        outSlope: 0
        tangentMode: 10
      - time: 0.083333336
        value: 0
        inSlope: 0
        outSlope: 0
        tangentMode: 10
      - time: 0.16666667
        value: -0
        inSlope: 0
        outSlope: 0
        tangentMode: 10
      - time: 0.25
        value: -0
        inSlope: 0
        outSlope: 0
        tangentMode: 10
      - time: 0.33333334
        value: 0
        inSlope: 0
        outSlope: 0
        tangentMode: 10
      - time: 0.41666666
        value: 0
        inSlope: 0
        outSlope: 0
        tangentMode: 10
      m_PreInfinity: 2
      m_PostInfinity: 2
      m_RotationOrder: 4
    attribute: m_LocalPosition.z
    path: HandL_CTRL_GRP/HandL_CTRL
    classID: 4
    script: {fileID: 0}
  - curve:
      serializedVersion: 2
      m_Curve:
      - time: 0
        value: 1
        inSlope: 8.400001
        outSlope: 8.400001
        tangentMode: 10
      - time: 0.083333336
        value: 1.7
        inSlope: -14.399998
        outSlope: -14.399998
        tangentMode: 10
      - time: 0.16666667
        value: -1.4
        inSlope: -53.399998
        outSlope: -53.399998
        tangentMode: 10
      - time: 0.25
        value: -7.2
        inSlope: -26.400002
        outSlope: -26.400002
        tangentMode: 10
      - time: 0.33333334
        value: -5.8
        inSlope: 15
        outSlope: 15
        tangentMode: 10
      - time: 0.41666666
        value: -4.7
        inSlope: 13.200007
        outSlope: 13.200007
        tangentMode: 10
      m_PreInfinity: 2
      m_PostInfinity: 2
      m_RotationOrder: 4
    attribute: m_LocalPosition.x
    path: HandR_CTRL_GRP/HandR_CTRL
    classID: 4
    script: {fileID: 0}
  - curve:
      serializedVersion: 2
      m_Curve:
      - time: 0
        value: 2.3
        inSlope: 32.399998
        outSlope: 32.399998
        tangentMode: 10
      - time: 0.083333336
        value: 5
        inSlope: -10.800001
        outSlope: -10.800001
        tangentMode: 10
      - time: 0.16666667
        value: 0.5
        inSlope: -67.2
        outSlope: -67.2
        tangentMode: 10
      - time: 0.25
        value: -6.2
        inSlope: -4.2000046
        outSlope: -4.2000046
        tangentMode: 10
      - time: 0.33333334
        value: -0.2
        inSlope: 22.799992
        outSlope: 22.799992
        tangentMode: 10
      - time: 0.41666666
        value: -2.4
        inSlope: -26.400007
        outSlope: -26.400007
        tangentMode: 10
      m_PreInfinity: 2
      m_PostInfinity: 2
      m_RotationOrder: 4
    attribute: m_LocalPosition.y
    path: HandR_CTRL_GRP/HandR_CTRL
    classID: 4
    script: {fileID: 0}
  - curve:
      serializedVersion: 2
      m_Curve:
      - time: 0
        value: 0
        inSlope: 0
        outSlope: 0
        tangentMode: 10
      - time: 0.083333336
        value: 0
        inSlope: 0
        outSlope: 0
        tangentMode: 10
      - time: 0.16666667
        value: 0
        inSlope: 0
        outSlope: 0
        tangentMode: 10
      - time: 0.25
        value: 0
        inSlope: 0
        outSlope: 0
        tangentMode: 10
      - time: 0.33333334
        value: 0
        inSlope: 0
        outSlope: 0
        tangentMode: 10
      - time: 0.41666666
        value: -0
        inSlope: -0
        outSlope: -0
        tangentMode: 10
      m_PreInfinity: 2
      m_PostInfinity: 2
      m_RotationOrder: 4
    attribute: m_LocalPosition.z
    path: HandR_CTRL_GRP/HandR_CTRL
    classID: 4
    script: {fileID: 0}
  - curve:
      serializedVersion: 2
      m_Curve:
      - time: 0
        value: 0
        inSlope: 0
        outSlope: 0
        tangentMode: 10
      - time: 0.16666667
        value: 0
        inSlope: -43.2
        outSlope: -43.2
        tangentMode: 10
      - time: 0.25
        value: -7.2
        inSlope: -0.0000076293945
        outSlope: -0.0000076293945
        tangentMode: 10
      - time: 0.33333334
        value: 0
        inSlope: 43.199993
        outSlope: 43.199993
        tangentMode: 10
      - time: 0.41666666
        value: 0
        inSlope: 0
        outSlope: 0
        tangentMode: 10
      m_PreInfinity: 2
      m_PostInfinity: 2
      m_RotationOrder: 4
    attribute: m_LocalPosition.x
    path: "H\xFCfte_CTRL_GRP/H\xFCfte_CTRL"
    classID: 4
    script: {fileID: 0}
  - curve:
      serializedVersion: 2
      m_Curve:
      - time: 0
        value: 0
        inSlope: 0
        outSlope: 0
        tangentMode: 10
      - time: 0.16666667
        value: 0
        inSlope: -96.00001
        outSlope: -96.00001
        tangentMode: 10
      - time: 0.25
        value: -16
        inSlope: -0.000015258789
        outSlope: -0.000015258789
        tangentMode: 10
      - time: 0.33333334
        value: 0
        inSlope: 95.99999
        outSlope: 95.99999
        tangentMode: 10
      - time: 0.41666666
        value: 0
        inSlope: 0
        outSlope: 0
        tangentMode: 10
      m_PreInfinity: 2
      m_PostInfinity: 2
      m_RotationOrder: 4
    attribute: m_LocalPosition.y
    path: "H\xFCfte_CTRL_GRP/H\xFCfte_CTRL"
    classID: 4
    script: {fileID: 0}
  - curve:
      serializedVersion: 2
      m_Curve:
      - time: 0
        value: 0
        inSlope: 0
        outSlope: 0
        tangentMode: 10
      - time: 0.16666667
        value: 0
        inSlope: 0
        outSlope: 0
        tangentMode: 10
      - time: 0.25
        value: 0
        inSlope: 0
        outSlope: 0
        tangentMode: 10
      - time: 0.33333334
        value: 0
        inSlope: 0
        outSlope: 0
        tangentMode: 10
      - time: 0.41666666
        value: 0
        inSlope: 0
        outSlope: 0
        tangentMode: 10
      m_PreInfinity: 2
      m_PostInfinity: 2
      m_RotationOrder: 4
    attribute: m_LocalPosition.z
    path: "H\xFCfte_CTRL_GRP/H\xFCfte_CTRL"
    classID: 4
    script: {fileID: 0}
  - curve:
      serializedVersion: 2
      m_Curve:
      - time: 0
        value: 0.62
        inSlope: -0.16799998
        outSlope: -0.16799998
        tangentMode: 10
      - time: 0.25
        value: 0.578
        inSlope: 0.16799995
        outSlope: 0.16799995
        tangentMode: 10
      - time: 0.33333334
        value: 0.62
        inSlope: 0.25199994
        outSlope: 0.25199994
        tangentMode: 10
      - time: 0.41666666
        value: 0.62
        inSlope: 0
        outSlope: 0
        tangentMode: 10
      m_PreInfinity: 2
      m_PostInfinity: 2
      m_RotationOrder: 4
    attribute: m_LocalPosition.x
    path: "H\xFCfte/Brust/Kopf"
    classID: 4
    script: {fileID: 0}
  - curve:
      serializedVersion: 2
      m_Curve:
      - time: 0
        value: 0.874
        inSlope: -0.028000116
        outSlope: -0.028000116
        tangentMode: 10
      - time: 0.25
        value: 0.867
        inSlope: 0.028000113
        outSlope: 0.028000113
        tangentMode: 10
      - time: 0.33333334
        value: 0.874
        inSlope: 0.04200017
        outSlope: 0.04200017
        tangentMode: 10
      - time: 0.41666666
        value: 0.874
        inSlope: 0
        outSlope: 0
        tangentMode: 10
      m_PreInfinity: 2
      m_PostInfinity: 2
      m_RotationOrder: 4
    attribute: m_LocalPosition.y
    path: "H\xFCfte/Brust/Kopf"
    classID: 4
    script: {fileID: 0}
  - curve:
      serializedVersion: 2
      m_Curve:
      - time: 0
        value: 0
        inSlope: 0
        outSlope: 0
        tangentMode: 10
      - time: 0.25
        value: 0
        inSlope: 0
        outSlope: 0
        tangentMode: 10
      - time: 0.33333334
        value: -0
        inSlope: 0
        outSlope: 0
        tangentMode: 10
      - time: 0.41666666
        value: -0
        inSlope: 0
        outSlope: 0
        tangentMode: 10
      m_PreInfinity: 2
      m_PostInfinity: 2
      m_RotationOrder: 4
    attribute: m_LocalPosition.z
    path: "H\xFCfte/Brust/Kopf"
    classID: 4
    script: {fileID: 0}
  - curve:
      serializedVersion: 2
      m_Curve:
      - time: 0
        value: -0.086
        inSlope: -0.852
        outSlope: -0.852
        tangentMode: 10
      - time: 0.25
        value: -0.299
        inSlope: 1.9019998
        outSlope: 1.9019998
        tangentMode: 10
      - time: 0.33333334
        value: 0.089
        inSlope: 1.7939999
        outSlope: 1.7939999
        tangentMode: 10
      - time: 0.41666666
        value: 0.00000003237068
        inSlope: -1.068
        outSlope: -1.068
        tangentMode: 10
      m_PreInfinity: 2
      m_PostInfinity: 2
      m_RotationOrder: 4
    attribute: m_LocalPosition.x
    path: "H\xFCfte/SchniedelA/SchniedelM"
    classID: 4
    script: {fileID: 0}
  - curve:
      serializedVersion: 2
      m_Curve:
      - time: 0
        value: 0.845
        inSlope: -0.80400014
        outSlope: -0.80400014
        tangentMode: 10
      - time: 0.25
        value: 0.644
        inSlope: 0.5339999
        outSlope: 0.5339999
        tangentMode: 10
      - time: 0.33333334
        value: 0.8
        inSlope: 2.1360044
        outSlope: 2.1360044
        tangentMode: 10
      - time: 0.41666666
        value: 1.0000007
        inSlope: 2.400009
        outSlope: 2.400009
        tangentMode: 10
      m_PreInfinity: 2
      m_PostInfinity: 2
      m_RotationOrder: 4
    attribute: m_LocalPosition.y
    path: "H\xFCfte/SchniedelA/SchniedelM"
    classID: 4
    script: {fileID: 0}
  - curve:
      serializedVersion: 2
      m_Curve:
      - time: 0
        value: -8.900906e-11
        inSlope: 3.5603623e-10
        outSlope: 3.5603623e-10
        tangentMode: 10
      - time: 0.25
        value: -0
        inSlope: 1.7801811e-10
        outSlope: 1.7801811e-10
        tangentMode: 10
      - time: 0.33333334
        value: 0
        inSlope: -5.3405447e-10
        outSlope: -5.3405447e-10
        tangentMode: 10
      - time: 0.41666666
        value: -8.900906e-11
        inSlope: -0.0000000010681089
        outSlope: -0.0000000010681089
        tangentMode: 10
      m_PreInfinity: 2
      m_PostInfinity: 2
      m_RotationOrder: 4
    attribute: m_LocalPosition.z
    path: "H\xFCfte/SchniedelA/SchniedelM"
    classID: 4
    script: {fileID: 0}
  - curve:
      serializedVersion: 2
      m_Curve:
      - time: 0
        value: -0.42
        inSlope: 0.52
        outSlope: 0.52
        tangentMode: 10
      - time: 0.25
        value: -0.29
        inSlope: 2.8099997
        outSlope: 2.8099997
        tangentMode: 10
      - time: 0.33333334
        value: 0.135
        inSlope: 1.3799994
        outSlope: 1.3799994
        tangentMode: 10
      - time: 0.41666666
        value: -0.06
        inSlope: -2.3400006
        outSlope: -2.3400006
        tangentMode: 10
      m_PreInfinity: 2
      m_PostInfinity: 2
      m_RotationOrder: 4
    attribute: m_LocalPosition.x
    path: "H\xFCfte/SchniedelA/SchniedelM/SchniedelE"
    classID: 4
    script: {fileID: 0}
  - curve:
      serializedVersion: 2
      m_Curve:
      - time: 0
        value: 0.38
        inSlope: 0.324
        outSlope: 0.324
        tangentMode: 10
      - time: 0.25
        value: 0.461
        inSlope: 0.672
        outSlope: 0.672
        tangentMode: 10
      - time: 0.33333334
        value: 0.546
        inSlope: 0.3179999
        outSlope: 0.3179999
        tangentMode: 10
      - time: 0.41666666
        value: 0.514
        inSlope: -0.38400015
        outSlope: -0.38400015
        tangentMode: 10
      m_PreInfinity: 2
      m_PostInfinity: 2
      m_RotationOrder: 4
    attribute: m_LocalPosition.y
    path: "H\xFCfte/SchniedelA/SchniedelM/SchniedelE"
    classID: 4
    script: {fileID: 0}
  - curve:
      serializedVersion: 2
      m_Curve:
      - time: 0
        value: -0
        inSlope: 0
        outSlope: 0
        tangentMode: 10
      - time: 0.25
        value: 0
        inSlope: 0
        outSlope: 0
        tangentMode: 10
      - time: 0.33333334
        value: 0
        inSlope: 0
        outSlope: 0
        tangentMode: 10
      - time: 0.41666666
        value: 0
        inSlope: 0
        outSlope: 0
        tangentMode: 10
      m_PreInfinity: 2
      m_PostInfinity: 2
      m_RotationOrder: 4
    attribute: m_LocalPosition.z
    path: "H\xFCfte/SchniedelA/SchniedelM/SchniedelE"
    classID: 4
    script: {fileID: 0}
  - curve:
      serializedVersion: 2
      m_Curve:
      - time: 0
        value: 0
        inSlope: 0
        outSlope: 0
        tangentMode: 0
      - time: 0.016666668
        value: 0
        inSlope: 0
        outSlope: 0
        tangentMode: 0
      - time: 0.033333335
        value: 0
        inSlope: 0
        outSlope: 0
        tangentMode: 0
      - time: 0.050000004
        value: 0
        inSlope: 0
        outSlope: 0
        tangentMode: 0
      - time: 0.06666667
        value: 0
        inSlope: 0
        outSlope: 0
        tangentMode: 0
      - time: 0.083333336
        value: 0
        inSlope: 0
        outSlope: 0
        tangentMode: 0
      - time: 0.1
        value: 0
        inSlope: 0
        outSlope: 0
        tangentMode: 0
      - time: 0.11666667
        value: 0
        inSlope: 0
        outSlope: 0
        tangentMode: 0
      - time: 0.13333334
        value: 0
        inSlope: 0
        outSlope: 0
        tangentMode: 0
      - time: 0.15
        value: 0
        inSlope: 0
        outSlope: 0
        tangentMode: 0
      - time: 0.16666667
        value: 0
        inSlope: 0
        outSlope: 0
        tangentMode: 0
      - time: 0.18333334
        value: 0
        inSlope: 0
        outSlope: 0
        tangentMode: 0
      - time: 0.2
        value: 0
        inSlope: 0
        outSlope: 0
        tangentMode: 0
      - time: 0.21666667
        value: 0
        inSlope: 0
        outSlope: 0
        tangentMode: 0
      - time: 0.23333333
        value: 0
        inSlope: 0
        outSlope: 0
        tangentMode: 0
      - time: 0.25
        value: 0
        inSlope: 0
        outSlope: 0
        tangentMode: 0
      - time: 0.26666668
        value: 0
        inSlope: 0
        outSlope: 0
        tangentMode: 0
      - time: 0.28333336
        value: 0
        inSlope: 0
        outSlope: 0
        tangentMode: 0
      - time: 0.30000004
        value: 0
        inSlope: 0
        outSlope: 0
        tangentMode: 0
      - time: 0.31666672
        value: 0
        inSlope: 0
        outSlope: 0
        tangentMode: 0
      - time: 0.3333334
        value: 0
        inSlope: 0
        outSlope: 0
        tangentMode: 0
      - time: 0.35000008
        value: 0
        inSlope: 0
        outSlope: 0
        tangentMode: 0
      - time: 0.36666676
        value: 0
        inSlope: 0
        outSlope: 0
        tangentMode: 0
      - time: 0.38333344
        value: 0
        inSlope: 0
        outSlope: 0
        tangentMode: 0
      - time: 0.40000013
        value: 0
        inSlope: 0
        outSlope: 0
        tangentMode: 0
      - time: 0.41666666
        value: 0
        inSlope: 0
        outSlope: 0
        tangentMode: 0
      m_PreInfinity: 2
      m_PostInfinity: 2
      m_RotationOrder: 4
    attribute: m_LocalRotation.x
    path: Brust_CTRL_GRP/Brust_CTRL
    classID: 4
    script: {fileID: 0}
  - curve:
      serializedVersion: 2
      m_Curve:
      - time: 0
        value: 0
        inSlope: 0
        outSlope: 0
        tangentMode: 0
      - time: 0.016666668
        value: 0
        inSlope: 0
        outSlope: 0
        tangentMode: 0
      - time: 0.033333335
        value: 0
        inSlope: 0
        outSlope: 0
        tangentMode: 0
      - time: 0.050000004
        value: 0
        inSlope: 0
        outSlope: 0
        tangentMode: 0
      - time: 0.06666667
        value: 0
        inSlope: 0
        outSlope: 0
        tangentMode: 0
      - time: 0.083333336
        value: 0
        inSlope: 0
        outSlope: 0
        tangentMode: 0
      - time: 0.1
        value: 0
        inSlope: 0
        outSlope: 0
        tangentMode: 0
      - time: 0.11666667
        value: 0
        inSlope: 0
        outSlope: 0
        tangentMode: 0
      - time: 0.13333334
        value: 0
        inSlope: 0
        outSlope: 0
        tangentMode: 0
      - time: 0.15
        value: 0
        inSlope: 0
        outSlope: 0
        tangentMode: 0
      - time: 0.16666667
        value: 0
        inSlope: 0
        outSlope: 0
        tangentMode: 0
      - time: 0.18333334
        value: 0
        inSlope: 0
        outSlope: 0
        tangentMode: 0
      - time: 0.2
        value: 0
        inSlope: 0
        outSlope: 0
        tangentMode: 0
      - time: 0.21666667
        value: 0
        inSlope: 0
        outSlope: 0
        tangentMode: 0
      - time: 0.23333333
        value: 0
        inSlope: 0
        outSlope: 0
        tangentMode: 0
      - time: 0.25
        value: 0
        inSlope: 0
        outSlope: 0
        tangentMode: 0
      - time: 0.26666668
        value: 0
        inSlope: 0
        outSlope: 0
        tangentMode: 0
      - time: 0.28333336
        value: 0
        inSlope: 0
        outSlope: 0
        tangentMode: 0
      - time: 0.30000004
        value: 0
        inSlope: 0
        outSlope: 0
        tangentMode: 0
      - time: 0.31666672
        value: 0
        inSlope: 0
        outSlope: 0
        tangentMode: 0
      - time: 0.3333334
        value: 0
        inSlope: 0
        outSlope: 0
        tangentMode: 0
      - time: 0.35000008
        value: 0
        inSlope: 0
        outSlope: 0
        tangentMode: 0
      - time: 0.36666676
        value: 0
        inSlope: 0
        outSlope: 0
        tangentMode: 0
      - time: 0.38333344
        value: 0
        inSlope: 0
        outSlope: 0
        tangentMode: 0
      - time: 0.40000013
        value: 0
        inSlope: 0
        outSlope: 0
        tangentMode: 0
      - time: 0.41666666
        value: 0
        inSlope: 0
        outSlope: 0
        tangentMode: 0
      m_PreInfinity: 2
      m_PostInfinity: 2
      m_RotationOrder: 4
    attribute: m_LocalRotation.y
    path: Brust_CTRL_GRP/Brust_CTRL
    classID: 4
    script: {fileID: 0}
  - curve:
      serializedVersion: 2
      m_Curve:
      - time: 0
        value: 0.0850233
        inSlope: 1.2458082
        outSlope: 1.2458082
        tangentMode: 0
      - time: 0.016666668
        value: 0.10578677
        inSlope: 1.3708627
        outSlope: 1.3708627
        tangentMode: 0
      - time: 0.033333335
        value: 0.13071872
        inSlope: 1.43046
        outSlope: 1.43046
        tangentMode: 0
      - time: 0.050000004
        value: 0.15346877
        inSlope: 1.1113808
        outSlope: 1.1113808
        tangentMode: 0
      - time: 0.06666667
        value: 0.16776475
        inSlope: 0.4173294
        outSlope: 0.4173294
        tangentMode: 0
      - time: 0.083333336
        value: 0.16737975
        inSlope: -0.57975864
        outSlope: -0.57975864
        tangentMode: 0
      - time: 0.1
        value: 0.14843947
        inSlope: -1.6006876
        outSlope: -1.6006876
        tangentMode: 0
      - time: 0.11666667
        value: 0.1140235
        inSlope: -2.402803
        outSlope: -2.402803
        tangentMode: 0
      - time: 0.13333334
        value: 0.06834602
        inSlope: -2.9481072
        outSlope: -2.9481072
        tangentMode: 0
      - time: 0.15
        value: 0.015753245
        inSlope: -3.2285714
        outSlope: -3.2285714
        tangentMode: 0
      - time: 0.16666667
        value: -0.039273024
        inSlope: -3.2385302
        outSlope: -3.2385302
        tangentMode: 0
      - time: 0.18333334
        value: -0.09219775
        inSlope: -2.9784803
        outSlope: -2.9784803
        tangentMode: 0
      - time: 0.2
        value: -0.13855569
        inSlope: -2.455031
        outSlope: -2.455031
        tangentMode: 0
      - time: 0.21666667
        value: -0.1740321
        inSlope: -1.67713
        outSlope: -1.67713
        tangentMode: 0
      - time: 0.23333333
        value: -0.19446002
        inSlope: -0.650109
        outSlope: -0.650109
        tangentMode: 0
      - time: 0.25
        value: -0.1957024
        inSlope: 0.88317287
        outSlope: 0.88317287
        tangentMode: 0
      - time: 0.26666668
        value: -0.1650209
        inSlope: 2.7552202
        outSlope: 2.7552202
        tangentMode: 0
      - time: 0.28333336
        value: -0.10386165
        inSlope: 4.059551
        outSlope: 4.059551
        tangentMode: 0
      - time: 0.30000004
        value: -0.029702434
        inSlope: 4.2953176
        outSlope: 4.2953176
        tangentMode: 0
      - time: 0.31666672
        value: 0.03931573
        inSlope: 3.4417691
        outSlope: 3.4417691
        tangentMode: 0
      - time: 0.3333334
        value: 0.0850233
        inSlope: 1.9104468
        outSlope: 1.9104468
        tangentMode: 0
      - time: 0.35000008
        value: 0.10299734
        inSlope: 0.60655874
        outSlope: 0.60655874
        tangentMode: 0
      - time: 0.36666676
        value: 0.10524194
        inSlope: -0.13471586
        outSlope: -0.13471586
        tangentMode: 0
      - time: 0.38333344
        value: 0.09850681
        inSlope: -0.4716705
        outSlope: -0.4716705
        tangentMode: 0
      - time: 0.40000013
        value: 0.089519575
        inSlope: -0.40450615
        outSlope: -0.40450615
        tangentMode: 0
      - time: 0.41666666
        value: 0.0850233
        inSlope: -0.26977876
        outSlope: -0.26977876
        tangentMode: 0
      m_PreInfinity: 2
      m_PostInfinity: 2
      m_RotationOrder: 4
    attribute: m_LocalRotation.z
    path: Brust_CTRL_GRP/Brust_CTRL
    classID: 4
    script: {fileID: 0}
  - curve:
      serializedVersion: 2
      m_Curve:
      - time: 0
        value: -0.99637896
        inSlope: 0.11940836
        outSlope: 0.11940836
        tangentMode: 0
      - time: 0.016666668
        value: -0.9943888
        inSlope: 0.1487839
        outSlope: 0.1487839
        tangentMode: 0
      - time: 0.033333335
        value: -0.9914195
        inSlope: 0.18705902
        outSlope: 0.18705902
        tangentMode: 0
      - time: 0.050000004
        value: -0.9881535
        inSlope: 0.16777396
        outSlope: 0.16777396
        tangentMode: 0
      - time: 0.06666667
        value: -0.985827
        inSlope: 0.067831285
        outSlope: 0.067831285
        tangentMode: 0
      - time: 0.083333336
        value: -0.9858925
        inSlope: -0.09283484
        outSlope: -0.09283484
        tangentMode: 0
      - time: 0.1
        value: -0.9889215
        inSlope: -0.22756758
        outSlope: -0.22756758
        tangentMode: 0
      - time: 0.11666667
        value: -0.99347806
        inSlope: -0.26220378
        outSlope: -0.26220378
        tangentMode: 0
      - time: 0.13333334
        value: -0.99766165
        inSlope: -0.19193527
        outSlope: -0.19193527
        tangentMode: 0
      - time: 0.15
        value: -0.9998759
        inSlope: -0.047006615
        outSlope: -0.047006615
        tangentMode: 0
      - time: 0.16666667
        value: -0.99922854
        inSlope: 0.12405575
        outSlope: 0.12405575
        tangentMode: 0
      - time: 0.18333334
        value: -0.9957407
        inSlope: 0.26621643
        outSlope: 0.26621643
        tangentMode: 0
      - time: 0.2
        value: -0.99035466
        inSlope: 0.3300226
        outSlope: 0.3300226
        tangentMode: 0
      - time: 0.21666667
        value: -0.98473996
        inSlope: 0.28332713
        outSlope: 0.28332713
        tangentMode: 0
      - time: 0.23333333
        value: -0.9809104
        inSlope: 0.12229801
        outSlope: 0.12229801
        tangentMode: 0
      - time: 0.25
        value: -0.98066336
        inSlope: -0.16139017
        outSlope: -0.16139017
        tangentMode: 0
      - time: 0.26666668
        value: -0.9862901
        inSlope: -0.41785204
        outSlope: -0.41785204
        tangentMode: 0
      - time: 0.28333336
        value: -0.9945918
        inSlope: -0.39806095
        outSlope: -0.39806095
        tangentMode: 0
      - time: 0.30000004
        value: -0.9995588
        inSlope: -0.13905098
        outSlope: -0.13905098
        tangentMode: 0
      - time: 0.31666672
        value: -0.9992268
        inSlope: 0.095395364
        outSlope: 0.095395364
        tangentMode: 0
      - time: 0.3333334
        value: -0.99637896
        inSlope: 0.13635445
        outSlope: 0.13635445
        tangentMode: 0
      - time: 0.35000008
        value: -0.99468166
        inSlope: 0.05796964
        outSlope: 0.05796964
        tangentMode: 0
      - time: 0.36666676
        value: -0.99444664
        inSlope: -0.013641704
        outSlope: -0.013641704
        tangentMode: 0
      - time: 0.38333344
        value: -0.9951364
        inSlope: -0.046153627
        outSlope: -0.046153627
        tangentMode: 0
      - time: 0.40000013
        value: -0.9959851
        inSlope: -0.037277415
        outSlope: -0.037277415
        tangentMode: 0
      - time: 0.41666666
        value: -0.99637896
        inSlope: -0.023632241
        outSlope: -0.023632241
        tangentMode: 0
      m_PreInfinity: 2
      m_PostInfinity: 2
      m_RotationOrder: 4
    attribute: m_LocalRotation.w
    path: Brust_CTRL_GRP/Brust_CTRL
    classID: 4
    script: {fileID: 0}
  - curve:
      serializedVersion: 2
      m_Curve:
      - time: 0
        value: -0.008299798
        inSlope: 0.0024835018
        outSlope: 0.0024835018
        tangentMode: 0
      - time: 0.016666668
        value: -0.008258406
        inSlope: 0.0025425942
        outSlope: 0.0025425942
        tangentMode: 0
      - time: 0.033333335
        value: -0.008215045
        inSlope: 0.0026006526
        outSlope: 0.0026006526
        tangentMode: 0
      - time: 0.050000004
        value: -0.008171718
        inSlope: 0.0025570113
        outSlope: 0.0025570113
        tangentMode: 0
      - time: 0.06666667
        value: -0.008129811
        inSlope: 0.0024061652
        outSlope: 0.0024061652
        tangentMode: 0
      - time: 0.083333336
        value: -0.008091512
        inSlope: 0.0021814185
        outSlope: 0.0021814185
        tangentMode: 0
      - time: 0.1
        value: -0.008057097
        inSlope: 0.0019094257
        outSlope: 0.0019094257
        tangentMode: 0
      - time: 0.11666667
        value: -0.008027865
        inSlope: 0.0015944054
        outSlope: 0.0015944054
        tangentMode: 0
      - time: 0.13333334
        value: -0.00800395
        inSlope: 0.0012825986
        outSlope: 0.0012825986
        tangentMode: 0
      - time: 0.15
        value: -0.007985111
        inSlope: 0.0009919704
        outSlope: 0.0009919704
        tangentMode: 0
      - time: 0.16666667
        value: -0.007970884
        inSlope: 0.00072260393
        outSlope: 0.00072260393
        tangentMode: 0
      - time: 0.18333334
        value: -0.0079610245
        inSlope: 0.00048179185
        outSlope: 0.00048179185
        tangentMode: 0
      - time: 0.2
        value: -0.007954825
        inSlope: 0.00029822814
        outSlope: 0.00029822814
        tangentMode: 0
      - time: 0.21666667
        value: -0.007951084
        inSlope: 0.00015006402
        outSlope: 0.00015006402
        tangentMode: 0
      - time: 0.23333333
        value: -0.007949823
        inSlope: 0.000011259692
        outSlope: 0.000011259692
        tangentMode: 0
      - time: 0.25
        value: -0.007950708
        inSlope: -0.00013690433
        outSlope: -0.00013690433
        tangentMode: 0
      - time: 0.26666668
        value: -0.007954386
        inSlope: -0.00036656827
        outSlope: -0.00036656827
        tangentMode: 0
      - time: 0.28333336
        value: -0.007962927
        inSlope: -0.00068603025
        outSlope: -0.00068603025
        tangentMode: 0
      - time: 0.30000004
        value: -0.007977254
        inSlope: -0.0010951785
        outSlope: -0.0010951785
        tangentMode: 0
      - time: 0.31666672
        value: -0.007999433
        inSlope: -0.0015997128
        outSlope: -0.0015997128
        tangentMode: 0
      - time: 0.3333334
        value: -0.008030578
        inSlope: -0.0021424685
        outSlope: -0.0021424685
        tangentMode: 0
      - time: 0.35000008
        value: -0.008070849
        inSlope: -0.002667287
        outSlope: -0.002667287
        tangentMode: 0
      - time: 0.36666676
        value: -0.008119487
        inSlope: -0.0031418141
        outSlope: -0.0031418141
        tangentMode: 0
      - time: 0.38333344
        value: -0.008175576
        inSlope: -0.0034629805
        outSlope: -0.0034629805
        tangentMode: 0
      - time: 0.40000013
        value: -0.00823492
        inSlope: -0.003552487
        outSlope: -0.003552487
        tangentMode: 0
      - time: 0.41666666
        value: -0.008293992
        inSlope: -0.0035443443
        outSlope: -0.0035443443
        tangentMode: 0
      m_PreInfinity: 2
      m_PostInfinity: 2
      m_RotationOrder: 4
    attribute: m_LocalRotation.x
    path: SchniedelA_CTRL_GRP/SchniedelA_CTRL
    classID: 4
    script: {fileID: 0}
  - curve:
      serializedVersion: 2
      m_Curve:
      - time: 0
        value: -0.0018866882
        inSlope: -0.004635262
        outSlope: -0.004635262
        tangentMode: 0
      - time: 0.016666668
        value: -0.0019639425
        inSlope: -0.004954871
        outSlope: -0.004954871
        tangentMode: 0
      - time: 0.033333335
        value: -0.0020518505
        inSlope: -0.0055276062
        outSlope: -0.0055276062
        tangentMode: 0
      - time: 0.050000004
        value: -0.002148196
        inSlope: -0.005980648
        outSlope: -0.005980648
        tangentMode: 0
      - time: 0.06666667
        value: -0.0022512055
        inSlope: -0.006284053
        outSlope: -0.006284053
        tangentMode: 0
      - time: 0.083333336
        value: -0.0023576645
        inSlope: -0.0064397817
        outSlope: -0.0064397817
        tangentMode: 0
      - time: 0.1
        value: -0.0024658649
        inSlope: -0.006454918
        outSlope: -0.006454918
        tangentMode: 0
      - time: 0.11666667
        value: -0.0025728284
        inSlope: -0.006287195
        outSlope: -0.006287195
        tangentMode: 0
      - time: 0.13333334
        value: -0.002675438
        inSlope: -0.0059530223
        outSlope: -0.0059530223
        tangentMode: 0
      - time: 0.15
        value: -0.0027712625
        inSlope: -0.0054560397
        outSlope: -0.0054560397
        tangentMode: 0
      - time: 0.16666667
        value: -0.002857306
        inSlope: -0.0047739972
        outSlope: -0.0047739972
        tangentMode: 0
      - time: 0.18333334
        value: -0.0029303958
        inSlope: -0.003935758
        outSlope: -0.003935758
        tangentMode: 0
      - time: 0.2
        value: -0.002988498
        inSlope: -0.0029137942
        outSlope: -0.0029137942
        tangentMode: 0
      - time: 0.21666667
        value: -0.0030275222
        inSlope: -0.0017125069
        outSlope: -0.0017125069
        tangentMode: 0
      - time: 0.23333333
        value: -0.0030455815
        inSlope: -0.00036248245
        outSlope: -0.00036248245
        tangentMode: 0
      - time: 0.25
        value: -0.003039605
        inSlope: 0.0013152664
        outSlope: 0.0013152664
        tangentMode: 0
      - time: 0.26666668
        value: -0.0030017393
        inSlope: 0.0032861922
        outSlope: 0.0032861922
        tangentMode: 0
      - time: 0.28333336
        value: -0.0029300652
        inSlope: 0.0051185936
        outSlope: 0.0051185936
        tangentMode: 0
      - time: 0.30000004
        value: -0.0028311193
        inSlope: 0.0065520722
        outSlope: 0.0065520722
        tangentMode: 0
      - time: 0.31666672
        value: -0.0027116626
        inSlope: 0.007604028
        outSlope: 0.007604028
        tangentMode: 0
      - time: 0.3333334
        value: -0.0025776515
        inSlope: 0.008270081
        outSlope: 0.008270081
        tangentMode: 0
      - time: 0.35000008
        value: -0.002435993
        inSlope: 0.0085373875
        outSlope: 0.0085373875
        tangentMode: 0
      - time: 0.36666676
        value: -0.0022930717
        inSlope: 0.008454414
        outSlope: 0.008454414
        tangentMode: 0
      - time: 0.38333344
        value: -0.002154179
        inSlope: 0.008027035
        outSlope: 0.008027035
        tangentMode: 0
      - time: 0.40000013
        value: -0.0020255037
        inSlope: 0.0072709974
        outSlope: 0.0072709974
        tangentMode: 0
      - time: 0.41666666
        value: -0.0019118132
        inSlope: 0.0068214857
        outSlope: 0.0068214857
        tangentMode: 0
      m_PreInfinity: 2
      m_PostInfinity: 2
      m_RotationOrder: 4
    attribute: m_LocalRotation.y
    path: SchniedelA_CTRL_GRP/SchniedelA_CTRL
    classID: 4
    script: {fileID: 0}
  - curve:
      serializedVersion: 2
      m_Curve:
      - time: 0
        value: 0.2158816
        inSlope: 0.5951115
        outSlope: 0.5951115
        tangentMode: 0
      - time: 0.016666668
        value: 0.22580013
        inSlope: 0.6306423
        outSlope: 0.6306423
        tangentMode: 0
      - time: 0.033333335
        value: 0.23690301
        inSlope: 0.6923344
        outSlope: 0.6923344
        tangentMode: 0
      - time: 0.050000004
        value: 0.24887794
        inSlope: 0.73535526
        outSlope: 0.73535526
        tangentMode: 0
      - time: 0.06666667
        value: 0.26141486
        inSlope: 0.7598618
        outSlope: 0.7598618
        tangentMode: 0
      - time: 0.083333336
        value: 0.27420667
        inSlope: 0.7660595
        outSlope: 0.7660595
        tangentMode: 0
      - time: 0.1
        value: 0.28695017
        inSlope: 0.7541997
        outSlope: 0.7541997
        tangentMode: 0
      - time: 0.11666667
        value: 0.29934666
        inSlope: 0.7245647
        outSlope: 0.7245647
        tangentMode: 0
      - time: 0.13333334
        value: 0.31110233
        inSlope: 0.6774463
        outSlope: 0.6774463
        tangentMode: 0
      - time: 0.15
        value: 0.3219282
        inSlope: 0.6131262
        outSlope: 0.6131262
        tangentMode: 0
      - time: 0.16666667
        value: 0.33153987
        inSlope: 0.53184545
        outSlope: 0.53184545
        tangentMode: 0
      - time: 0.18333334
        value: 0.33965638
        inSlope: 0.4337794
        outSlope: 0.4337794
        tangentMode: 0
      - time: 0.2
        value: 0.34599918
        inSlope: 0.3190041
        outSlope: 0.3190041
        tangentMode: 0
      - time: 0.21666667
        value: 0.35028985
        inSlope: 0.1874596
        outSlope: 0.1874596
        tangentMode: 0
      - time: 0.23333333
        value: 0.35224783
        inSlope: 0.038934946
        outSlope: 0.038934946
        tangentMode: 0
      - time: 0.25
        value: 0.35158768
        inSlope: -0.14406402
        outSlope: -0.14406402
        tangentMode: 0
      - time: 0.26666668
        value: 0.3474457
        inSlope: -0.36043227
        outSlope: -0.36043227
        tangentMode: 0
      - time: 0.28333336
        value: 0.33957326
        inSlope: -0.5654485
        outSlope: -0.5654485
        tangentMode: 0
      - time: 0.30000004
        value: 0.3285974
        inSlope: -0.7328406
        outSlope: -0.7328406
        tangentMode: 0
      - time: 0.31666672
        value: 0.31514522
        inSlope: -0.86237687
        outSlope: -0.86237687
        tangentMode: 0
      - time: 0.3333334
        value: 0.29985148
        inSlope: -0.9534646
        outSlope: -0.9534646
        tangentMode: 0
      - time: 0.35000008
        value: 0.28336304
        inSlope: -1.0053054
        outSlope: -1.0053054
        tangentMode: 0
      - time: 0.36666676
        value: 0.26634127
        inSlope: -1.0170369
        outSlope: -1.0170369
        tangentMode: 0
      - time: 0.38333344
        value: 0.24946178
        inSlope: -0.98785585
        outSlope: -0.98785585
        tangentMode: 0
      - time: 0.40000013
        value: 0.23341271
        inSlope: -0.91709864
        outSlope: -0.91709864
        tangentMode: 0
      - time: 0.41666666
        value: 0.21889193
        inSlope: -0.8712538
        outSlope: -0.8712538
        tangentMode: 0
      m_PreInfinity: 2
      m_PostInfinity: 2
      m_RotationOrder: 4
    attribute: m_LocalRotation.z
    path: SchniedelA_CTRL_GRP/SchniedelA_CTRL
    classID: 4
    script: {fileID: 0}
  - curve:
      serializedVersion: 2
      m_Curve:
      - time: 0
        value: 0.9763824
        inSlope: -0.13474345
        outSlope: -0.13474345
        tangentMode: 0
      - time: 0.016666668
        value: 0.97413665
        inSlope: -0.14657915
        outSlope: -0.14657915
        tangentMode: 0
      - time: 0.033333335
        value: 0.9714964
        inSlope: -0.16915974
        outSlope: -0.16915974
        tangentMode: 0
      - time: 0.050000004
        value: 0.968498
        inSlope: -0.18920124
        outSlope: -0.18920124
        tangentMode: 0
      - time: 0.06666667
        value: 0.9651897
        inSlope: -0.20592393
        outSlope: -0.20592393
        tangentMode: 0
      - time: 0.083333336
        value: 0.96163386
        inSlope: -0.21843554
        outSlope: -0.21843554
        tangentMode: 0
      - time: 0.1
        value: 0.9579085
        inSlope: -0.22580089
        outSlope: -0.22580089
        tangentMode: 0
      - time: 0.11666667
        value: 0.95410717
        inSlope: -0.22708651
        outSlope: -0.22708651
        tangentMode: 0
      - time: 0.13333334
        value: 0.95033896
        inSlope: -0.22142348
        outSlope: -0.22142348
        tangentMode: 0
      - time: 0.15
        value: 0.9467264
        inSlope: -0.20807149
        outSlope: -0.20807149
        tangentMode: 0
      - time: 0.16666667
        value: 0.94340324
        inSlope: -0.18645109
        outSlope: -0.18645109
        tangentMode: 0
      - time: 0.18333334
        value: 0.94051135
        inSlope: -0.15621008
        outSlope: -0.15621008
        tangentMode: 0
      - time: 0.2
        value: 0.93819624
        inSlope: -0.11725904
        outSlope: -0.11725904
        tangentMode: 0
      - time: 0.21666667
        value: 0.9366027
        inSlope: -0.06984473
        outSlope: -0.06984473
        tangentMode: 0
      - time: 0.23333333
        value: 0.9358681
        inSlope: -0.014594795
        outSlope: -0.014594795
        tangentMode: 0
      - time: 0.25
        value: 0.9361162
        inSlope: 0.053806864
        outSlope: 0.053806864
        tangentMode: 0
      - time: 0.26666668
        value: 0.93766165
        inSlope: 0.13275313
        outSlope: 0.13275313
        tangentMode: 0
      - time: 0.28333336
        value: 0.9405413
        inSlope: 0.20311457
        outSlope: 0.20311457
        tangentMode: 0
      - time: 0.30000004
        value: 0.94443214
        inSlope: 0.25393704
        outSlope: 0.25393704
        tangentMode: 0
      - time: 0.31666672
        value: 0.9490059
        inSlope: 0.2854941
        outSlope: 0.2854941
        tangentMode: 0
      - time: 0.3333334
        value: 0.9539486
        inSlope: 0.2990911
        outSlope: 0.2990911
        tangentMode: 0
      - time: 0.35000008
        value: 0.9589756
        inSlope: 0.2967987
        outSlope: 0.2967987
        tangentMode: 0
      - time: 0.36666676
        value: 0.9638419
        inSlope: 0.28116143
        outSlope: 0.28116143
        tangentMode: 0
      - time: 0.38333344
        value: 0.96834767
        inSlope: 0.254967
        outSlope: 0.254967
        tangentMode: 0
      - time: 0.40000013
        value: 0.9723408
        inSlope: 0.2209307
        outSlope: 0.2209307
        tangentMode: 0
      - time: 0.41666666
        value: 0.975712
        inSlope: 0.20227239
        outSlope: 0.20227239
        tangentMode: 0
      m_PreInfinity: 2
      m_PostInfinity: 2
      m_RotationOrder: 4
    attribute: m_LocalRotation.w
    path: SchniedelA_CTRL_GRP/SchniedelA_CTRL
    classID: 4
    script: {fileID: 0}
  m_EulerEditorCurves:
  - curve:
      serializedVersion: 2
      m_Curve:
      - time: 0
        value: 0
        inSlope: 0
        outSlope: 0
        tangentMode: 10
      - time: 0.083333336
        value: 0
        inSlope: 0
        outSlope: 0
        tangentMode: 10
      - time: 0.25
        value: 0
        inSlope: 0
        outSlope: 0
        tangentMode: 10
      - time: 0.33333334
        value: 0
        inSlope: 0
        outSlope: 0
        tangentMode: 10
      - time: 0.41666666
        value: 0
        inSlope: 0
        outSlope: 0
        tangentMode: 10
      m_PreInfinity: 2
      m_PostInfinity: 2
      m_RotationOrder: 4
    attribute: localEulerAnglesBaked.x
    path: Brust_CTRL_GRP/Brust_CTRL
    classID: 4
    script: {fileID: 0}
  - curve:
      serializedVersion: 2
      m_Curve:
      - time: 0
        value: 0
        inSlope: 0
        outSlope: 0
        tangentMode: 10
      - time: 0.083333336
        value: 0
        inSlope: 0
        outSlope: 0
        tangentMode: 10
      - time: 0.25
        value: 0
        inSlope: 0
        outSlope: 0
        tangentMode: 10
      - time: 0.33333334
        value: 0
        inSlope: 0
        outSlope: 0
        tangentMode: 10
      - time: 0.41666666
        value: 0
        inSlope: 0
        outSlope: 0
        tangentMode: 10
      m_PreInfinity: 2
      m_PostInfinity: 2
      m_RotationOrder: 4
    attribute: localEulerAnglesBaked.y
    path: Brust_CTRL_GRP/Brust_CTRL
    classID: 4
    script: {fileID: 0}
  - curve:
      serializedVersion: 2
      m_Curve:
      - time: 0
        value: 350.24524
        inSlope: -114.19556
        outSlope: -114.19556
        tangentMode: 10
      - time: 0.083333336
        value: 340.72894
        inSlope: 68.42982
        outSlope: 68.42982
        tangentMode: 10
      - time: 0.25
        value: 382.57147
        inSlope: -68.42977
        outSlope: -68.42977
        tangentMode: 10
      - time: 0.33333334
        value: 350.24524
        inSlope: -193.95737
        outSlope: -193.95737
        tangentMode: 10
      - time: 0.41666666
        value: 350.24524
        inSlope: 0
        outSlope: 0
        tangentMode: 10
      m_PreInfinity: 2
      m_PostInfinity: 2
      m_RotationOrder: 4
    attribute: localEulerAnglesBaked.z
    path: Brust_CTRL_GRP/Brust_CTRL
    classID: 4
    script: {fileID: 0}
  - curve:
      serializedVersion: 2
      m_Curve:
      - time: 0
        value: 359.11798
        inSlope: 0.6062012
        outSlope: 0.6062012
        tangentMode: 10
      - time: 0.25
        value: 359.26953
        inSlope: -0.1438599
        outSlope: -0.1438599
        tangentMode: 10
      - time: 0.41666666
        value: 359.12054
        inSlope: -0.89392096
        outSlope: -0.89392096
        tangentMode: 10
      m_PreInfinity: 2
      m_PostInfinity: 2
      m_RotationOrder: 4
    attribute: localEulerAnglesBaked.x
    path: SchniedelA_CTRL_GRP/SchniedelA_CTRL
    classID: 4
    script: {fileID: 0}
  - curve:
      serializedVersion: 2
      m_Curve:
      - time: 0
        value: 359.5835
        inSlope: -0.9199219
        outSlope: -0.9199219
        tangentMode: 10
      - time: 0.25
        value: 359.35352
        inSlope: 0.21386725
        outSlope: 0.21386725
        tangentMode: 10
      - time: 0.41666666
        value: 359.57812
        inSlope: 1.3476564
        outSlope: 1.3476564
        tangentMode: 10
      m_PreInfinity: 2
      m_PostInfinity: 2
      m_RotationOrder: 4
    attribute: localEulerAnglesBaked.y
    path: SchniedelA_CTRL_GRP/SchniedelA_CTRL
    classID: 4
    script: {fileID: 0}
  - curve:
      serializedVersion: 2
      m_Curve:
      - time: 0
        value: 24.93863
        inSlope: 64.94385
        outSlope: 64.94385
        tangentMode: 10
      - time: 0.25
        value: 41.17459
        inSlope: -15.175602
        outSlope: -15.175602
        tangentMode: 10
      - time: 0.41666666
        value: 25.292084
        inSlope: -95.29505
        outSlope: -95.29505
        tangentMode: 10
      m_PreInfinity: 2
      m_PostInfinity: 2
      m_RotationOrder: 4
    attribute: localEulerAnglesBaked.z
    path: SchniedelA_CTRL_GRP/SchniedelA_CTRL
    classID: 4
    script: {fileID: 0}
  m_HasGenericRootTransform: 0
  m_HasMotionFloatCurves: 0
  m_GenerateMotionCurves: 0
  m_Events: []
