%YAML 1.1
%TAG !u! tag:unity3d.com,2011:
--- !u!74 &7400000
AnimationClip:
  m_ObjectHideFlags: 0
  m_PrefabParentObject: {fileID: 0}
  m_PrefabInternal: {fileID: 0}
  m_Name: Ramon_Jumpbeginn
  serializedVersion: 6
  m_Legacy: 0
  m_Compressed: 0
  m_UseHighQualityCurve: 1
  m_RotationCurves:
  - curve:
      serializedVersion: 2
      m_Curve:
      - time: 0
        value: {x: -0.0052761855, y: 0.006678203, z: -0.009527971, w: 0.9999184}
        inSlope: {x: 0.010728081, y: -0.06875323, z: 2.5616965, w: -0.029815434}
        outSlope: {x: 0.010728081, y: -0.06875323, z: 2.5616965, w: -0.029815434}
        tangentMode: 0
      - time: 0.016666668
        value: {x: -0.005097384, y: 0.005532316, z: 0.033166975, w: 0.9994215}
        inSlope: {x: 0.008604051, y: -0.072045356, z: 2.7574086, w: -0.10018586}
        outSlope: {x: 0.008604051, y: -0.072045356, z: 2.7574086, w: -0.10018586}
        tangentMode: 0
      - time: 0.033333335
        value: {x: -0.0049893837, y: 0.004276691, z: 0.08238565, w: 0.9965789}
        inSlope: {x: 0.002763611, y: -0.07702558, z: 3.059331, w: -0.25837895}
        outSlope: {x: 0.002763611, y: -0.07702558, z: 3.059331, w: -0.25837895}
        tangentMode: 0
      - time: 0.050000004
        value: {x: -0.0050052637, y: 0.0029647963, z: 0.13514468, w: 0.99080884}
        inSlope: {x: -0.0055256025, y: -0.07862612, z: 3.1819189, w: -0.43533325}
        outSlope: {x: -0.0055256025, y: -0.07862612, z: 3.1819189, w: -0.43533325}
        tangentMode: 0
      - time: 0.06666667
        value: {x: -0.0051735705, y: 0.0016558203, z: 0.18844962, w: 0.98206776}
        inSlope: {x: -0.014634777, y: -0.07670269, z: 3.1268334, w: -0.59689885}
        outSlope: {x: -0.014634777, y: -0.07670269, z: 3.1268334, w: -0.59689885}
        tangentMode: 0
      - time: 0.083333336
        value: {x: -0.0054930896, y: 0.00040804007, z: 0.23937246, w: 0.9709122}
        inSlope: {x: -0.022883995, y: -0.07141779, z: 2.900272, w: -0.7078851}
        outSlope: {x: -0.022883995, y: -0.07141779, z: 2.900272, w: -0.7078851}
        tangentMode: 0
      - time: 0.1
        value: {x: -0.00593637, y: -0.0007247728, z: 0.28512534, w: 0.9584716}
        inSlope: {x: -0.028804803, y: -0.06327485, z: 2.5118952, w: -0.73715335}
        outSlope: {x: -0.028804803, y: -0.06327485, z: 2.5118952, w: -0.73715335}
        tangentMode: 0
      - time: 0.11666667
        value: {x: -0.0064532496, y: -0.0017011217, z: 0.3231023, w: 0.94634044}
        inSlope: {x: -0.031277906, y: -0.052949086, z: 1.9721968, w: -0.6622498}
        outSlope: {x: -0.031277906, y: -0.052949086, z: 1.9721968, w: -0.6622498}
        tangentMode: 0
      - time: 0.13333334
        value: {x: -0.006978967, y: -0.0024897426, z: 0.35086524, w: 0.9363966}
        inSlope: {x: -0.029769525, y: -0.041077856, z: 1.2888119, w: -0.47355282}
        outSlope: {x: -0.029769525, y: -0.041077856, z: 1.2888119, w: -0.47355282}
        tangentMode: 0
      - time: 0.15
        value: {x: -0.0074455673, y: -0.0030703838, z: 0.3660627, w: 0.93055534}
        inSlope: {x: -0.024362534, y: -0.028112445, z: 0.46262923, w: -0.17799677}
        outSlope: {x: -0.024362534, y: -0.028112445, z: 0.46262923, w: -0.17799677}
        tangentMode: 0
      - time: 0.16666667
        value: {x: -0.0077910516, y: -0.003426824, z: 0.36628622, w: 0.9304634}
        inSlope: {x: -0.015229501, y: -0.013017823, z: -0.5885849, w: 0.22425951}
        outSlope: {x: -0.015229501, y: -0.013017823, z: -0.5885849, w: 0.22425951}
        tangentMode: 0
      - time: 0.18333334
        value: {x: -0.007953217, y: -0.0035043112, z: 0.3464432, w: 0.93803066}
        inSlope: {x: -0.005001957, y: 0.003476199, z: -1.7979949, w: 0.6424678}
        outSlope: {x: -0.005001957, y: 0.003476199, z: -1.7979949, w: 0.6424678}
        tangentMode: 0
      - time: 0.2
        value: {x: -0.0079577835, y: -0.0033109507, z: 0.30635306, w: 0.95187896}
        inSlope: {x: 0.0014691801, y: 0.01758663, z: -2.8683562, w: 0.8989031}
        outSlope: {x: 0.0014691801, y: 0.01758663, z: -2.8683562, w: 0.8989031}
        tangentMode: 0
      - time: 0.21666667
        value: {x: -0.007904245, y: -0.0029180902, z: 0.25083134, w: 0.9679941}
        inSlope: {x: 0.0021264611, y: 0.027298443, z: -3.6400142, w: 0.92464155}
        outSlope: {x: 0.0021264611, y: 0.027298443, z: -3.6400142, w: 0.92464155}
        tangentMode: 0
      - time: 0.23333333
        value: {x: -0.0078869015, y: -0.0024010027, z: 0.18501927, w: 0.98270035}
        inSlope: {x: -0.0019480104, y: 0.03211108, z: -4.0886927, w: 0.7617224}
        outSlope: {x: -0.0019480104, y: 0.03211108, z: -4.0886927, w: 0.7617224}
        tangentMode: 0
      - time: 0.25
        value: {x: -0.007969178, y: -0.0018477209, z: 0.11454159, w: 0.99338484}
        inSlope: {x: -0.008415035, y: 0.0315591, z: -4.1883984, w: 0.4870211}
        outSlope: {x: -0.008415035, y: 0.0315591, z: -4.1883984, w: 0.4870211}
        tangentMode: 0
      - time: 0.26666668
        value: {x: -0.008167403, y: -0.0013490324, z: 0.045405935, w: 0.9989344}
        inSlope: {x: -0.014513912, y: 0.025692385, z: -3.9236603, w: 0.19340684}
        outSlope: {x: -0.014513912, y: 0.025692385, z: -3.9236603, w: 0.19340684}
        tangentMode: 0
      - time: 0.28333333
        value: {x: -0.008452975, y: -0.000991308, z: -0.016247092, w: 0.99983174}
        inSlope: {x: -0.01713436, y: 0.021463484, z: -3.6991851, w: 0.053840928}
        outSlope: {x: -0.01713436, y: 0.021463484, z: -3.6991851, w: 0.053840928}
        tangentMode: 0
      m_PreInfinity: 2
      m_PostInfinity: 2
      m_RotationOrder: 4
    path: SchniedelA_CTRL_GRP/SchniedelA_CTRL
  m_CompressedRotationCurves: []
  m_EulerCurves:
  - curve:
      serializedVersion: 2
      m_Curve:
      - time: 0
        value: {x: 0, y: 0, z: -17.603899}
        inSlope: {x: 0, y: 0, z: 28.284594}
        outSlope: {x: 0, y: 0, z: 28.284594}
        tangentMode: 0
      - time: 0.16666667
        value: {x: 0, y: 0, z: -12.8898}
        inSlope: {x: 0, y: 0, z: 28.284594}
        outSlope: {x: 0, y: 0, z: 28.284594}
        tangentMode: 0
      m_PreInfinity: 2
      m_PostInfinity: 2
      m_RotationOrder: 4
    path: "H\xFCfte_CTRL_GRP/H\xFCfte_CTRL"
  - curve:
      serializedVersion: 2
      m_Curve:
      - time: 0
        value: {x: 0, y: 0, z: 355.474}
        inSlope: {x: 0, y: 0, z: 0}
        outSlope: {x: 0, y: 0, z: 0}
        tangentMode: 0
      m_PreInfinity: 2
      m_PostInfinity: 2
      m_RotationOrder: 4
    path: Brust_CTRL_GRP/Brust_CTRL
  m_PositionCurves:
  - curve:
      serializedVersion: 2
      m_Curve:
      - time: 0
        value: {x: 0.0000022349404, y: 0.0000073567794, z: 0}
        inSlope: {x: -46.200012, y: -96.000046, z: 0}
        outSlope: {x: -46.200012, y: -96.000046, z: 0}
        tangentMode: 0
      - time: 0.16666667
        value: {x: -7.7, y: -16, z: 0}
        inSlope: {x: 13.3285675, y: 20.571411, z: 0}
        outSlope: {x: 13.3285675, y: 20.571411, z: 0}
        tangentMode: 0
      - time: 0.28333333
        value: {x: 0.8, y: 0, z: 0}
        inSlope: {x: 72.85715, y: 137.14287, z: 0}
        outSlope: {x: 72.85715, y: 137.14287, z: 0}
        tangentMode: 0
      m_PreInfinity: 2
      m_PostInfinity: 2
      m_RotationOrder: 4
    path: "H\xFCfte_CTRL_GRP/H\xFCfte_CTRL"
  - curve:
      serializedVersion: 2
      m_Curve:
      - time: 0
        value: {x: -4.7, y: -2.4, z: -0}
        inSlope: {x: 28.199999, y: 62.399998, z: 0}
        outSlope: {x: 28.199999, y: 62.399998, z: 0}
        tangentMode: 0
      - time: 0.16666667
        value: {x: -0, y: 8, z: -0}
        inSlope: {x: 1.6714268, y: -50.228577, z: 0}
        outSlope: {x: 1.6714268, y: -50.228577, z: 0}
        tangentMode: 0
      - time: 0.28333333
        value: {x: -2.9, y: -11, z: -0}
        inSlope: {x: -24.857145, y: -162.85715, z: 0}
        outSlope: {x: -24.857145, y: -162.85715, z: 0}
        tangentMode: 0
      m_PreInfinity: 2
      m_PostInfinity: 2
      m_RotationOrder: 4
    path: HandR_CTRL_GRP/HandR_CTRL
  - curve:
      serializedVersion: 2
      m_Curve:
      - time: 0
        value: {x: 3.86, y: 4.65, z: 0}
        inSlope: {x: -39.359997, y: 26.099998, z: 0}
        outSlope: {x: -39.359997, y: 26.099998, z: 0}
        tangentMode: 0
      - time: 0.16666667
        value: {x: -2.7, y: 9, z: 0}
        inSlope: {x: 19.748575, y: -22.092857, z: 0}
        outSlope: {x: 19.748575, y: -22.092857, z: 0}
        tangentMode: 0
      - time: 0.28333333
        value: {x: 6.5, y: 0.8, z: -0}
        inSlope: {x: 78.85715, y: -70.28571, z: -0}
        outSlope: {x: 78.85715, y: -70.28571, z: -0}
        tangentMode: 0
      m_PreInfinity: 2
      m_PostInfinity: 2
      m_RotationOrder: 4
    path: HandL_CTRL_GRP/HandL_CTRL
  - curve:
      serializedVersion: 2
      m_Curve:
      - time: 0
        value: {x: 0.2, y: 1.2, z: 0}
        inSlope: {x: 0, y: 0, z: 0}
        outSlope: {x: 0, y: 0, z: 0}
        tangentMode: 0
      - time: 0.16666667
        value: {x: 0.2, y: 1.2, z: 0}
        inSlope: {x: 24.428574, y: -23.142857, z: 0}
        outSlope: {x: 24.428574, y: -23.142857, z: 0}
        tangentMode: 0
      - time: 0.28333333
        value: {x: 5.9, y: -4.2, z: -0}
        inSlope: {x: 48.857147, y: -46.285713, z: -0}
        outSlope: {x: 48.857147, y: -46.285713, z: -0}
        tangentMode: 0
      m_PreInfinity: 2
      m_PostInfinity: 2
      m_RotationOrder: 4
    path: "Fu\xDFL_CTRL_GRP/Fu\xDFL_CTRL"
  - curve:
      serializedVersion: 2
      m_Curve:
      - time: 0
        value: {x: 1.03, y: 0.52, z: 0}
        inSlope: {x: 0, y: 0, z: 0}
        outSlope: {x: 0, y: 0, z: 0}
        tangentMode: 0
      - time: 0.16666667
        value: {x: 1.03, y: 0.52, z: 0}
        inSlope: {x: -10.414286, y: -21.085716, z: 0}
        outSlope: {x: -10.414286, y: -21.085716, z: 0}
        tangentMode: 0
      - time: 0.28333333
        value: {x: -1.4, y: -4.4, z: -0}
        inSlope: {x: -20.828571, y: -42.171432, z: -0}
        outSlope: {x: -20.828571, y: -42.171432, z: -0}
        tangentMode: 0
      m_PreInfinity: 2
      m_PostInfinity: 2
      m_RotationOrder: 4
    path: "Fu\xDFR_CTRL_GRP/Fu\xDFR_CTRL"
  - curve:
      serializedVersion: 2
      m_Curve:
      - time: 0
        value: {x: 0.62, y: 0.874, z: -0}
        inSlope: {x: -0.25199997, y: -0.042000175, z: 0}
        outSlope: {x: -0.25199997, y: -0.042000175, z: 0}
        tangentMode: 0
      - time: 0.16666667
        value: {x: 0.578, y: 0.867, z: 0}
        inSlope: {x: 0.174, y: 0.28328583, z: 0}
        outSlope: {x: 0.174, y: 0.28328583, z: 0}
        tangentMode: 0
      - time: 0.28333333
        value: {x: 0.648, y: 0.938, z: -0}
        inSlope: {x: 0.59999996, y: 0.6085718, z: -0}
        outSlope: {x: 0.59999996, y: 0.6085718, z: -0}
        tangentMode: 0
      m_PreInfinity: 2
      m_PostInfinity: 2
      m_RotationOrder: 4
    path: "H\xFCfte/Brust/Kopf"
  - curve:
      serializedVersion: 2
      m_Curve:
      - time: 0
        value: {x: 0.00000003237068, y: 1.0000007, z: -8.900906e-11}
        inSlope: {x: -0.22434792, y: 0, z: 0}
        outSlope: {x: -0.22434792, y: 0, z: 0}
        tangentMode: 0
      m_PreInfinity: 2
      m_PostInfinity: 2
      m_RotationOrder: 4
    path: "H\xFCfte/SchniedelA/SchniedelM"
  - curve:
      serializedVersion: 2
      m_Curve:
      - time: 0
        value: {x: -0.0000014305053, y: -0.0000000042772355, z: -7.265471e-14}
        inSlope: {x: 0, y: 0, z: -6.017322e-17}
        outSlope: {x: 0, y: 0, z: -6.017322e-17}
        tangentMode: 0
      - time: 0.16666667
        value: {x: -0.0000014305053, y: -0.0000000042772355, z: -7.266474e-14}
        inSlope: {x: 0, y: 0, z: -6.795625e-17}
        outSlope: {x: 0, y: 0, z: -6.795625e-17}
        tangentMode: 0
      - time: 0.28333333
        value: {x: -0.0000014305053, y: -0.0000000042772355, z: -7.267358e-14}
        inSlope: {x: 0, y: 0, z: -7.573927e-17}
        outSlope: {x: 0, y: 0, z: -7.573927e-17}
        tangentMode: 0
      m_PreInfinity: 2
      m_PostInfinity: 2
      m_RotationOrder: 4
    path: SchniedelA_CTRL_GRP/SchniedelA_CTRL
  - curve:
      serializedVersion: 2
      m_Curve:
      - time: 0
        value: {x: -0.0000022422118, y: -0.0000036279996, z: 3.5106667e-13}
        inSlope: {x: 0, y: 0, z: 0}
        outSlope: {x: 0, y: 0, z: 0}
        tangentMode: 0
      m_PreInfinity: 2
      m_PostInfinity: 2
      m_RotationOrder: 4
    path: Brust_CTRL_GRP/Brust_CTRL
  m_ScaleCurves: []
  m_FloatCurves: []
  m_PPtrCurves: []
  m_SampleRate: 60
  m_WrapMode: 0
  m_Bounds:
    m_Center: {x: 0, y: 0, z: 0}
    m_Extent: {x: 0, y: 0, z: 0}
  m_ClipBindingConstant:
    genericBindings:
    - path: 1986355893
      attribute: 1
      script: {fileID: 0}
      classID: 4
      customType: 0
      isPPtrCurve: 0
    - path: 1804795753
      attribute: 1
      script: {fileID: 0}
      classID: 4
      customType: 0
      isPPtrCurve: 0
    - path: 3395650270
      attribute: 1
      script: {fileID: 0}
      classID: 4
      customType: 0
      isPPtrCurve: 0
    - path: 2501583950
      attribute: 1
      script: {fileID: 0}
      classID: 4
      customType: 0
      isPPtrCurve: 0
    - path: 887904761
      attribute: 1
      script: {fileID: 0}
      classID: 4
      customType: 0
      isPPtrCurve: 0
    - path: 1872252437
      attribute: 1
      script: {fileID: 0}
      classID: 4
      customType: 0
      isPPtrCurve: 0
    - path: 3357235420
      attribute: 1
      script: {fileID: 0}
      classID: 4
      customType: 0
      isPPtrCurve: 0
    - path: 2551158490
      attribute: 2
      script: {fileID: 0}
      classID: 4
      customType: 0
      isPPtrCurve: 0
    - path: 1986355893
      attribute: 4
      script: {fileID: 0}
      classID: 4
      customType: 14
      isPPtrCurve: 0
    - path: 2551158490
      attribute: 1
      script: {fileID: 0}
      classID: 4
      customType: 0
      isPPtrCurve: 0
    - path: 4199396277
      attribute: 1
      script: {fileID: 0}
      classID: 4
      customType: 0
      isPPtrCurve: 0
    - path: 4199396277
      attribute: 4
      script: {fileID: 0}
      classID: 4
      customType: 14
      isPPtrCurve: 0
    pptrCurveMapping: []
  m_AnimationClipSettings:
    serializedVersion: 2
    m_AdditiveReferencePoseClip: {fileID: 0}
    m_AdditiveReferencePoseTime: 0
    m_StartTime: 0
    m_StopTime: 0.28333333
    m_OrientationOffsetY: 0
    m_Level: 0
    m_CycleOffset: 0
    m_HasAdditiveReferencePose: 0
    m_LoopTime: 1
    m_LoopBlend: 0
    m_LoopBlendOrientation: 0
    m_LoopBlendPositionY: 0
    m_LoopBlendPositionXZ: 0
    m_KeepOriginalOrientation: 0
    m_KeepOriginalPositionY: 1
    m_KeepOriginalPositionXZ: 0
    m_HeightFromFeet: 0
    m_Mirror: 0
  m_EditorCurves:
  - curve:
      serializedVersion: 2
      m_Curve:
      - time: 0
        value: 0.0000022349404
        inSlope: -46.200012
        outSlope: -46.200012
        tangentMode: 10
      - time: 0.16666667
        value: -7.7
        inSlope: 13.3285675
        outSlope: 13.3285675
        tangentMode: 10
      - time: 0.28333333
        value: 0.8
        inSlope: 72.85715
        outSlope: 72.85715
        tangentMode: 10
      m_PreInfinity: 2
      m_PostInfinity: 2
      m_RotationOrder: 4
    attribute: m_LocalPosition.x
    path: "H\xFCfte_CTRL_GRP/H\xFCfte_CTRL"
    classID: 4
    script: {fileID: 0}
  - curve:
      serializedVersion: 2
      m_Curve:
      - time: 0
        value: 0.0000073567794
        inSlope: -96.000046
        outSlope: -96.000046
        tangentMode: 10
      - time: 0.16666667
        value: -16
        inSlope: 20.571411
        outSlope: 20.571411
        tangentMode: 10
      - time: 0.28333333
        value: 0
        inSlope: 137.14287
        outSlope: 137.14287
        tangentMode: 10
      m_PreInfinity: 2
      m_PostInfinity: 2
      m_RotationOrder: 4
    attribute: m_LocalPosition.y
    path: "H\xFCfte_CTRL_GRP/H\xFCfte_CTRL"
    classID: 4
    script: {fileID: 0}
  - curve:
      serializedVersion: 2
      m_Curve:
      - time: 0
        value: 0
        inSlope: 0
        outSlope: 0
        tangentMode: 10
      - time: 0.16666667
        value: 0
        inSlope: 0
        outSlope: 0
        tangentMode: 10
      - time: 0.28333333
        value: 0
        inSlope: 0
        outSlope: 0
        tangentMode: 10
      m_PreInfinity: 2
      m_PostInfinity: 2
      m_RotationOrder: 4
    attribute: m_LocalPosition.z
    path: "H\xFCfte_CTRL_GRP/H\xFCfte_CTRL"
    classID: 4
    script: {fileID: 0}
  - curve:
      serializedVersion: 2
      m_Curve:
      - time: 0
        value: -4.7
        inSlope: 28.199999
        outSlope: 28.199999
        tangentMode: 10
      - time: 0.16666667
        value: -0
        inSlope: 1.6714268
        outSlope: 1.6714268
        tangentMode: 10
      - time: 0.28333333
        value: -2.9
        inSlope: -24.857145
        outSlope: -24.857145
        tangentMode: 10
      m_PreInfinity: 2
      m_PostInfinity: 2
      m_RotationOrder: 4
    attribute: m_LocalPosition.x
    path: HandR_CTRL_GRP/HandR_CTRL
    classID: 4
    script: {fileID: 0}
  - curve:
      serializedVersion: 2
      m_Curve:
      - time: 0
        value: -2.4
        inSlope: 62.399998
        outSlope: 62.399998
        tangentMode: 10
      - time: 0.16666667
        value: 8
        inSlope: -50.228577
        outSlope: -50.228577
        tangentMode: 10
      - time: 0.28333333
        value: -11
        inSlope: -162.85715
        outSlope: -162.85715
        tangentMode: 10
      m_PreInfinity: 2
      m_PostInfinity: 2
      m_RotationOrder: 4
    attribute: m_LocalPosition.y
    path: HandR_CTRL_GRP/HandR_CTRL
    classID: 4
    script: {fileID: 0}
  - curve:
      serializedVersion: 2
      m_Curve:
      - time: 0
        value: -0
        inSlope: 0
        outSlope: 0
        tangentMode: 10
      - time: 0.16666667
        value: -0
        inSlope: 0
        outSlope: 0
        tangentMode: 10
      - time: 0.28333333
        value: -0
        inSlope: 0
        outSlope: 0
        tangentMode: 10
      m_PreInfinity: 2
      m_PostInfinity: 2
      m_RotationOrder: 4
    attribute: m_LocalPosition.z
    path: HandR_CTRL_GRP/HandR_CTRL
    classID: 4
    script: {fileID: 0}
  - curve:
      serializedVersion: 2
      m_Curve:
      - time: 0
        value: 3.86
        inSlope: -39.359997
        outSlope: -39.359997
        tangentMode: 10
      - time: 0.16666667
        value: -2.7
        inSlope: 19.748575
        outSlope: 19.748575
        tangentMode: 10
      - time: 0.28333333
        value: 6.5
        inSlope: 78.85715
        outSlope: 78.85715
        tangentMode: 10
      m_PreInfinity: 2
      m_PostInfinity: 2
      m_RotationOrder: 4
    attribute: m_LocalPosition.x
    path: HandL_CTRL_GRP/HandL_CTRL
    classID: 4
    script: {fileID: 0}
  - curve:
      serializedVersion: 2
      m_Curve:
      - time: 0
        value: 4.65
        inSlope: 26.099998
        outSlope: 26.099998
        tangentMode: 10
      - time: 0.16666667
        value: 9
        inSlope: -22.092857
        outSlope: -22.092857
        tangentMode: 10
      - time: 0.28333333
        value: 0.8
        inSlope: -70.28571
        outSlope: -70.28571
        tangentMode: 10
      m_PreInfinity: 2
      m_PostInfinity: 2
      m_RotationOrder: 4
    attribute: m_LocalPosition.y
    path: HandL_CTRL_GRP/HandL_CTRL
    classID: 4
    script: {fileID: 0}
  - curve:
      serializedVersion: 2
      m_Curve:
      - time: 0
        value: 0
        inSlope: 0
        outSlope: 0
        tangentMode: 10
      - time: 0.16666667
        value: 0
        inSlope: 0
        outSlope: 0
        tangentMode: 10
      - time: 0.28333333
        value: -0
        inSlope: -0
        outSlope: -0
        tangentMode: 10
      m_PreInfinity: 2
      m_PostInfinity: 2
      m_RotationOrder: 4
    attribute: m_LocalPosition.z
    path: HandL_CTRL_GRP/HandL_CTRL
    classID: 4
    script: {fileID: 0}
  - curve:
      serializedVersion: 2
      m_Curve:
      - time: 0
        value: 0.2
        inSlope: 0
        outSlope: 0
        tangentMode: 10
      - time: 0.16666667
        value: 0.2
        inSlope: 24.428574
        outSlope: 24.428574
        tangentMode: 10
      - time: 0.28333333
        value: 5.9
        inSlope: 48.857147
        outSlope: 48.857147
        tangentMode: 10
      m_PreInfinity: 2
      m_PostInfinity: 2
      m_RotationOrder: 4
    attribute: m_LocalPosition.x
    path: "Fu\xDFL_CTRL_GRP/Fu\xDFL_CTRL"
    classID: 4
    script: {fileID: 0}
  - curve:
      serializedVersion: 2
      m_Curve:
      - time: 0
        value: 1.2
        inSlope: 0
        outSlope: 0
        tangentMode: 10
      - time: 0.16666667
        value: 1.2
        inSlope: -23.142857
        outSlope: -23.142857
        tangentMode: 10
      - time: 0.28333333
        value: -4.2
        inSlope: -46.285713
        outSlope: -46.285713
        tangentMode: 10
      m_PreInfinity: 2
      m_PostInfinity: 2
      m_RotationOrder: 4
    attribute: m_LocalPosition.y
    path: "Fu\xDFL_CTRL_GRP/Fu\xDFL_CTRL"
    classID: 4
    script: {fileID: 0}
  - curve:
      serializedVersion: 2
      m_Curve:
      - time: 0
        value: 0
        inSlope: 0
        outSlope: 0
        tangentMode: 10
      - time: 0.16666667
        value: 0
        inSlope: 0
        outSlope: 0
        tangentMode: 10
      - time: 0.28333333
        value: -0
        inSlope: -0
        outSlope: -0
        tangentMode: 10
      m_PreInfinity: 2
      m_PostInfinity: 2
      m_RotationOrder: 4
    attribute: m_LocalPosition.z
    path: "Fu\xDFL_CTRL_GRP/Fu\xDFL_CTRL"
    classID: 4
    script: {fileID: 0}
  - curve:
      serializedVersion: 2
      m_Curve:
      - time: 0
        value: 1.03
        inSlope: 0
        outSlope: 0
        tangentMode: 10
      - time: 0.16666667
        value: 1.03
        inSlope: -10.414286
        outSlope: -10.414286
        tangentMode: 10
      - time: 0.28333333
        value: -1.4
        inSlope: -20.828571
        outSlope: -20.828571
        tangentMode: 10
      m_PreInfinity: 2
      m_PostInfinity: 2
      m_RotationOrder: 4
    attribute: m_LocalPosition.x
    path: "Fu\xDFR_CTRL_GRP/Fu\xDFR_CTRL"
    classID: 4
    script: {fileID: 0}
  - curve:
      serializedVersion: 2
      m_Curve:
      - time: 0
        value: 0.52
        inSlope: 0
        outSlope: 0
        tangentMode: 10
      - time: 0.16666667
        value: 0.52
        inSlope: -21.085716
        outSlope: -21.085716
        tangentMode: 10
      - time: 0.28333333
        value: -4.4
        inSlope: -42.171432
        outSlope: -42.171432
        tangentMode: 10
      m_PreInfinity: 2
      m_PostInfinity: 2
      m_RotationOrder: 4
    attribute: m_LocalPosition.y
    path: "Fu\xDFR_CTRL_GRP/Fu\xDFR_CTRL"
    classID: 4
    script: {fileID: 0}
  - curve:
      serializedVersion: 2
      m_Curve:
      - time: 0
        value: 0
        inSlope: 0
        outSlope: 0
        tangentMode: 10
      - time: 0.16666667
        value: 0
        inSlope: 0
        outSlope: 0
        tangentMode: 10
      - time: 0.28333333
        value: -0
        inSlope: -0
        outSlope: -0
        tangentMode: 10
      m_PreInfinity: 2
      m_PostInfinity: 2
      m_RotationOrder: 4
    attribute: m_LocalPosition.z
    path: "Fu\xDFR_CTRL_GRP/Fu\xDFR_CTRL"
    classID: 4
    script: {fileID: 0}
  - curve:
      serializedVersion: 2
      m_Curve:
      - time: 0
        value: 0.62
        inSlope: -0.25199997
        outSlope: -0.25199997
        tangentMode: 10
      - time: 0.16666667
        value: 0.578
        inSlope: 0.174
        outSlope: 0.174
        tangentMode: 10
      - time: 0.28333333
        value: 0.648
        inSlope: 0.59999996
        outSlope: 0.59999996
        tangentMode: 10
      m_PreInfinity: 2
      m_PostInfinity: 2
      m_RotationOrder: 4
    attribute: m_LocalPosition.x
    path: "H\xFCfte/Brust/Kopf"
    classID: 4
    script: {fileID: 0}
  - curve:
      serializedVersion: 2
      m_Curve:
      - time: 0
        value: 0.874
        inSlope: -0.042000175
        outSlope: -0.042000175
        tangentMode: 10
      - time: 0.16666667
        value: 0.867
        inSlope: 0.28328583
        outSlope: 0.28328583
        tangentMode: 10
      - time: 0.28333333
        value: 0.938
        inSlope: 0.6085718
        outSlope: 0.6085718
        tangentMode: 10
      m_PreInfinity: 2
      m_PostInfinity: 2
      m_RotationOrder: 4
    attribute: m_LocalPosition.y
    path: "H\xFCfte/Brust/Kopf"
    classID: 4
    script: {fileID: 0}
  - curve:
      serializedVersion: 2
      m_Curve:
      - time: 0
        value: -0
        inSlope: 0
        outSlope: 0
        tangentMode: 10
      - time: 0.16666667
        value: 0
        inSlope: 0
        outSlope: 0
        tangentMode: 10
      - time: 0.28333333
        value: -0
        inSlope: -0
        outSlope: -0
        tangentMode: 10
      m_PreInfinity: 2
      m_PostInfinity: 2
      m_RotationOrder: 4
    attribute: m_LocalPosition.z
    path: "H\xFCfte/Brust/Kopf"
    classID: 4
    script: {fileID: 0}
  - curve:
      serializedVersion: 2
      m_Curve:
      - time: 0
        value: 0.00000003237068
        inSlope: -0.22434792
        outSlope: -0.22434792
        tangentMode: 10
      m_PreInfinity: 2
      m_PostInfinity: 2
      m_RotationOrder: 4
    attribute: m_LocalPosition.x
    path: "H\xFCfte/SchniedelA/SchniedelM"
    classID: 4
    script: {fileID: 0}
  - curve:
      serializedVersion: 2
      m_Curve:
      - time: 0
        value: 1.0000007
        inSlope: -0.40434963
        outSlope: -0.40434963
        tangentMode: 10
      m_PreInfinity: 2
      m_PostInfinity: 2
      m_RotationOrder: 4
    attribute: m_LocalPosition.y
    path: "H\xFCfte/SchniedelA/SchniedelM"
    classID: 4
    script: {fileID: 0}
  - curve:
      serializedVersion: 2
      m_Curve:
      - time: 0
        value: -8.900906e-11
        inSlope: 0
        outSlope: 0
        tangentMode: 10
      m_PreInfinity: 2
      m_PostInfinity: 2
      m_RotationOrder: 4
    attribute: m_LocalPosition.z
    path: "H\xFCfte/SchniedelA/SchniedelM"
    classID: 4
    script: {fileID: 0}
  - curve:
      serializedVersion: 2
      m_Curve:
      - time: 0
        value: -0.0000014305053
        inSlope: 0
        outSlope: 0
        tangentMode: 10
      - time: 0.16666667
        value: -0.0000014305053
        inSlope: 0
        outSlope: 0
        tangentMode: 10
      - time: 0.28333333
        value: -0.0000014305053
        inSlope: 0
        outSlope: 0
        tangentMode: 10
      m_PreInfinity: 2
      m_PostInfinity: 2
      m_RotationOrder: 4
    attribute: m_LocalPosition.x
    path: SchniedelA_CTRL_GRP/SchniedelA_CTRL
    classID: 4
    script: {fileID: 0}
  - curve:
      serializedVersion: 2
      m_Curve:
      - time: 0
        value: -0.0000000042772355
        inSlope: 0
        outSlope: 0
        tangentMode: 10
      - time: 0.16666667
        value: -0.0000000042772355
        inSlope: 0
        outSlope: 0
        tangentMode: 10
      - time: 0.28333333
        value: -0.0000000042772355
        inSlope: 0
        outSlope: 0
        tangentMode: 10
      m_PreInfinity: 2
      m_PostInfinity: 2
      m_RotationOrder: 4
    attribute: m_LocalPosition.y
    path: SchniedelA_CTRL_GRP/SchniedelA_CTRL
    classID: 4
    script: {fileID: 0}
  - curve:
      serializedVersion: 2
      m_Curve:
      - time: 0
        value: -7.265471e-14
        inSlope: -6.017322e-17
        outSlope: -6.017322e-17
        tangentMode: 10
      - time: 0.16666667
        value: -7.266474e-14
        inSlope: -6.795625e-17
        outSlope: -6.795625e-17
        tangentMode: 10
      - time: 0.28333333
        value: -7.267358e-14
        inSlope: -7.573927e-17
        outSlope: -7.573927e-17
        tangentMode: 10
      m_PreInfinity: 2
      m_PostInfinity: 2
      m_RotationOrder: 4
    attribute: m_LocalPosition.z
    path: SchniedelA_CTRL_GRP/SchniedelA_CTRL
    classID: 4
    script: {fileID: 0}
  - curve:
      serializedVersion: 2
      m_Curve:
      - time: 0
        value: 0
        inSlope: 0
        outSlope: 0
        tangentMode: 10
      - time: 0.16666667
        value: 0
        inSlope: 0
        outSlope: 0
        tangentMode: 10
      m_PreInfinity: 2
      m_PostInfinity: 2
      m_RotationOrder: 4
    attribute: localEulerAnglesRaw.x
    path: "H\xFCfte_CTRL_GRP/H\xFCfte_CTRL"
    classID: 4
    script: {fileID: 0}
  - curve:
      serializedVersion: 2
      m_Curve:
      - time: 0
        value: 0
        inSlope: 0
        outSlope: 0
        tangentMode: 10
      - time: 0.16666667
        value: 0
        inSlope: 0
        outSlope: 0
        tangentMode: 10
      m_PreInfinity: 2
      m_PostInfinity: 2
      m_RotationOrder: 4
    attribute: localEulerAnglesRaw.y
    path: "H\xFCfte_CTRL_GRP/H\xFCfte_CTRL"
    classID: 4
    script: {fileID: 0}
  - curve:
      serializedVersion: 2
      m_Curve:
      - time: 0
        value: -17.603899
        inSlope: 28.284594
        outSlope: 28.284594
        tangentMode: 10
      - time: 0.16666667
        value: -12.8898
        inSlope: 28.284594
        outSlope: 28.284594
        tangentMode: 10
      m_PreInfinity: 2
      m_PostInfinity: 2
      m_RotationOrder: 4
    attribute: localEulerAnglesRaw.z
    path: "H\xFCfte_CTRL_GRP/H\xFCfte_CTRL"
    classID: 4
    script: {fileID: 0}
  - curve:
      serializedVersion: 2
      m_Curve:
      - time: 0
        value: 0
        inSlope: 0
        outSlope: 0
        tangentMode: 10
      m_PreInfinity: 2
      m_PostInfinity: 2
      m_RotationOrder: 4
    attribute: localEulerAnglesRaw.x
    path: Brust_CTRL_GRP/Brust_CTRL
    classID: 4
    script: {fileID: 0}
  - curve:
      serializedVersion: 2
      m_Curve:
      - time: 0
        value: 0
        inSlope: 0
        outSlope: 0
        tangentMode: 10
      m_PreInfinity: 2
      m_PostInfinity: 2
      m_RotationOrder: 4
    attribute: localEulerAnglesRaw.y
    path: Brust_CTRL_GRP/Brust_CTRL
    classID: 4
    script: {fileID: 0}
  - curve:
      serializedVersion: 2
      m_Curve:
      - time: 0
        value: 355.474
        inSlope: 0
        outSlope: 0
        tangentMode: 10
      m_PreInfinity: 2
      m_PostInfinity: 2
      m_RotationOrder: 4
    attribute: localEulerAnglesRaw.z
    path: Brust_CTRL_GRP/Brust_CTRL
    classID: 4
    script: {fileID: 0}
  - curve:
      serializedVersion: 2
      m_Curve:
      - time: 0
        value: -0.0000022422118
        inSlope: 0
        outSlope: 0
        tangentMode: 10
      m_PreInfinity: 2
      m_PostInfinity: 2
      m_RotationOrder: 4
    attribute: m_LocalPosition.x
    path: Brust_CTRL_GRP/Brust_CTRL
    classID: 4
    script: {fileID: 0}
  - curve:
      serializedVersion: 2
      m_Curve:
      - time: 0
        value: -0.0000036279996
        inSlope: 0
        outSlope: 0
        tangentMode: 10
      m_PreInfinity: 2
      m_PostInfinity: 2
      m_RotationOrder: 4
    attribute: m_LocalPosition.y
    path: Brust_CTRL_GRP/Brust_CTRL
    classID: 4
    script: {fileID: 0}
  - curve:
      serializedVersion: 2
      m_Curve:
      - time: 0
        value: 3.5106667e-13
        inSlope: 0
        outSlope: 0
        tangentMode: 10
      m_PreInfinity: 2
      m_PostInfinity: 2
      m_RotationOrder: 4
    attribute: m_LocalPosition.z
    path: Brust_CTRL_GRP/Brust_CTRL
    classID: 4
    script: {fileID: 0}
  - curve:
      serializedVersion: 2
      m_Curve:
      - time: 0
        value: -0.0052761855
        inSlope: 0.010728081
        outSlope: 0.010728081
        tangentMode: 0
      - time: 0.016666668
        value: -0.005097384
        inSlope: 0.008604051
        outSlope: 0.008604051
        tangentMode: 0
      - time: 0.033333335
        value: -0.0049893837
        inSlope: 0.002763611
        outSlope: 0.002763611
        tangentMode: 0
      - time: 0.050000004
        value: -0.0050052637
        inSlope: -0.0055256025
        outSlope: -0.0055256025
        tangentMode: 0
      - time: 0.06666667
        value: -0.0051735705
        inSlope: -0.014634777
        outSlope: -0.014634777
        tangentMode: 0
      - time: 0.083333336
        value: -0.0054930896
        inSlope: -0.022883995
        outSlope: -0.022883995
        tangentMode: 0
      - time: 0.1
        value: -0.00593637
        inSlope: -0.028804803
        outSlope: -0.028804803
        tangentMode: 0
      - time: 0.11666667
        value: -0.0064532496
        inSlope: -0.031277906
        outSlope: -0.031277906
        tangentMode: 0
      - time: 0.13333334
        value: -0.006978967
        inSlope: -0.029769525
        outSlope: -0.029769525
        tangentMode: 0
      - time: 0.15
        value: -0.0074455673
        inSlope: -0.024362534
        outSlope: -0.024362534
        tangentMode: 0
      - time: 0.16666667
        value: -0.0077910516
        inSlope: -0.015229501
        outSlope: -0.015229501
        tangentMode: 0
      - time: 0.18333334
        value: -0.007953217
        inSlope: -0.005001957
        outSlope: -0.005001957
        tangentMode: 0
      - time: 0.2
        value: -0.0079577835
        inSlope: 0.0014691801
        outSlope: 0.0014691801
        tangentMode: 0
      - time: 0.21666667
        value: -0.007904245
        inSlope: 0.0021264611
        outSlope: 0.0021264611
        tangentMode: 0
      - time: 0.23333333
        value: -0.0078869015
        inSlope: -0.0019480104
        outSlope: -0.0019480104
        tangentMode: 0
      - time: 0.25
        value: -0.007969178
        inSlope: -0.008415035
        outSlope: -0.008415035
        tangentMode: 0
      - time: 0.26666668
        value: -0.008167403
        inSlope: -0.014513912
        outSlope: -0.014513912
        tangentMode: 0
      - time: 0.28333333
        value: -0.008452975
        inSlope: -0.01713436
        outSlope: -0.01713436
        tangentMode: 0
      m_PreInfinity: 2
      m_PostInfinity: 2
      m_RotationOrder: 4
    attribute: m_LocalRotation.x
    path: SchniedelA_CTRL_GRP/SchniedelA_CTRL
    classID: 4
    script: {fileID: 0}
  - curve:
      serializedVersion: 2
      m_Curve:
      - time: 0
        value: 0.006678203
        inSlope: -0.06875323
        outSlope: -0.06875323
        tangentMode: 0
      - time: 0.016666668
        value: 0.005532316
        inSlope: -0.072045356
        outSlope: -0.072045356
        tangentMode: 0
      - time: 0.033333335
        value: 0.004276691
        inSlope: -0.07702558
        outSlope: -0.07702558
        tangentMode: 0
      - time: 0.050000004
        value: 0.0029647963
        inSlope: -0.07862612
        outSlope: -0.07862612
        tangentMode: 0
      - time: 0.06666667
        value: 0.0016558203
        inSlope: -0.07670269
        outSlope: -0.07670269
        tangentMode: 0
      - time: 0.083333336
        value: 0.00040804007
        inSlope: -0.07141779
        outSlope: -0.07141779
        tangentMode: 0
      - time: 0.1
        value: -0.0007247728
        inSlope: -0.06327485
        outSlope: -0.06327485
        tangentMode: 0
      - time: 0.11666667
        value: -0.0017011217
        inSlope: -0.052949086
        outSlope: -0.052949086
        tangentMode: 0
      - time: 0.13333334
        value: -0.0024897426
        inSlope: -0.041077856
        outSlope: -0.041077856
        tangentMode: 0
      - time: 0.15
        value: -0.0030703838
        inSlope: -0.028112445
        outSlope: -0.028112445
        tangentMode: 0
      - time: 0.16666667
        value: -0.003426824
        inSlope: -0.013017823
        outSlope: -0.013017823
        tangentMode: 0
      - time: 0.18333334
        value: -0.0035043112
        inSlope: 0.003476199
        outSlope: 0.003476199
        tangentMode: 0
      - time: 0.2
        value: -0.0033109507
        inSlope: 0.01758663
        outSlope: 0.01758663
        tangentMode: 0
      - time: 0.21666667
        value: -0.0029180902
        inSlope: 0.027298443
        outSlope: 0.027298443
        tangentMode: 0
      - time: 0.23333333
        value: -0.0024010027
        inSlope: 0.03211108
        outSlope: 0.03211108
        tangentMode: 0
      - time: 0.25
        value: -0.0018477209
        inSlope: 0.0315591
        outSlope: 0.0315591
        tangentMode: 0
      - time: 0.26666668
        value: -0.0013490324
        inSlope: 0.025692385
        outSlope: 0.025692385
        tangentMode: 0
      - time: 0.28333333
        value: -0.000991308
        inSlope: 0.021463484
        outSlope: 0.021463484
        tangentMode: 0
      m_PreInfinity: 2
      m_PostInfinity: 2
      m_RotationOrder: 4
    attribute: m_LocalRotation.y
    path: SchniedelA_CTRL_GRP/SchniedelA_CTRL
    classID: 4
    script: {fileID: 0}
  - curve:
      serializedVersion: 2
      m_Curve:
      - time: 0
        value: -0.009527971
        inSlope: 2.5616965
        outSlope: 2.5616965
        tangentMode: 0
      - time: 0.016666668
        value: 0.033166975
        inSlope: 2.7574086
        outSlope: 2.7574086
        tangentMode: 0
      - time: 0.033333335
        value: 0.08238565
        inSlope: 3.059331
        outSlope: 3.059331
        tangentMode: 0
      - time: 0.050000004
        value: 0.13514468
        inSlope: 3.1819189
        outSlope: 3.1819189
        tangentMode: 0
      - time: 0.06666667
        value: 0.18844962
        inSlope: 3.1268334
        outSlope: 3.1268334
        tangentMode: 0
      - time: 0.083333336
        value: 0.23937246
        inSlope: 2.900272
        outSlope: 2.900272
        tangentMode: 0
      - time: 0.1
        value: 0.28512534
        inSlope: 2.5118952
        outSlope: 2.5118952
        tangentMode: 0
      - time: 0.11666667
        value: 0.3231023
        inSlope: 1.9721968
        outSlope: 1.9721968
        tangentMode: 0
      - time: 0.13333334
        value: 0.35086524
        inSlope: 1.2888119
        outSlope: 1.2888119
        tangentMode: 0
      - time: 0.15
        value: 0.3660627
        inSlope: 0.46262923
        outSlope: 0.46262923
        tangentMode: 0
      - time: 0.16666667
        value: 0.36628622
        inSlope: -0.5885849
        outSlope: -0.5885849
        tangentMode: 0
      - time: 0.18333334
        value: 0.3464432
        inSlope: -1.7979949
        outSlope: -1.7979949
        tangentMode: 0
      - time: 0.2
        value: 0.30635306
        inSlope: -2.8683562
        outSlope: -2.8683562
        tangentMode: 0
      - time: 0.21666667
        value: 0.25083134
        inSlope: -3.6400142
        outSlope: -3.6400142
        tangentMode: 0
      - time: 0.23333333
        value: 0.18501927
        inSlope: -4.0886927
        outSlope: -4.0886927
        tangentMode: 0
      - time: 0.25
        value: 0.11454159
        inSlope: -4.1883984
        outSlope: -4.1883984
        tangentMode: 0
      - time: 0.26666668
        value: 0.045405935
        inSlope: -3.9236603
        outSlope: -3.9236603
        tangentMode: 0
      - time: 0.28333333
        value: -0.016247092
        inSlope: -3.6991851
        outSlope: -3.6991851
        tangentMode: 0
      m_PreInfinity: 2
      m_PostInfinity: 2
      m_RotationOrder: 4
    attribute: m_LocalRotation.z
    path: SchniedelA_CTRL_GRP/SchniedelA_CTRL
    classID: 4
    script: {fileID: 0}
  - curve:
      serializedVersion: 2
      m_Curve:
      - time: 0
        value: 0.9999184
        inSlope: -0.029815434
        outSlope: -0.029815434
        tangentMode: 0
      - time: 0.016666668
        value: 0.9994215
        inSlope: -0.10018586
        outSlope: -0.10018586
        tangentMode: 0
      - time: 0.033333335
        value: 0.9965789
        inSlope: -0.25837895
        outSlope: -0.25837895
        tangentMode: 0
      - time: 0.050000004
        value: 0.99080884
        inSlope: -0.43533325
        outSlope: -0.43533325
        tangentMode: 0
      - time: 0.06666667
        value: 0.98206776
        inSlope: -0.59689885
        outSlope: -0.59689885
        tangentMode: 0
      - time: 0.083333336
        value: 0.9709122
        inSlope: -0.7078851
        outSlope: -0.7078851
        tangentMode: 0
      - time: 0.1
        value: 0.9584716
        inSlope: -0.73715335
        outSlope: -0.73715335
        tangentMode: 0
      - time: 0.11666667
        value: 0.94634044
        inSlope: -0.6622498
        outSlope: -0.6622498
        tangentMode: 0
      - time: 0.13333334
        value: 0.9363966
        inSlope: -0.47355282
        outSlope: -0.47355282
        tangentMode: 0
      - time: 0.15
        value: 0.93055534
        inSlope: -0.17799677
        outSlope: -0.17799677
        tangentMode: 0
      - time: 0.16666667
        value: 0.9304634
        inSlope: 0.22425951
        outSlope: 0.22425951
        tangentMode: 0
      - time: 0.18333334
        value: 0.93803066
        inSlope: 0.6424678
        outSlope: 0.6424678
        tangentMode: 0
      - time: 0.2
        value: 0.95187896
        inSlope: 0.8989031
        outSlope: 0.8989031
        tangentMode: 0
      - time: 0.21666667
        value: 0.9679941
        inSlope: 0.92464155
        outSlope: 0.92464155
        tangentMode: 0
      - time: 0.23333333
        value: 0.98270035
        inSlope: 0.7617224
        outSlope: 0.7617224
        tangentMode: 0
      - time: 0.25
        value: 0.99338484
        inSlope: 0.4870211
        outSlope: 0.4870211
        tangentMode: 0
      - time: 0.26666668
        value: 0.9989344
        inSlope: 0.19340684
        outSlope: 0.19340684
        tangentMode: 0
      - time: 0.28333333
        value: 0.99983174
        inSlope: 0.053840928
        outSlope: 0.053840928
        tangentMode: 0
      m_PreInfinity: 2
      m_PostInfinity: 2
      m_RotationOrder: 4
    attribute: m_LocalRotation.w
    path: SchniedelA_CTRL_GRP/SchniedelA_CTRL
    classID: 4
    script: {fileID: 0}
  m_EulerEditorCurves:
  - curve:
      serializedVersion: 2
      m_Curve:
      - time: 0
        value: 359.40268
        inSlope: -0.53759766
        outSlope: -0.53759766
        tangentMode: 10
      - time: 0.16666667
        value: 359.31308
        inSlope: -1.4837037
        outSlope: -1.4837037
        tangentMode: 10
      - time: 0.28333333
        value: 359.0296
        inSlope: -2.4298098
        outSlope: -2.4298098
        tangentMode: 10
      m_PreInfinity: 2
      m_PostInfinity: 2
      m_RotationOrder: 4
    attribute: localEulerAnglesBaked.x
    path: SchniedelA_CTRL_GRP/SchniedelA_CTRL
    classID: 4
    script: {fileID: 0}
  - curve:
      serializedVersion: 2
      m_Curve:
      - time: 0
        value: 360.771
        inSlope: -8.781006
        outSlope: -8.781006
        tangentMode: 10
      - time: 0.16666667
        value: 359.3075
        inSlope: -1.8421979
        outSlope: -1.8421979
        tangentMode: 10
      - time: 0.28333333
        value: 359.9021
        inSlope: 5.09661
        outSlope: 5.09661
        tangentMode: 10
      m_PreInfinity: 2
      m_PostInfinity: 2
      m_RotationOrder: 4
    attribute: localEulerAnglesBaked.y
    path: SchniedelA_CTRL_GRP/SchniedelA_CTRL
    classID: 4
    script: {fileID: 0}
  - curve:
      serializedVersion: 2
      m_Curve:
      - time: 0
        value: -1.0958999
        inSlope: 264.45117
        outSlope: 264.45117
        tangentMode: 10
      - time: 0.16666667
        value: 42.979298
        inSlope: -59.947556
        outSlope: -59.947556
        tangentMode: 10
      - time: 0.28333333
        value: -1.8611
        inSlope: -384.34628
        outSlope: -384.34628
        tangentMode: 10
      m_PreInfinity: 2
      m_PostInfinity: 2
      m_RotationOrder: 4
    attribute: localEulerAnglesBaked.z
    path: SchniedelA_CTRL_GRP/SchniedelA_CTRL
    classID: 4
    script: {fileID: 0}
  - curve:
      serializedVersion: 2
      m_Curve: []
      m_PreInfinity: 2
      m_PostInfinity: 2
      m_RotationOrder: 4
    attribute: m_LocalEulerAngles.z
    path: Brust_CTRL_GRP/Brust_CTRL
    classID: 4
    script: {fileID: 0}
  - curve:
      serializedVersion: 2
      m_Curve: []
      m_PreInfinity: 2
      m_PostInfinity: 2
      m_RotationOrder: 4
    attribute: m_LocalEulerAngles.y
    path: Brust_CTRL_GRP/Brust_CTRL
    classID: 4
    script: {fileID: 0}
  - curve:
      serializedVersion: 2
      m_Curve: []
      m_PreInfinity: 2
      m_PostInfinity: 2
      m_RotationOrder: 4
    attribute: m_LocalEulerAngles.x
    path: Brust_CTRL_GRP/Brust_CTRL
    classID: 4
    script: {fileID: 0}
  - curve:
      serializedVersion: 2
      m_Curve: []
      m_PreInfinity: 2
      m_PostInfinity: 2
      m_RotationOrder: 4
    attribute: m_LocalEulerAngles.x
    path: "H\xFCfte_CTRL_GRP/H\xFCfte_CTRL"
    classID: 4
    script: {fileID: 0}
  - curve:
      serializedVersion: 2
      m_Curve: []
      m_PreInfinity: 2
      m_PostInfinity: 2
      m_RotationOrder: 4
    attribute: m_LocalEulerAngles.y
    path: "H\xFCfte_CTRL_GRP/H\xFCfte_CTRL"
    classID: 4
    script: {fileID: 0}
  - curve:
      serializedVersion: 2
      m_Curve: []
      m_PreInfinity: 2
      m_PostInfinity: 2
      m_RotationOrder: 4
    attribute: m_LocalEulerAngles.z
    path: "H\xFCfte_CTRL_GRP/H\xFCfte_CTRL"
    classID: 4
    script: {fileID: 0}
  m_HasGenericRootTransform: 0
  m_HasMotionFloatCurves: 0
  m_GenerateMotionCurves: 0
  m_Events: []
