%YAML 1.1
%TAG !u! tag:unity3d.com,2011:
--- !u!74 &7400000
AnimationClip:
  m_ObjectHideFlags: 0
  m_PrefabParentObject: {fileID: 0}
  m_PrefabInternal: {fileID: 0}
  m_Name: Ramon_Jumpbeginn2
  serializedVersion: 6
  m_Legacy: 0
  m_Compressed: 0
  m_UseHighQualityCurve: 1
  m_RotationCurves:
  - curve:
      serializedVersion: 2
      m_Curve:
      - time: 0
        value: {x: 0, y: 0, z: 0.11776347, w: -0.9930417}
        inSlope: {x: 0, y: 0, z: 0, w: 0}
        outSlope: {x: 0, y: 0, z: 0, w: 0}
        tangentMode: 0
      - time: 0.016666668
        value: {x: 0, y: 0, z: 0.11776347, w: -0.9930417}
        inSlope: {x: 0, y: 0, z: 0, w: 0}
        outSlope: {x: 0, y: 0, z: 0, w: 0}
        tangentMode: 0
      - time: 0.033333335
        value: {x: 0, y: 0, z: 0.11776347, w: -0.9930417}
        inSlope: {x: 0, y: 0, z: 0, w: 0}
        outSlope: {x: 0, y: 0, z: 0, w: 0}
        tangentMode: 0
      - time: 0.050000004
        value: {x: 0, y: 0, z: 0.11776347, w: -0.9930417}
        inSlope: {x: 0, y: 0, z: 0, w: 0}
        outSlope: {x: 0, y: 0, z: 0, w: 0}
        tangentMode: 0
      - time: 0.06666667
        value: {x: 0, y: 0, z: 0.11776347, w: -0.9930417}
        inSlope: {x: 0, y: 0, z: 0, w: 0}
        outSlope: {x: 0, y: 0, z: 0, w: 0}
        tangentMode: 0
      - time: 0.083333336
        value: {x: 0, y: 0, z: 0.11776347, w: -0.9930417}
        inSlope: {x: 0, y: 0, z: 0, w: 0}
        outSlope: {x: 0, y: 0, z: 0, w: 0}
        tangentMode: 0
      - time: 0.1
        value: {x: 0, y: 0, z: 0.11776347, w: -0.9930417}
        inSlope: {x: 0, y: 0, z: 0, w: 0}
        outSlope: {x: 0, y: 0, z: 0, w: 0}
        tangentMode: 0
      - time: 0.11666667
        value: {x: 0, y: 0, z: 0.11776347, w: -0.9930417}
        inSlope: {x: 0, y: 0, z: 0, w: 0}
        outSlope: {x: 0, y: 0, z: 0, w: 0}
        tangentMode: 0
      - time: 0.13333334
        value: {x: 0, y: 0, z: 0.11776347, w: -0.9930417}
        inSlope: {x: 0, y: 0, z: 0, w: 0}
        outSlope: {x: 0, y: 0, z: 0, w: 0}
        tangentMode: 0
      - time: 0.15
        value: {x: 0, y: 0, z: 0.11776347, w: -0.9930417}
        inSlope: {x: 0, y: 0, z: 0, w: 0}
        outSlope: {x: 0, y: 0, z: 0, w: 0}
        tangentMode: 0
      - time: 0.16666667
        value: {x: 0, y: 0, z: 0.11776347, w: -0.9930417}
        inSlope: {x: 0, y: 0, z: 0, w: 0}
        outSlope: {x: 0, y: 0, z: 0, w: 0}
        tangentMode: 0
      - time: 0.18333334
        value: {x: 0, y: 0, z: 0.11776347, w: -0.9930417}
        inSlope: {x: 0, y: 0, z: 0, w: 0}
        outSlope: {x: 0, y: 0, z: 0, w: 0}
        tangentMode: 0
      - time: 0.2
        value: {x: 0, y: 0, z: 0.11776347, w: -0.9930417}
        inSlope: {x: 0, y: 0, z: 0, w: 0}
        outSlope: {x: 0, y: 0, z: 0, w: 0}
        tangentMode: 0
      - time: 0.21666667
        value: {x: 0, y: 0, z: 0.11776347, w: -0.9930417}
        inSlope: {x: 0, y: 0, z: 0, w: 0}
        outSlope: {x: 0, y: 0, z: 0, w: 0}
        tangentMode: 0
      - time: 0.23333333
        value: {x: 0, y: 0, z: 0.11776347, w: -0.9930417}
        inSlope: {x: 0, y: 0, z: 0, w: 0}
        outSlope: {x: 0, y: 0, z: 0, w: 0}
        tangentMode: 0
      - time: 0.25
        value: {x: 0, y: 0, z: 0.11776347, w: -0.9930417}
        inSlope: {x: 0, y: 0, z: 0, w: 0}
        outSlope: {x: 0, y: 0, z: 0, w: 0}
        tangentMode: 0
      m_PreInfinity: 2
      m_PostInfinity: 2
      m_RotationOrder: 4
    path: Brust_CTRL_GRP/Brust_CTRL
  - curve:
      serializedVersion: 2
      m_Curve:
      - time: 0
        value: {x: 0, y: 0, z: 0.13072859, w: 0.9914182}
        inSlope: {x: 0, y: 0, z: -0.14323442, w: 0.018711088}
        outSlope: {x: 0, y: 0, z: -0.14323442, w: 0.018711088}
        tangentMode: 0
      - time: 0.016666668
        value: {x: 0, y: 0, z: 0.12834135, w: 0.99173003}
        inSlope: {x: 0, y: 0, z: -0.15399455, w: 0.0199002}
        outSlope: {x: 0, y: 0, z: -0.15399455, w: 0.0199002}
        tangentMode: 0
      - time: 0.033333335
        value: {x: 0, y: 0, z: 0.12559544, w: 0.9920815}
        inSlope: {x: 0, y: 0, z: -0.16907972, w: 0.021393295}
        outSlope: {x: 0, y: 0, z: -0.16907972, w: 0.021393295}
        tangentMode: 0
      - time: 0.050000004
        value: {x: 0, y: 0, z: 0.122705355, w: 0.99244314}
        inSlope: {x: 0, y: 0, z: -0.17128697, w: 0.021184087}
        outSlope: {x: 0, y: 0, z: -0.17128697, w: 0.021184087}
        tangentMode: 0
      - time: 0.06666667
        value: {x: 0, y: 0, z: 0.11988587, w: 0.99278766}
        inSlope: {x: 0, y: 0, z: -0.16059929, w: 0.019417407}
        outSlope: {x: 0, y: 0, z: -0.16059929, w: 0.019417407}
        tangentMode: 0
      - time: 0.083333336
        value: {x: 0, y: 0, z: 0.117352046, w: 0.9930904}
        inSlope: {x: 0, y: 0, z: -0.13700055, w: 0.016225578}
        outSlope: {x: 0, y: 0, z: -0.13700055, w: 0.016225578}
        tangentMode: 0
      - time: 0.1
        value: {x: 0, y: 0, z: 0.115319185, w: 0.9933285}
        inSlope: {x: 0, y: 0, z: -0.1004807, w: 0.011701585}
        outSlope: {x: 0, y: 0, z: -0.1004807, w: 0.011701585}
        tangentMode: 0
      - time: 0.11666667
        value: {x: 0, y: 0, z: 0.11400269, w: 0.99348044}
        inSlope: {x: 0, y: 0, z: -0.05103618, w: 0.005879402}
        outSlope: {x: 0, y: 0, z: -0.05103618, w: 0.005879402}
        tangentMode: 0
      - time: 0.13333334
        value: {x: 0, y: 0, z: 0.11361798, w: 0.9935245}
        inSlope: {x: 0, y: 0, z: 0.011303953, w: -0.001299978}
        outSlope: {x: 0, y: 0, z: 0.011303953, w: -0.001299978}
        tangentMode: 0
      - time: 0.15
        value: {x: 0, y: 0, z: 0.11437949, w: 0.9934371}
        inSlope: {x: 0, y: 0, z: 0.07657931, w: -0.008856655}
        outSlope: {x: 0, y: 0, z: 0.07657931, w: -0.008856655}
        tangentMode: 0
      - time: 0.16666667
        value: {x: 0, y: 0, z: 0.11617062, w: 0.99322927}
        inSlope: {x: 0, y: 0, z: 0.12991616, w: -0.01524389}
        outSlope: {x: 0, y: 0, z: 0.12991616, w: -0.01524389}
        tangentMode: 0
      - time: 0.18333334
        value: {x: 0, y: 0, z: 0.118710026, w: 0.992929}
        inSlope: {x: 0, y: 0, z: 0.1663723, w: -0.019930603}
        outSlope: {x: 0, y: 0, z: 0.1663723, w: -0.019930603}
        tangentMode: 0
      - time: 0.2
        value: {x: 0, y: 0, z: 0.121716365, w: 0.9925649}
        inSlope: {x: 0, y: 0, z: 0.18595712, w: -0.022822024}
        outSlope: {x: 0, y: 0, z: 0.18595712, w: -0.022822024}
        tangentMode: 0
      - time: 0.21666667
        value: {x: 0, y: 0, z: 0.1249086, w: 0.99216825}
        inSlope: {x: 0, y: 0, z: 0.18869163, w: -0.023746492}
        outSlope: {x: 0, y: 0, z: 0.18869163, w: -0.023746492}
        tangentMode: 0
      - time: 0.23333333
        value: {x: 0, y: 0, z: 0.12800609, w: 0.99177337}
        inSlope: {x: 0, y: 0, z: 0.17459975, w: -0.022501947}
        outSlope: {x: 0, y: 0, z: 0.17459975, w: -0.022501947}
        tangentMode: 0
      - time: 0.25
        value: {x: 0, y: 0, z: 0.13072859, w: 0.9914182}
        inSlope: {x: 0, y: 0, z: 0.16335012, w: -0.021311047}
        outSlope: {x: 0, y: 0, z: 0.16335012, w: -0.021311047}
        tangentMode: 0
      m_PreInfinity: 2
      m_PostInfinity: 2
      m_RotationOrder: 4
    path: Kopf_CTRL_GRP/Kopf_CTRL
  - curve:
      serializedVersion: 2
      m_Curve:
      - time: 0
        value: {x: -0.008499358, y: -0.00045217786, z: 0.047315333, w: 0.9988437}
        inSlope: {x: 0, y: 0, z: 0, w: 0}
        outSlope: {x: 0, y: 0, z: 0, w: 0}
        tangentMode: 0
      - time: 0.016666668
        value: {x: -0.008499358, y: -0.00045217786, z: 0.047315333, w: 0.9988437}
        inSlope: {x: 0, y: 0, z: 0, w: 0}
        outSlope: {x: 0, y: 0, z: 0, w: 0}
        tangentMode: 0
      - time: 0.033333335
        value: {x: -0.008499358, y: -0.00045217786, z: 0.047315333, w: 0.9988437}
        inSlope: {x: 0, y: 0, z: 0, w: 0}
        outSlope: {x: 0, y: 0, z: 0, w: 0}
        tangentMode: 0
      - time: 0.050000004
        value: {x: -0.008499358, y: -0.00045217786, z: 0.047315333, w: 0.9988437}
        inSlope: {x: 0, y: 0, z: 0, w: 0}
        outSlope: {x: 0, y: 0, z: 0, w: 0}
        tangentMode: 0
      - time: 0.06666667
        value: {x: -0.008499358, y: -0.00045217786, z: 0.047315333, w: 0.9988437}
        inSlope: {x: 0, y: 0, z: 0, w: 0}
        outSlope: {x: 0, y: 0, z: 0, w: 0}
        tangentMode: 0
      - time: 0.083333336
        value: {x: -0.008499358, y: -0.00045217786, z: 0.047315333, w: 0.9988437}
        inSlope: {x: 0, y: 0, z: 0, w: 0}
        outSlope: {x: 0, y: 0, z: 0, w: 0}
        tangentMode: 0
      - time: 0.1
        value: {x: -0.008499358, y: -0.00045217786, z: 0.047315333, w: 0.9988437}
        inSlope: {x: 0, y: 0, z: 0, w: 0}
        outSlope: {x: 0, y: 0, z: 0, w: 0}
        tangentMode: 0
      - time: 0.11666667
        value: {x: -0.008499358, y: -0.00045217786, z: 0.047315333, w: 0.9988437}
        inSlope: {x: 0, y: 0, z: 0, w: 0}
        outSlope: {x: 0, y: 0, z: 0, w: 0}
        tangentMode: 0
      - time: 0.13333334
        value: {x: -0.008499358, y: -0.00045217786, z: 0.047315333, w: 0.9988437}
        inSlope: {x: 0, y: 0, z: 0, w: 0}
        outSlope: {x: 0, y: 0, z: 0, w: 0}
        tangentMode: 0
      - time: 0.15
        value: {x: -0.008499358, y: -0.00045217786, z: 0.047315333, w: 0.9988437}
        inSlope: {x: 0, y: 0, z: 0, w: 0}
        outSlope: {x: 0, y: 0, z: 0, w: 0}
        tangentMode: 0
      - time: 0.16666667
        value: {x: -0.008499358, y: -0.00045217786, z: 0.047315333, w: 0.9988437}
        inSlope: {x: 0, y: 0, z: 0, w: 0}
        outSlope: {x: 0, y: 0, z: 0, w: 0}
        tangentMode: 0
      - time: 0.18333334
        value: {x: -0.008499358, y: -0.00045217786, z: 0.047315333, w: 0.9988437}
        inSlope: {x: 0, y: 0, z: 0, w: 0}
        outSlope: {x: 0, y: 0, z: 0, w: 0}
        tangentMode: 0
      - time: 0.2
        value: {x: -0.008499358, y: -0.00045217786, z: 0.047315333, w: 0.9988437}
        inSlope: {x: 0, y: 0, z: 0, w: 0}
        outSlope: {x: 0, y: 0, z: 0, w: 0}
        tangentMode: 0
      - time: 0.21666667
        value: {x: -0.008499358, y: -0.00045217786, z: 0.047315333, w: 0.9988437}
        inSlope: {x: 0, y: 0, z: 0, w: 0}
        outSlope: {x: 0, y: 0, z: 0, w: 0}
        tangentMode: 0
      - time: 0.23333333
        value: {x: -0.008499358, y: -0.00045217786, z: 0.047315333, w: 0.9988437}
        inSlope: {x: 0, y: 0, z: 0, w: 0}
        outSlope: {x: 0, y: 0, z: 0, w: 0}
        tangentMode: 0
      - time: 0.25
        value: {x: -0.008499358, y: -0.00045217786, z: 0.047315333, w: 0.9988437}
        inSlope: {x: 0, y: 0, z: 0, w: 0}
        outSlope: {x: 0, y: 0, z: 0, w: 0}
        tangentMode: 0
      m_PreInfinity: 2
      m_PostInfinity: 2
      m_RotationOrder: 4
    path: SchniedelA_CTRL_GRP/SchniedelA_CTRL
  m_CompressedRotationCurves: []
  m_EulerCurves:
  - curve:
      serializedVersion: 2
      m_Curve:
      - time: 0
        value: {x: 0, y: 0, z: 398.3654}
        inSlope: {x: 0, y: 0, z: 0}
        outSlope: {x: 0, y: 0, z: 0}
        tangentMode: 0
      - time: 0.25
        value: {x: 0, y: 0, z: 398.3654}
        inSlope: {x: 0, y: 0, z: 0}
        outSlope: {x: 0, y: 0, z: 0}
        tangentMode: 0
      m_PreInfinity: 2
      m_PostInfinity: 2
      m_RotationOrder: 4
    path: Brust_CTRL_GRP/Brust_CTRL
  m_PositionCurves:
  - curve:
      serializedVersion: 2
      m_Curve:
      - time: 0
        value: {x: 5.9, y: -4.2, z: -0}
        inSlope: {x: -9.750001, y: 2.9999988, z: 0}
        outSlope: {x: -9.750001, y: 2.9999988, z: 0}
        tangentMode: 0
      - time: 0.13333334
        value: {x: 4.6, y: -3.8, z: 0}
        inSlope: {x: 0.69642925, y: -0.21428585, z: 0}
        outSlope: {x: 0.69642925, y: -0.21428585, z: 0}
        tangentMode: 0
      - time: 0.25
        value: {x: 5.9, y: -4.2, z: -0}
        inSlope: {x: 11.142859, y: -3.4285705, z: -0}
        outSlope: {x: 11.142859, y: -3.4285705, z: -0}
        tangentMode: 0
      m_PreInfinity: 2
      m_PostInfinity: 2
      m_RotationOrder: 4
    path: "Fu\xDFL_CTRL_GRP/Fu\xDFL_CTRL"
  - curve:
      serializedVersion: 2
      m_Curve:
      - time: 0
        value: {x: -1.4, y: -4.4, z: -0}
        inSlope: {x: 0, y: 0, z: 0}
        outSlope: {x: 0, y: 0, z: 0}
        tangentMode: 0
      - time: 0.25
        value: {x: -1.4, y: -4.4, z: -0}
        inSlope: {x: 0, y: 0, z: 0}
        outSlope: {x: 0, y: 0, z: 0}
        tangentMode: 0
      m_PreInfinity: 2
      m_PostInfinity: 2
      m_RotationOrder: 4
    path: "Fu\xDFR_CTRL_GRP/Fu\xDFR_CTRL"
  - curve:
      serializedVersion: 2
      m_Curve:
      - time: 0
        value: {x: 6.5, y: 6.6, z: 0}
        inSlope: {x: -3.0000005, y: -27.749996, z: 0}
        outSlope: {x: -3.0000005, y: -27.749996, z: 0}
        tangentMode: 0
      - time: 0.13333334
        value: {x: 6.1, y: 2.9, z: 0}
        inSlope: {x: 0.21428597, y: 1.9821453, z: 0}
        outSlope: {x: 0.21428597, y: 1.9821453, z: 0}
        tangentMode: 0
      - time: 0.25
        value: {x: 6.5, y: 6.6, z: 0}
        inSlope: {x: 3.4285724, y: 31.714287, z: 0}
        outSlope: {x: 3.4285724, y: 31.714287, z: 0}
        tangentMode: 0
      m_PreInfinity: 2
      m_PostInfinity: 2
      m_RotationOrder: 4
    path: HandL_CTRL_GRP/HandL_CTRL
  - curve:
      serializedVersion: 2
      m_Curve:
      - time: 0
        value: {x: 2.1, y: -3.3, z: 0}
        inSlope: {x: -26.999998, y: -66.74999, z: -0}
        outSlope: {x: -26.999998, y: -66.74999, z: -0}
        tangentMode: 0
      - time: 0.13333334
        value: {x: -1.5, y: -12.2, z: -0}
        inSlope: {x: 1.9285727, y: 4.7678604, z: 0}
        outSlope: {x: 1.9285727, y: 4.7678604, z: 0}
        tangentMode: 0
      - time: 0.25
        value: {x: 2.1, y: -3.3, z: 0}
        inSlope: {x: 30.857143, y: 76.28571, z: 0}
        outSlope: {x: 30.857143, y: 76.28571, z: 0}
        tangentMode: 0
      m_PreInfinity: 2
      m_PostInfinity: 2
      m_RotationOrder: 4
    path: HandR_CTRL_GRP/HandR_CTRL
  - curve:
      serializedVersion: 2
      m_Curve:
      - time: 0
        value: {x: 0.648, y: 0.938, z: -0}
        inSlope: {x: 0, y: 0, z: 0}
        outSlope: {x: 0, y: 0, z: 0}
        tangentMode: 0
      - time: 0.25
        value: {x: 0.648, y: 0.938, z: -0}
        inSlope: {x: 0, y: 0, z: 0}
        outSlope: {x: 0, y: 0, z: 0}
        tangentMode: 0
      m_PreInfinity: 2
      m_PostInfinity: 2
      m_RotationOrder: 4
    path: "H\xFCfte/Brust/Kopf"
  - curve:
      serializedVersion: 2
      m_Curve:
      - time: 0
        value: {x: 0.233, y: 0.717, z: -0}
        inSlope: {x: 0.20249996, y: 6.2474995, z: 0.074999996}
        outSlope: {x: 0.20249996, y: 6.2474995, z: 0.074999996}
        tangentMode: 0
      - time: 0.13333334
        value: {x: 0.26, y: 1.55, z: 0.01}
        inSlope: {x: -0.014464296, y: -0.4462502, z: -0.0053571463}
        outSlope: {x: -0.014464296, y: -0.4462502, z: -0.0053571463}
        tangentMode: 0
      - time: 0.25
        value: {x: 0.233, y: 0.717, z: -0}
        inSlope: {x: -0.23142855, y: -7.14, z: -0.08571429}
        outSlope: {x: -0.23142855, y: -7.14, z: -0.08571429}
        tangentMode: 0
      m_PreInfinity: 2
      m_PostInfinity: 2
      m_RotationOrder: 4
    path: "H\xFCfte/SchniedelA/SchniedelM/SchniedelE"
  - curve:
      serializedVersion: 2
      m_Curve:
      - time: 0
        value: {x: 0.8, y: 0, z: 0}
        inSlope: {x: 0, y: 0, z: 0}
        outSlope: {x: 0, y: 0, z: 0}
        tangentMode: 0
      - time: 0.25
        value: {x: 0.8, y: 0, z: 0}
        inSlope: {x: 0, y: 0, z: 0}
        outSlope: {x: 0, y: 0, z: 0}
        tangentMode: 0
      m_PreInfinity: 2
      m_PostInfinity: 2
      m_RotationOrder: 4
    path: "H\xFCfte_CTRL_GRP/H\xFCfte_CTRL"
  - curve:
      serializedVersion: 2
      m_Curve:
      - time: 0
        value: {x: 0, y: 0, z: 0}
        inSlope: {x: 6.45, y: 1.8749999, z: 0}
        outSlope: {x: 6.45, y: 1.8749999, z: 0}
        tangentMode: 0
      - time: 0.13333334
        value: {x: 0.86, y: 0.25, z: 0}
        inSlope: {x: -0.46071458, y: -0.13392872, z: 0}
        outSlope: {x: -0.46071458, y: -0.13392872, z: 0}
        tangentMode: 0
      - time: 0.25
        value: {x: 0, y: 0, z: 0}
        inSlope: {x: -7.371429, y: -2.1428573, z: 0}
        outSlope: {x: -7.371429, y: -2.1428573, z: 0}
        tangentMode: 0
      m_PreInfinity: 2
      m_PostInfinity: 2
      m_RotationOrder: 4
    path: FFD_Ctrls_GRP_3/MaskMan_Body_Ctrl_GRP_11/MaskMan_Body_Ctrl_11
  - curve:
      serializedVersion: 2
      m_Curve:
      - time: 0
        value: {x: 0, y: 0, z: 0}
        inSlope: {x: -5.1, y: -3.675, z: 0}
        outSlope: {x: -5.1, y: -3.675, z: 0}
        tangentMode: 0
      - time: 0.13333334
        value: {x: -0.68, y: -0.49, z: 0}
        inSlope: {x: 0.36428595, y: 0.26250017, z: 0}
        outSlope: {x: 0.36428595, y: 0.26250017, z: 0}
        tangentMode: 0
      - time: 0.25
        value: {x: 0, y: 0, z: 0}
        inSlope: {x: 5.828572, y: 4.2000003, z: 0}
        outSlope: {x: 5.828572, y: 4.2000003, z: 0}
        tangentMode: 0
      m_PreInfinity: 2
      m_PostInfinity: 2
      m_RotationOrder: 4
    path: FFD_Ctrls_GRP_3/MaskMan_Body_Ctrl_GRP_5/MaskMan_Body_Ctrl_5
  - curve:
      serializedVersion: 2
      m_Curve:
      - time: 0
        value: {x: -0.0000014305053, y: -0.0000000042772355, z: -7.267358e-14}
        inSlope: {x: 0, y: 0, z: 0}
        outSlope: {x: 0, y: 0, z: 0}
        tangentMode: 0
      - time: 0.25
        value: {x: -0.0000014305053, y: -0.0000000042772355, z: -7.267358e-14}
        inSlope: {x: 0, y: 0, z: 0}
        outSlope: {x: 0, y: 0, z: 0}
        tangentMode: 0
      m_PreInfinity: 2
      m_PostInfinity: 2
      m_RotationOrder: 4
    path: SchniedelA_CTRL_GRP/SchniedelA_CTRL
  - curve:
      serializedVersion: 2
      m_Curve:
      - time: 0
        value: {x: -0.0000007467622, y: -0.0000017550855, z: 0}
        inSlope: {x: 0, y: 0, z: 0}
        outSlope: {x: 0, y: 0, z: 0}
        tangentMode: 0
      - time: 0.25
        value: {x: -0.0000007467622, y: -0.0000017550855, z: 0}
        inSlope: {x: 0, y: 0, z: 0}
        outSlope: {x: 0, y: 0, z: 0}
        tangentMode: 0
      m_PreInfinity: 2
      m_PostInfinity: 2
      m_RotationOrder: 4
    path: Kopf_CTRL_GRP/Kopf_CTRL
  m_ScaleCurves: []
  m_FloatCurves: []
  m_PPtrCurves: []
  m_SampleRate: 60
  m_WrapMode: 0
  m_Bounds:
    m_Center: {x: 0, y: 0, z: 0}
    m_Extent: {x: 0, y: 0, z: 0}
  m_ClipBindingConstant:
    genericBindings:
    - path: 2501583950
      attribute: 1
      script: {fileID: 0}
      classID: 4
      customType: 0
      isPPtrCurve: 0
    - path: 3395650270
      attribute: 1
      script: {fileID: 0}
      classID: 4
      customType: 0
      isPPtrCurve: 0
    - path: 1804795753
      attribute: 1
      script: {fileID: 0}
      classID: 4
      customType: 0
      isPPtrCurve: 0
    - path: 4067861515
      attribute: 1
      script: {fileID: 0}
      classID: 4
      customType: 0
      isPPtrCurve: 0
    - path: 3620590405
      attribute: 1
      script: {fileID: 0}
      classID: 4
      customType: 0
      isPPtrCurve: 0
    - path: 3286404872
      attribute: 1
      script: {fileID: 0}
      classID: 4
      customType: 0
      isPPtrCurve: 0
    - path: 3339800587
      attribute: 2
      script: {fileID: 0}
      classID: 4
      customType: 0
      isPPtrCurve: 0
    - path: 887904761
      attribute: 1
      script: {fileID: 0}
      classID: 4
      customType: 0
      isPPtrCurve: 0
    - path: 1872252437
      attribute: 1
      script: {fileID: 0}
      classID: 4
      customType: 0
      isPPtrCurve: 0
    - path: 1986355893
      attribute: 1
      script: {fileID: 0}
      classID: 4
      customType: 0
      isPPtrCurve: 0
    - path: 2551158490
      attribute: 1
      script: {fileID: 0}
      classID: 4
      customType: 0
      isPPtrCurve: 0
    - path: 3339800587
      attribute: 1
      script: {fileID: 0}
      classID: 4
      customType: 0
      isPPtrCurve: 0
    - path: 4199396277
      attribute: 2
      script: {fileID: 0}
      classID: 4
      customType: 0
      isPPtrCurve: 0
    - path: 2551158490
      attribute: 2
      script: {fileID: 0}
      classID: 4
      customType: 0
      isPPtrCurve: 0
    - path: 4199396277
      attribute: 4
      script: {fileID: 0}
      classID: 4
      customType: 14
      isPPtrCurve: 0
    pptrCurveMapping: []
  m_AnimationClipSettings:
    serializedVersion: 2
    m_AdditiveReferencePoseClip: {fileID: 0}
    m_AdditiveReferencePoseTime: 0
    m_StartTime: 0
    m_StopTime: 0.25
    m_OrientationOffsetY: 0
    m_Level: 0
    m_CycleOffset: 0
    m_HasAdditiveReferencePose: 0
    m_LoopTime: 1
    m_LoopBlend: 0
    m_LoopBlendOrientation: 0
    m_LoopBlendPositionY: 0
    m_LoopBlendPositionXZ: 0
    m_KeepOriginalOrientation: 0
    m_KeepOriginalPositionY: 1
    m_KeepOriginalPositionXZ: 0
    m_HeightFromFeet: 0
    m_Mirror: 0
  m_EditorCurves:
  - curve:
      serializedVersion: 2
      m_Curve:
      - time: 0
        value: 5.9
        inSlope: -9.750001
        outSlope: -9.750001
        tangentMode: 10
      - time: 0.13333334
        value: 4.6
        inSlope: 0.69642925
        outSlope: 0.69642925
        tangentMode: 10
      - time: 0.25
        value: 5.9
        inSlope: 11.142859
        outSlope: 11.142859
        tangentMode: 10
      m_PreInfinity: 2
      m_PostInfinity: 2
      m_RotationOrder: 4
    attribute: m_LocalPosition.x
    path: "Fu\xDFL_CTRL_GRP/Fu\xDFL_CTRL"
    classID: 4
    script: {fileID: 0}
  - curve:
      serializedVersion: 2
      m_Curve:
      - time: 0
        value: -4.2
        inSlope: 2.9999988
        outSlope: 2.9999988
        tangentMode: 10
      - time: 0.13333334
        value: -3.8
        inSlope: -0.21428585
        outSlope: -0.21428585
        tangentMode: 10
      - time: 0.25
        value: -4.2
        inSlope: -3.4285705
        outSlope: -3.4285705
        tangentMode: 10
      m_PreInfinity: 2
      m_PostInfinity: 2
      m_RotationOrder: 4
    attribute: m_LocalPosition.y
    path: "Fu\xDFL_CTRL_GRP/Fu\xDFL_CTRL"
    classID: 4
    script: {fileID: 0}
  - curve:
      serializedVersion: 2
      m_Curve:
      - time: 0
        value: -0
        inSlope: 0
        outSlope: 0
        tangentMode: 10
      - time: 0.13333334
        value: 0
        inSlope: 0
        outSlope: 0
        tangentMode: 10
      - time: 0.25
        value: -0
        inSlope: -0
        outSlope: -0
        tangentMode: 10
      m_PreInfinity: 2
      m_PostInfinity: 2
      m_RotationOrder: 4
    attribute: m_LocalPosition.z
    path: "Fu\xDFL_CTRL_GRP/Fu\xDFL_CTRL"
    classID: 4
    script: {fileID: 0}
  - curve:
      serializedVersion: 2
      m_Curve:
      - time: 0
        value: -1.4
        inSlope: 0
        outSlope: 0
        tangentMode: 10
      - time: 0.25
        value: -1.4
        inSlope: 0
        outSlope: 0
        tangentMode: 10
      m_PreInfinity: 2
      m_PostInfinity: 2
      m_RotationOrder: 4
    attribute: m_LocalPosition.x
    path: "Fu\xDFR_CTRL_GRP/Fu\xDFR_CTRL"
    classID: 4
    script: {fileID: 0}
  - curve:
      serializedVersion: 2
      m_Curve:
      - time: 0
        value: -4.4
        inSlope: 0
        outSlope: 0
        tangentMode: 10
      - time: 0.25
        value: -4.4
        inSlope: 0
        outSlope: 0
        tangentMode: 10
      m_PreInfinity: 2
      m_PostInfinity: 2
      m_RotationOrder: 4
    attribute: m_LocalPosition.y
    path: "Fu\xDFR_CTRL_GRP/Fu\xDFR_CTRL"
    classID: 4
    script: {fileID: 0}
  - curve:
      serializedVersion: 2
      m_Curve:
      - time: 0
        value: -0
        inSlope: 0
        outSlope: 0
        tangentMode: 10
      - time: 0.25
        value: -0
        inSlope: 0
        outSlope: 0
        tangentMode: 10
      m_PreInfinity: 2
      m_PostInfinity: 2
      m_RotationOrder: 4
    attribute: m_LocalPosition.z
    path: "Fu\xDFR_CTRL_GRP/Fu\xDFR_CTRL"
    classID: 4
    script: {fileID: 0}
  - curve:
      serializedVersion: 2
      m_Curve:
      - time: 0
        value: 6.5
        inSlope: -3.0000005
        outSlope: -3.0000005
        tangentMode: 10
      - time: 0.13333334
        value: 6.1
        inSlope: 0.21428597
        outSlope: 0.21428597
        tangentMode: 10
      - time: 0.25
        value: 6.5
        inSlope: 3.4285724
        outSlope: 3.4285724
        tangentMode: 10
      m_PreInfinity: 2
      m_PostInfinity: 2
      m_RotationOrder: 4
    attribute: m_LocalPosition.x
    path: HandL_CTRL_GRP/HandL_CTRL
    classID: 4
    script: {fileID: 0}
  - curve:
      serializedVersion: 2
      m_Curve:
      - time: 0
        value: 6.6
        inSlope: -27.749996
        outSlope: -27.749996
        tangentMode: 10
      - time: 0.13333334
        value: 2.9
        inSlope: 1.9821453
        outSlope: 1.9821453
        tangentMode: 10
      - time: 0.25
        value: 6.6
        inSlope: 31.714287
        outSlope: 31.714287
        tangentMode: 10
      m_PreInfinity: 2
      m_PostInfinity: 2
      m_RotationOrder: 4
    attribute: m_LocalPosition.y
    path: HandL_CTRL_GRP/HandL_CTRL
    classID: 4
    script: {fileID: 0}
  - curve:
      serializedVersion: 2
      m_Curve:
      - time: 0
        value: 0
        inSlope: 0
        outSlope: 0
        tangentMode: 10
      - time: 0.13333334
        value: 0
        inSlope: 0
        outSlope: 0
        tangentMode: 10
      - time: 0.25
        value: 0
        inSlope: 0
        outSlope: 0
        tangentMode: 10
      m_PreInfinity: 2
      m_PostInfinity: 2
      m_RotationOrder: 4
    attribute: m_LocalPosition.z
    path: HandL_CTRL_GRP/HandL_CTRL
    classID: 4
    script: {fileID: 0}
  - curve:
      serializedVersion: 2
      m_Curve:
      - time: 0
        value: 2.1
        inSlope: -26.999998
        outSlope: -26.999998
        tangentMode: 10
      - time: 0.13333334
        value: -1.5
        inSlope: 1.9285727
        outSlope: 1.9285727
        tangentMode: 10
      - time: 0.25
        value: 2.1
        inSlope: 30.857143
        outSlope: 30.857143
        tangentMode: 10
      m_PreInfinity: 2
      m_PostInfinity: 2
      m_RotationOrder: 4
    attribute: m_LocalPosition.x
    path: HandR_CTRL_GRP/HandR_CTRL
    classID: 4
    script: {fileID: 0}
  - curve:
      serializedVersion: 2
      m_Curve:
      - time: 0
        value: -3.3
        inSlope: -66.74999
        outSlope: -66.74999
        tangentMode: 10
      - time: 0.13333334
        value: -12.2
        inSlope: 4.7678604
        outSlope: 4.7678604
        tangentMode: 10
      - time: 0.25
        value: -3.3
        inSlope: 76.28571
        outSlope: 76.28571
        tangentMode: 10
      m_PreInfinity: 2
      m_PostInfinity: 2
      m_RotationOrder: 4
    attribute: m_LocalPosition.y
    path: HandR_CTRL_GRP/HandR_CTRL
    classID: 4
    script: {fileID: 0}
  - curve:
      serializedVersion: 2
      m_Curve:
      - time: 0
        value: 0
        inSlope: -0
        outSlope: -0
        tangentMode: 10
      - time: 0.13333334
        value: -0
        inSlope: 0
        outSlope: 0
        tangentMode: 10
      - time: 0.25
        value: 0
        inSlope: 0
        outSlope: 0
        tangentMode: 10
      m_PreInfinity: 2
      m_PostInfinity: 2
      m_RotationOrder: 4
    attribute: m_LocalPosition.z
    path: HandR_CTRL_GRP/HandR_CTRL
    classID: 4
    script: {fileID: 0}
  - curve:
      serializedVersion: 2
      m_Curve:
      - time: 0
        value: 0.648
        inSlope: 0
        outSlope: 0
        tangentMode: 10
      - time: 0.25
        value: 0.648
        inSlope: 0
        outSlope: 0
        tangentMode: 10
      m_PreInfinity: 2
      m_PostInfinity: 2
      m_RotationOrder: 4
    attribute: m_LocalPosition.x
    path: "H\xFCfte/Brust/Kopf"
    classID: 4
    script: {fileID: 0}
  - curve:
      serializedVersion: 2
      m_Curve:
      - time: 0
        value: 0.938
        inSlope: 0
        outSlope: 0
        tangentMode: 10
      - time: 0.25
        value: 0.938
        inSlope: 0
        outSlope: 0
        tangentMode: 10
      m_PreInfinity: 2
      m_PostInfinity: 2
      m_RotationOrder: 4
    attribute: m_LocalPosition.y
    path: "H\xFCfte/Brust/Kopf"
    classID: 4
    script: {fileID: 0}
  - curve:
      serializedVersion: 2
      m_Curve:
      - time: 0
        value: -0
        inSlope: 0
        outSlope: 0
        tangentMode: 10
      - time: 0.25
        value: -0
        inSlope: 0
        outSlope: 0
        tangentMode: 10
      m_PreInfinity: 2
      m_PostInfinity: 2
      m_RotationOrder: 4
    attribute: m_LocalPosition.z
    path: "H\xFCfte/Brust/Kopf"
    classID: 4
    script: {fileID: 0}
  - curve:
      serializedVersion: 2
      m_Curve:
      - time: 0
        value: 0.233
        inSlope: 0.20249996
        outSlope: 0.20249996
        tangentMode: 10
      - time: 0.13333334
        value: 0.26
        inSlope: -0.014464296
        outSlope: -0.014464296
        tangentMode: 10
      - time: 0.25
        value: 0.233
        inSlope: -0.23142855
        outSlope: -0.23142855
        tangentMode: 10
      m_PreInfinity: 2
      m_PostInfinity: 2
      m_RotationOrder: 4
    attribute: m_LocalPosition.x
    path: "H\xFCfte/SchniedelA/SchniedelM/SchniedelE"
    classID: 4
    script: {fileID: 0}
  - curve:
      serializedVersion: 2
      m_Curve:
      - time: 0
        value: 0.717
        inSlope: 6.2474995
        outSlope: 6.2474995
        tangentMode: 10
      - time: 0.13333334
        value: 1.55
        inSlope: -0.4462502
        outSlope: -0.4462502
        tangentMode: 10
      - time: 0.25
        value: 0.717
        inSlope: -7.14
        outSlope: -7.14
        tangentMode: 10
      m_PreInfinity: 2
      m_PostInfinity: 2
      m_RotationOrder: 4
    attribute: m_LocalPosition.y
    path: "H\xFCfte/SchniedelA/SchniedelM/SchniedelE"
    classID: 4
    script: {fileID: 0}
  - curve:
      serializedVersion: 2
      m_Curve:
      - time: 0
        value: -0
        inSlope: 0.074999996
        outSlope: 0.074999996
        tangentMode: 10
      - time: 0.13333334
        value: 0.01
        inSlope: -0.0053571463
        outSlope: -0.0053571463
        tangentMode: 10
      - time: 0.25
        value: -0
        inSlope: -0.08571429
        outSlope: -0.08571429
        tangentMode: 10
      m_PreInfinity: 2
      m_PostInfinity: 2
      m_RotationOrder: 4
    attribute: m_LocalPosition.z
    path: "H\xFCfte/SchniedelA/SchniedelM/SchniedelE"
    classID: 4
    script: {fileID: 0}
  - curve:
      serializedVersion: 2
      m_Curve:
      - time: 0
        value: 0.8
        inSlope: 0
        outSlope: 0
        tangentMode: 10
      - time: 0.25
        value: 0.8
        inSlope: 0
        outSlope: 0
        tangentMode: 10
      m_PreInfinity: 2
      m_PostInfinity: 2
      m_RotationOrder: 4
    attribute: m_LocalPosition.x
    path: "H\xFCfte_CTRL_GRP/H\xFCfte_CTRL"
    classID: 4
    script: {fileID: 0}
  - curve:
      serializedVersion: 2
      m_Curve:
      - time: 0
        value: 0
        inSlope: 0
        outSlope: 0
        tangentMode: 10
      - time: 0.25
        value: 0
        inSlope: 0
        outSlope: 0
        tangentMode: 10
      m_PreInfinity: 2
      m_PostInfinity: 2
      m_RotationOrder: 4
    attribute: m_LocalPosition.y
    path: "H\xFCfte_CTRL_GRP/H\xFCfte_CTRL"
    classID: 4
    script: {fileID: 0}
  - curve:
      serializedVersion: 2
      m_Curve:
      - time: 0
        value: 0
        inSlope: 0
        outSlope: 0
        tangentMode: 10
      - time: 0.25
        value: 0
        inSlope: 0
        outSlope: 0
        tangentMode: 10
      m_PreInfinity: 2
      m_PostInfinity: 2
      m_RotationOrder: 4
    attribute: m_LocalPosition.z
    path: "H\xFCfte_CTRL_GRP/H\xFCfte_CTRL"
    classID: 4
    script: {fileID: 0}
  - curve:
      serializedVersion: 2
      m_Curve:
      - time: 0
        value: 0
        inSlope: 6.45
        outSlope: 6.45
        tangentMode: 10
      - time: 0.13333334
        value: 0.86
        inSlope: -0.46071458
        outSlope: -0.46071458
        tangentMode: 10
      - time: 0.25
        value: 0
        inSlope: -7.371429
        outSlope: -7.371429
        tangentMode: 10
      m_PreInfinity: 2
      m_PostInfinity: 2
      m_RotationOrder: 4
    attribute: m_LocalPosition.x
    path: FFD_Ctrls_GRP_3/MaskMan_Body_Ctrl_GRP_11/MaskMan_Body_Ctrl_11
    classID: 4
    script: {fileID: 0}
  - curve:
      serializedVersion: 2
      m_Curve:
      - time: 0
        value: 0
        inSlope: 1.8749999
        outSlope: 1.8749999
        tangentMode: 10
      - time: 0.13333334
        value: 0.25
        inSlope: -0.13392872
        outSlope: -0.13392872
        tangentMode: 10
      - time: 0.25
        value: 0
        inSlope: -2.1428573
        outSlope: -2.1428573
        tangentMode: 10
      m_PreInfinity: 2
      m_PostInfinity: 2
      m_RotationOrder: 4
    attribute: m_LocalPosition.y
    path: FFD_Ctrls_GRP_3/MaskMan_Body_Ctrl_GRP_11/MaskMan_Body_Ctrl_11
    classID: 4
    script: {fileID: 0}
  - curve:
      serializedVersion: 2
      m_Curve:
      - time: 0
        value: 0
        inSlope: 0
        outSlope: 0
        tangentMode: 10
      - time: 0.13333334
        value: 0
        inSlope: 0
        outSlope: 0
        tangentMode: 10
      - time: 0.25
        value: 0
        inSlope: 0
        outSlope: 0
        tangentMode: 10
      m_PreInfinity: 2
      m_PostInfinity: 2
      m_RotationOrder: 4
    attribute: m_LocalPosition.z
    path: FFD_Ctrls_GRP_3/MaskMan_Body_Ctrl_GRP_11/MaskMan_Body_Ctrl_11
    classID: 4
    script: {fileID: 0}
  - curve:
      serializedVersion: 2
      m_Curve:
      - time: 0
        value: 0
        inSlope: -5.1
        outSlope: -5.1
        tangentMode: 10
      - time: 0.13333334
        value: -0.68
        inSlope: 0.36428595
        outSlope: 0.36428595
        tangentMode: 10
      - time: 0.25
        value: 0
        inSlope: 5.828572
        outSlope: 5.828572
        tangentMode: 10
      m_PreInfinity: 2
      m_PostInfinity: 2
      m_RotationOrder: 4
    attribute: m_LocalPosition.x
    path: FFD_Ctrls_GRP_3/MaskMan_Body_Ctrl_GRP_5/MaskMan_Body_Ctrl_5
    classID: 4
    script: {fileID: 0}
  - curve:
      serializedVersion: 2
      m_Curve:
      - time: 0
        value: 0
        inSlope: -3.675
        outSlope: -3.675
        tangentMode: 10
      - time: 0.13333334
        value: -0.49
        inSlope: 0.26250017
        outSlope: 0.26250017
        tangentMode: 10
      - time: 0.25
        value: 0
        inSlope: 4.2000003
        outSlope: 4.2000003
        tangentMode: 10
      m_PreInfinity: 2
      m_PostInfinity: 2
      m_RotationOrder: 4
    attribute: m_LocalPosition.y
    path: FFD_Ctrls_GRP_3/MaskMan_Body_Ctrl_GRP_5/MaskMan_Body_Ctrl_5
    classID: 4
    script: {fileID: 0}
  - curve:
      serializedVersion: 2
      m_Curve:
      - time: 0
        value: 0
        inSlope: 0
        outSlope: 0
        tangentMode: 10
      - time: 0.13333334
        value: 0
        inSlope: 0
        outSlope: 0
        tangentMode: 10
      - time: 0.25
        value: 0
        inSlope: 0
        outSlope: 0
        tangentMode: 10
      m_PreInfinity: 2
      m_PostInfinity: 2
      m_RotationOrder: 4
    attribute: m_LocalPosition.z
    path: FFD_Ctrls_GRP_3/MaskMan_Body_Ctrl_GRP_5/MaskMan_Body_Ctrl_5
    classID: 4
    script: {fileID: 0}
  - curve:
      serializedVersion: 2
      m_Curve:
      - time: 0
        value: 0
        inSlope: 0
        outSlope: 0
        tangentMode: 0
      - time: 0.016666668
        value: 0
        inSlope: 0
        outSlope: 0
        tangentMode: 0
      - time: 0.033333335
        value: 0
        inSlope: 0
        outSlope: 0
        tangentMode: 0
      - time: 0.050000004
        value: 0
        inSlope: 0
        outSlope: 0
        tangentMode: 0
      - time: 0.06666667
        value: 0
        inSlope: 0
        outSlope: 0
        tangentMode: 0
      - time: 0.083333336
        value: 0
        inSlope: 0
        outSlope: 0
        tangentMode: 0
      - time: 0.1
        value: 0
        inSlope: 0
        outSlope: 0
        tangentMode: 0
      - time: 0.11666667
        value: 0
        inSlope: 0
        outSlope: 0
        tangentMode: 0
      - time: 0.13333334
        value: 0
        inSlope: 0
        outSlope: 0
        tangentMode: 0
      - time: 0.15
        value: 0
        inSlope: 0
        outSlope: 0
        tangentMode: 0
      - time: 0.16666667
        value: 0
        inSlope: 0
        outSlope: 0
        tangentMode: 0
      - time: 0.18333334
        value: 0
        inSlope: 0
        outSlope: 0
        tangentMode: 0
      - time: 0.2
        value: 0
        inSlope: 0
        outSlope: 0
        tangentMode: 0
      - time: 0.21666667
        value: 0
        inSlope: 0
        outSlope: 0
        tangentMode: 0
      - time: 0.23333333
        value: 0
        inSlope: 0
        outSlope: 0
        tangentMode: 0
      - time: 0.25
        value: 0
        inSlope: 0
        outSlope: 0
        tangentMode: 0
      m_PreInfinity: 2
      m_PostInfinity: 2
      m_RotationOrder: 4
    attribute: m_LocalRotation.x
    path: Brust_CTRL_GRP/Brust_CTRL
    classID: 4
    script: {fileID: 0}
  - curve:
      serializedVersion: 2
      m_Curve:
      - time: 0
        value: 0
        inSlope: 0
        outSlope: 0
        tangentMode: 0
      - time: 0.016666668
        value: 0
        inSlope: 0
        outSlope: 0
        tangentMode: 0
      - time: 0.033333335
        value: 0
        inSlope: 0
        outSlope: 0
        tangentMode: 0
      - time: 0.050000004
        value: 0
        inSlope: 0
        outSlope: 0
        tangentMode: 0
      - time: 0.06666667
        value: 0
        inSlope: 0
        outSlope: 0
        tangentMode: 0
      - time: 0.083333336
        value: 0
        inSlope: 0
        outSlope: 0
        tangentMode: 0
      - time: 0.1
        value: 0
        inSlope: 0
        outSlope: 0
        tangentMode: 0
      - time: 0.11666667
        value: 0
        inSlope: 0
        outSlope: 0
        tangentMode: 0
      - time: 0.13333334
        value: 0
        inSlope: 0
        outSlope: 0
        tangentMode: 0
      - time: 0.15
        value: 0
        inSlope: 0
        outSlope: 0
        tangentMode: 0
      - time: 0.16666667
        value: 0
        inSlope: 0
        outSlope: 0
        tangentMode: 0
      - time: 0.18333334
        value: 0
        inSlope: 0
        outSlope: 0
        tangentMode: 0
      - time: 0.2
        value: 0
        inSlope: 0
        outSlope: 0
        tangentMode: 0
      - time: 0.21666667
        value: 0
        inSlope: 0
        outSlope: 0
        tangentMode: 0
      - time: 0.23333333
        value: 0
        inSlope: 0
        outSlope: 0
        tangentMode: 0
      - time: 0.25
        value: 0
        inSlope: 0
        outSlope: 0
        tangentMode: 0
      m_PreInfinity: 2
      m_PostInfinity: 2
      m_RotationOrder: 4
    attribute: m_LocalRotation.y
    path: Brust_CTRL_GRP/Brust_CTRL
    classID: 4
    script: {fileID: 0}
  - curve:
      serializedVersion: 2
      m_Curve:
      - time: 0
        value: 0.11776347
        inSlope: 0
        outSlope: 0
        tangentMode: 0
      - time: 0.016666668
        value: 0.11776347
        inSlope: 0
        outSlope: 0
        tangentMode: 0
      - time: 0.033333335
        value: 0.11776347
        inSlope: 0
        outSlope: 0
        tangentMode: 0
      - time: 0.050000004
        value: 0.11776347
        inSlope: 0
        outSlope: 0
        tangentMode: 0
      - time: 0.06666667
        value: 0.11776347
        inSlope: 0
        outSlope: 0
        tangentMode: 0
      - time: 0.083333336
        value: 0.11776347
        inSlope: 0
        outSlope: 0
        tangentMode: 0
      - time: 0.1
        value: 0.11776347
        inSlope: 0
        outSlope: 0
        tangentMode: 0
      - time: 0.11666667
        value: 0.11776347
        inSlope: 0
        outSlope: 0
        tangentMode: 0
      - time: 0.13333334
        value: 0.11776347
        inSlope: 0
        outSlope: 0
        tangentMode: 0
      - time: 0.15
        value: 0.11776347
        inSlope: 0
        outSlope: 0
        tangentMode: 0
      - time: 0.16666667
        value: 0.11776347
        inSlope: 0
        outSlope: 0
        tangentMode: 0
      - time: 0.18333334
        value: 0.11776347
        inSlope: 0
        outSlope: 0
        tangentMode: 0
      - time: 0.2
        value: 0.11776347
        inSlope: 0
        outSlope: 0
        tangentMode: 0
      - time: 0.21666667
        value: 0.11776347
        inSlope: 0
        outSlope: 0
        tangentMode: 0
      - time: 0.23333333
        value: 0.11776347
        inSlope: 0
        outSlope: 0
        tangentMode: 0
      - time: 0.25
        value: 0.11776347
        inSlope: 0
        outSlope: 0
        tangentMode: 0
      m_PreInfinity: 2
      m_PostInfinity: 2
      m_RotationOrder: 4
    attribute: m_LocalRotation.z
    path: Brust_CTRL_GRP/Brust_CTRL
    classID: 4
    script: {fileID: 0}
  - curve:
      serializedVersion: 2
      m_Curve:
      - time: 0
        value: -0.9930417
        inSlope: 0
        outSlope: 0
        tangentMode: 0
      - time: 0.016666668
        value: -0.9930417
        inSlope: 0
        outSlope: 0
        tangentMode: 0
      - time: 0.033333335
        value: -0.9930417
        inSlope: 0
        outSlope: 0
        tangentMode: 0
      - time: 0.050000004
        value: -0.9930417
        inSlope: 0
        outSlope: 0
        tangentMode: 0
      - time: 0.06666667
        value: -0.9930417
        inSlope: 0
        outSlope: 0
        tangentMode: 0
      - time: 0.083333336
        value: -0.9930417
        inSlope: 0
        outSlope: 0
        tangentMode: 0
      - time: 0.1
        value: -0.9930417
        inSlope: 0
        outSlope: 0
        tangentMode: 0
      - time: 0.11666667
        value: -0.9930417
        inSlope: 0
        outSlope: 0
        tangentMode: 0
      - time: 0.13333334
        value: -0.9930417
        inSlope: 0
        outSlope: 0
        tangentMode: 0
      - time: 0.15
        value: -0.9930417
        inSlope: 0
        outSlope: 0
        tangentMode: 0
      - time: 0.16666667
        value: -0.9930417
        inSlope: 0
        outSlope: 0
        tangentMode: 0
      - time: 0.18333334
        value: -0.9930417
        inSlope: 0
        outSlope: 0
        tangentMode: 0
      - time: 0.2
        value: -0.9930417
        inSlope: 0
        outSlope: 0
        tangentMode: 0
      - time: 0.21666667
        value: -0.9930417
        inSlope: 0
        outSlope: 0
        tangentMode: 0
      - time: 0.23333333
        value: -0.9930417
        inSlope: 0
        outSlope: 0
        tangentMode: 0
      - time: 0.25
        value: -0.9930417
        inSlope: 0
        outSlope: 0
        tangentMode: 0
      m_PreInfinity: 2
      m_PostInfinity: 2
      m_RotationOrder: 4
    attribute: m_LocalRotation.w
    path: Brust_CTRL_GRP/Brust_CTRL
    classID: 4
    script: {fileID: 0}
  - curve:
      serializedVersion: 2
      m_Curve:
      - time: 0
        value: 0
        inSlope: 0
        outSlope: 0
        tangentMode: 10
      - time: 0.25
        value: 0
        inSlope: 0
        outSlope: 0
        tangentMode: 10
      m_PreInfinity: 2
      m_PostInfinity: 2
      m_RotationOrder: 4
    attribute: localEulerAnglesRaw.x
    path: Brust_CTRL_GRP/Brust_CTRL
    classID: 4
    script: {fileID: 0}
  - curve:
      serializedVersion: 2
      m_Curve:
      - time: 0
        value: 0
        inSlope: 0
        outSlope: 0
        tangentMode: 10
      - time: 0.25
        value: 0
        inSlope: 0
        outSlope: 0
        tangentMode: 10
      m_PreInfinity: 2
      m_PostInfinity: 2
      m_RotationOrder: 4
    attribute: localEulerAnglesRaw.y
    path: Brust_CTRL_GRP/Brust_CTRL
    classID: 4
    script: {fileID: 0}
  - curve:
      serializedVersion: 2
      m_Curve:
      - time: 0
        value: 398.3654
        inSlope: 0
        outSlope: 0
        tangentMode: 10
      - time: 0.25
        value: 398.3654
        inSlope: 0
        outSlope: 0
        tangentMode: 10
      m_PreInfinity: 2
      m_PostInfinity: 2
      m_RotationOrder: 4
    attribute: localEulerAnglesRaw.z
    path: Brust_CTRL_GRP/Brust_CTRL
    classID: 4
    script: {fileID: 0}
  - curve:
      serializedVersion: 2
      m_Curve:
      - time: 0
        value: -0.0000014305053
        inSlope: 0
        outSlope: 0
        tangentMode: 10
      - time: 0.25
        value: -0.0000014305053
        inSlope: 0
        outSlope: 0
        tangentMode: 10
      m_PreInfinity: 2
      m_PostInfinity: 2
      m_RotationOrder: 4
    attribute: m_LocalPosition.x
    path: SchniedelA_CTRL_GRP/SchniedelA_CTRL
    classID: 4
    script: {fileID: 0}
  - curve:
      serializedVersion: 2
      m_Curve:
      - time: 0
        value: -0.0000000042772355
        inSlope: 0
        outSlope: 0
        tangentMode: 10
      - time: 0.25
        value: -0.0000000042772355
        inSlope: 0
        outSlope: 0
        tangentMode: 10
      m_PreInfinity: 2
      m_PostInfinity: 2
      m_RotationOrder: 4
    attribute: m_LocalPosition.y
    path: SchniedelA_CTRL_GRP/SchniedelA_CTRL
    classID: 4
    script: {fileID: 0}
  - curve:
      serializedVersion: 2
      m_Curve:
      - time: 0
        value: -7.267358e-14
        inSlope: 0
        outSlope: 0
        tangentMode: 10
      - time: 0.25
        value: -7.267358e-14
        inSlope: 0
        outSlope: 0
        tangentMode: 10
      m_PreInfinity: 2
      m_PostInfinity: 2
      m_RotationOrder: 4
    attribute: m_LocalPosition.z
    path: SchniedelA_CTRL_GRP/SchniedelA_CTRL
    classID: 4
    script: {fileID: 0}
  - curve:
      serializedVersion: 2
      m_Curve:
      - time: 0
        value: -0.0000007467622
        inSlope: 0
        outSlope: 0
        tangentMode: 10
      - time: 0.25
        value: -0.0000007467622
        inSlope: 0
        outSlope: 0
        tangentMode: 10
      m_PreInfinity: 2
      m_PostInfinity: 2
      m_RotationOrder: 4
    attribute: m_LocalPosition.x
    path: Kopf_CTRL_GRP/Kopf_CTRL
    classID: 4
    script: {fileID: 0}
  - curve:
      serializedVersion: 2
      m_Curve:
      - time: 0
        value: -0.0000017550855
        inSlope: 0
        outSlope: 0
        tangentMode: 10
      - time: 0.25
        value: -0.0000017550855
        inSlope: 0
        outSlope: 0
        tangentMode: 10
      m_PreInfinity: 2
      m_PostInfinity: 2
      m_RotationOrder: 4
    attribute: m_LocalPosition.y
    path: Kopf_CTRL_GRP/Kopf_CTRL
    classID: 4
    script: {fileID: 0}
  - curve:
      serializedVersion: 2
      m_Curve:
      - time: 0
        value: 0
        inSlope: 0
        outSlope: 0
        tangentMode: 10
      - time: 0.25
        value: 0
        inSlope: 0
        outSlope: 0
        tangentMode: 10
      m_PreInfinity: 2
      m_PostInfinity: 2
      m_RotationOrder: 4
    attribute: m_LocalPosition.z
    path: Kopf_CTRL_GRP/Kopf_CTRL
    classID: 4
    script: {fileID: 0}
  - curve:
      serializedVersion: 2
      m_Curve:
      - time: 0
        value: 0
        inSlope: 0
        outSlope: 0
        tangentMode: 0
      - time: 0.016666668
        value: 0
        inSlope: 0
        outSlope: 0
        tangentMode: 0
      - time: 0.033333335
        value: 0
        inSlope: 0
        outSlope: 0
        tangentMode: 0
      - time: 0.050000004
        value: 0
        inSlope: 0
        outSlope: 0
        tangentMode: 0
      - time: 0.06666667
        value: 0
        inSlope: 0
        outSlope: 0
        tangentMode: 0
      - time: 0.083333336
        value: 0
        inSlope: 0
        outSlope: 0
        tangentMode: 0
      - time: 0.1
        value: 0
        inSlope: 0
        outSlope: 0
        tangentMode: 0
      - time: 0.11666667
        value: 0
        inSlope: 0
        outSlope: 0
        tangentMode: 0
      - time: 0.13333334
        value: 0
        inSlope: 0
        outSlope: 0
        tangentMode: 0
      - time: 0.15
        value: 0
        inSlope: 0
        outSlope: 0
        tangentMode: 0
      - time: 0.16666667
        value: 0
        inSlope: 0
        outSlope: 0
        tangentMode: 0
      - time: 0.18333334
        value: 0
        inSlope: 0
        outSlope: 0
        tangentMode: 0
      - time: 0.2
        value: 0
        inSlope: 0
        outSlope: 0
        tangentMode: 0
      - time: 0.21666667
        value: 0
        inSlope: 0
        outSlope: 0
        tangentMode: 0
      - time: 0.23333333
        value: 0
        inSlope: 0
        outSlope: 0
        tangentMode: 0
      - time: 0.25
        value: 0
        inSlope: 0
        outSlope: 0
        tangentMode: 0
      m_PreInfinity: 2
      m_PostInfinity: 2
      m_RotationOrder: 4
    attribute: m_LocalRotation.x
    path: Kopf_CTRL_GRP/Kopf_CTRL
    classID: 4
    script: {fileID: 0}
  - curve:
      serializedVersion: 2
      m_Curve:
      - time: 0
        value: 0
        inSlope: 0
        outSlope: 0
        tangentMode: 0
      - time: 0.016666668
        value: 0
        inSlope: 0
        outSlope: 0
        tangentMode: 0
      - time: 0.033333335
        value: 0
        inSlope: 0
        outSlope: 0
        tangentMode: 0
      - time: 0.050000004
        value: 0
        inSlope: 0
        outSlope: 0
        tangentMode: 0
      - time: 0.06666667
        value: 0
        inSlope: 0
        outSlope: 0
        tangentMode: 0
      - time: 0.083333336
        value: 0
        inSlope: 0
        outSlope: 0
        tangentMode: 0
      - time: 0.1
        value: 0
        inSlope: 0
        outSlope: 0
        tangentMode: 0
      - time: 0.11666667
        value: 0
        inSlope: 0
        outSlope: 0
        tangentMode: 0
      - time: 0.13333334
        value: 0
        inSlope: 0
        outSlope: 0
        tangentMode: 0
      - time: 0.15
        value: 0
        inSlope: 0
        outSlope: 0
        tangentMode: 0
      - time: 0.16666667
        value: 0
        inSlope: 0
        outSlope: 0
        tangentMode: 0
      - time: 0.18333334
        value: 0
        inSlope: 0
        outSlope: 0
        tangentMode: 0
      - time: 0.2
        value: 0
        inSlope: 0
        outSlope: 0
        tangentMode: 0
      - time: 0.21666667
        value: 0
        inSlope: 0
        outSlope: 0
        tangentMode: 0
      - time: 0.23333333
        value: 0
        inSlope: 0
        outSlope: 0
        tangentMode: 0
      - time: 0.25
        value: 0
        inSlope: 0
        outSlope: 0
        tangentMode: 0
      m_PreInfinity: 2
      m_PostInfinity: 2
      m_RotationOrder: 4
    attribute: m_LocalRotation.y
    path: Kopf_CTRL_GRP/Kopf_CTRL
    classID: 4
    script: {fileID: 0}
  - curve:
      serializedVersion: 2
      m_Curve:
      - time: 0
        value: 0.13072859
        inSlope: -0.14323442
        outSlope: -0.14323442
        tangentMode: 0
      - time: 0.016666668
        value: 0.12834135
        inSlope: -0.15399455
        outSlope: -0.15399455
        tangentMode: 0
      - time: 0.033333335
        value: 0.12559544
        inSlope: -0.16907972
        outSlope: -0.16907972
        tangentMode: 0
      - time: 0.050000004
        value: 0.122705355
        inSlope: -0.17128697
        outSlope: -0.17128697
        tangentMode: 0
      - time: 0.06666667
        value: 0.11988587
        inSlope: -0.16059929
        outSlope: -0.16059929
        tangentMode: 0
      - time: 0.083333336
        value: 0.117352046
        inSlope: -0.13700055
        outSlope: -0.13700055
        tangentMode: 0
      - time: 0.1
        value: 0.115319185
        inSlope: -0.1004807
        outSlope: -0.1004807
        tangentMode: 0
      - time: 0.11666667
        value: 0.11400269
        inSlope: -0.05103618
        outSlope: -0.05103618
        tangentMode: 0
      - time: 0.13333334
        value: 0.11361798
        inSlope: 0.011303953
        outSlope: 0.011303953
        tangentMode: 0
      - time: 0.15
        value: 0.11437949
        inSlope: 0.07657931
        outSlope: 0.07657931
        tangentMode: 0
      - time: 0.16666667
        value: 0.11617062
        inSlope: 0.12991616
        outSlope: 0.12991616
        tangentMode: 0
      - time: 0.18333334
        value: 0.118710026
        inSlope: 0.1663723
        outSlope: 0.1663723
        tangentMode: 0
      - time: 0.2
        value: 0.121716365
        inSlope: 0.18595712
        outSlope: 0.18595712
        tangentMode: 0
      - time: 0.21666667
        value: 0.1249086
        inSlope: 0.18869163
        outSlope: 0.18869163
        tangentMode: 0
      - time: 0.23333333
        value: 0.12800609
        inSlope: 0.17459975
        outSlope: 0.17459975
        tangentMode: 0
      - time: 0.25
        value: 0.13072859
        inSlope: 0.16335012
        outSlope: 0.16335012
        tangentMode: 0
      m_PreInfinity: 2
      m_PostInfinity: 2
      m_RotationOrder: 4
    attribute: m_LocalRotation.z
    path: Kopf_CTRL_GRP/Kopf_CTRL
    classID: 4
    script: {fileID: 0}
  - curve:
      serializedVersion: 2
      m_Curve:
      - time: 0
        value: 0.9914182
        inSlope: 0.018711088
        outSlope: 0.018711088
        tangentMode: 0
      - time: 0.016666668
        value: 0.99173003
        inSlope: 0.0199002
        outSlope: 0.0199002
        tangentMode: 0
      - time: 0.033333335
        value: 0.9920815
        inSlope: 0.021393295
        outSlope: 0.021393295
        tangentMode: 0
      - time: 0.050000004
        value: 0.99244314
        inSlope: 0.021184087
        outSlope: 0.021184087
        tangentMode: 0
      - time: 0.06666667
        value: 0.99278766
        inSlope: 0.019417407
        outSlope: 0.019417407
        tangentMode: 0
      - time: 0.083333336
        value: 0.9930904
        inSlope: 0.016225578
        outSlope: 0.016225578
        tangentMode: 0
      - time: 0.1
        value: 0.9933285
        inSlope: 0.011701585
        outSlope: 0.011701585
        tangentMode: 0
      - time: 0.11666667
        value: 0.99348044
        inSlope: 0.005879402
        outSlope: 0.005879402
        tangentMode: 0
      - time: 0.13333334
        value: 0.9935245
        inSlope: -0.001299978
        outSlope: -0.001299978
        tangentMode: 0
      - time: 0.15
        value: 0.9934371
        inSlope: -0.008856655
        outSlope: -0.008856655
        tangentMode: 0
      - time: 0.16666667
        value: 0.99322927
        inSlope: -0.01524389
        outSlope: -0.01524389
        tangentMode: 0
      - time: 0.18333334
        value: 0.992929
        inSlope: -0.019930603
        outSlope: -0.019930603
        tangentMode: 0
      - time: 0.2
        value: 0.9925649
        inSlope: -0.022822024
        outSlope: -0.022822024
        tangentMode: 0
      - time: 0.21666667
        value: 0.99216825
        inSlope: -0.023746492
        outSlope: -0.023746492
        tangentMode: 0
      - time: 0.23333333
        value: 0.99177337
        inSlope: -0.022501947
        outSlope: -0.022501947
        tangentMode: 0
      - time: 0.25
        value: 0.9914182
        inSlope: -0.021311047
        outSlope: -0.021311047
        tangentMode: 0
      m_PreInfinity: 2
      m_PostInfinity: 2
      m_RotationOrder: 4
    attribute: m_LocalRotation.w
    path: Kopf_CTRL_GRP/Kopf_CTRL
    classID: 4
    script: {fileID: 0}
  - curve:
      serializedVersion: 2
      m_Curve:
      - time: 0
        value: -0.008499358
        inSlope: 0
        outSlope: 0
        tangentMode: 0
      - time: 0.016666668
        value: -0.008499358
        inSlope: 0
        outSlope: 0
        tangentMode: 0
      - time: 0.033333335
        value: -0.008499358
        inSlope: 0
        outSlope: 0
        tangentMode: 0
      - time: 0.050000004
        value: -0.008499358
        inSlope: 0
        outSlope: 0
        tangentMode: 0
      - time: 0.06666667
        value: -0.008499358
        inSlope: 0
        outSlope: 0
        tangentMode: 0
      - time: 0.083333336
        value: -0.008499358
        inSlope: 0
        outSlope: 0
        tangentMode: 0
      - time: 0.1
        value: -0.008499358
        inSlope: 0
        outSlope: 0
        tangentMode: 0
      - time: 0.11666667
        value: -0.008499358
        inSlope: 0
        outSlope: 0
        tangentMode: 0
      - time: 0.13333334
        value: -0.008499358
        inSlope: 0
        outSlope: 0
        tangentMode: 0
      - time: 0.15
        value: -0.008499358
        inSlope: 0
        outSlope: 0
        tangentMode: 0
      - time: 0.16666667
        value: -0.008499358
        inSlope: 0
        outSlope: 0
        tangentMode: 0
      - time: 0.18333334
        value: -0.008499358
        inSlope: 0
        outSlope: 0
        tangentMode: 0
      - time: 0.2
        value: -0.008499358
        inSlope: 0
        outSlope: 0
        tangentMode: 0
      - time: 0.21666667
        value: -0.008499358
        inSlope: 0
        outSlope: 0
        tangentMode: 0
      - time: 0.23333333
        value: -0.008499358
        inSlope: 0
        outSlope: 0
        tangentMode: 0
      - time: 0.25
        value: -0.008499358
        inSlope: 0
        outSlope: 0
        tangentMode: 0
      m_PreInfinity: 2
      m_PostInfinity: 2
      m_RotationOrder: 4
    attribute: m_LocalRotation.x
    path: SchniedelA_CTRL_GRP/SchniedelA_CTRL
    classID: 4
    script: {fileID: 0}
  - curve:
      serializedVersion: 2
      m_Curve:
      - time: 0
        value: -0.00045217786
        inSlope: 0
        outSlope: 0
        tangentMode: 0
      - time: 0.016666668
        value: -0.00045217786
        inSlope: 0
        outSlope: 0
        tangentMode: 0
      - time: 0.033333335
        value: -0.00045217786
        inSlope: 0
        outSlope: 0
        tangentMode: 0
      - time: 0.050000004
        value: -0.00045217786
        inSlope: 0
        outSlope: 0
        tangentMode: 0
      - time: 0.06666667
        value: -0.00045217786
        inSlope: 0
        outSlope: 0
        tangentMode: 0
      - time: 0.083333336
        value: -0.00045217786
        inSlope: 0
        outSlope: 0
        tangentMode: 0
      - time: 0.1
        value: -0.00045217786
        inSlope: 0
        outSlope: 0
        tangentMode: 0
      - time: 0.11666667
        value: -0.00045217786
        inSlope: 0
        outSlope: 0
        tangentMode: 0
      - time: 0.13333334
        value: -0.00045217786
        inSlope: 0
        outSlope: 0
        tangentMode: 0
      - time: 0.15
        value: -0.00045217786
        inSlope: 0
        outSlope: 0
        tangentMode: 0
      - time: 0.16666667
        value: -0.00045217786
        inSlope: 0
        outSlope: 0
        tangentMode: 0
      - time: 0.18333334
        value: -0.00045217786
        inSlope: 0
        outSlope: 0
        tangentMode: 0
      - time: 0.2
        value: -0.00045217786
        inSlope: 0
        outSlope: 0
        tangentMode: 0
      - time: 0.21666667
        value: -0.00045217786
        inSlope: 0
        outSlope: 0
        tangentMode: 0
      - time: 0.23333333
        value: -0.00045217786
        inSlope: 0
        outSlope: 0
        tangentMode: 0
      - time: 0.25
        value: -0.00045217786
        inSlope: 0
        outSlope: 0
        tangentMode: 0
      m_PreInfinity: 2
      m_PostInfinity: 2
      m_RotationOrder: 4
    attribute: m_LocalRotation.y
    path: SchniedelA_CTRL_GRP/SchniedelA_CTRL
    classID: 4
    script: {fileID: 0}
  - curve:
      serializedVersion: 2
      m_Curve:
      - time: 0
        value: 0.047315333
        inSlope: 0
        outSlope: 0
        tangentMode: 0
      - time: 0.016666668
        value: 0.047315333
        inSlope: 0
        outSlope: 0
        tangentMode: 0
      - time: 0.033333335
        value: 0.047315333
        inSlope: 0
        outSlope: 0
        tangentMode: 0
      - time: 0.050000004
        value: 0.047315333
        inSlope: 0
        outSlope: 0
        tangentMode: 0
      - time: 0.06666667
        value: 0.047315333
        inSlope: 0
        outSlope: 0
        tangentMode: 0
      - time: 0.083333336
        value: 0.047315333
        inSlope: 0
        outSlope: 0
        tangentMode: 0
      - time: 0.1
        value: 0.047315333
        inSlope: 0
        outSlope: 0
        tangentMode: 0
      - time: 0.11666667
        value: 0.047315333
        inSlope: 0
        outSlope: 0
        tangentMode: 0
      - time: 0.13333334
        value: 0.047315333
        inSlope: 0
        outSlope: 0
        tangentMode: 0
      - time: 0.15
        value: 0.047315333
        inSlope: 0
        outSlope: 0
        tangentMode: 0
      - time: 0.16666667
        value: 0.047315333
        inSlope: 0
        outSlope: 0
        tangentMode: 0
      - time: 0.18333334
        value: 0.047315333
        inSlope: 0
        outSlope: 0
        tangentMode: 0
      - time: 0.2
        value: 0.047315333
        inSlope: 0
        outSlope: 0
        tangentMode: 0
      - time: 0.21666667
        value: 0.047315333
        inSlope: 0
        outSlope: 0
        tangentMode: 0
      - time: 0.23333333
        value: 0.047315333
        inSlope: 0
        outSlope: 0
        tangentMode: 0
      - time: 0.25
        value: 0.047315333
        inSlope: 0
        outSlope: 0
        tangentMode: 0
      m_PreInfinity: 2
      m_PostInfinity: 2
      m_RotationOrder: 4
    attribute: m_LocalRotation.z
    path: SchniedelA_CTRL_GRP/SchniedelA_CTRL
    classID: 4
    script: {fileID: 0}
  - curve:
      serializedVersion: 2
      m_Curve:
      - time: 0
        value: 0.9988437
        inSlope: 0
        outSlope: 0
        tangentMode: 0
      - time: 0.016666668
        value: 0.9988437
        inSlope: 0
        outSlope: 0
        tangentMode: 0
      - time: 0.033333335
        value: 0.9988437
        inSlope: 0
        outSlope: 0
        tangentMode: 0
      - time: 0.050000004
        value: 0.9988437
        inSlope: 0
        outSlope: 0
        tangentMode: 0
      - time: 0.06666667
        value: 0.9988437
        inSlope: 0
        outSlope: 0
        tangentMode: 0
      - time: 0.083333336
        value: 0.9988437
        inSlope: 0
        outSlope: 0
        tangentMode: 0
      - time: 0.1
        value: 0.9988437
        inSlope: 0
        outSlope: 0
        tangentMode: 0
      - time: 0.11666667
        value: 0.9988437
        inSlope: 0
        outSlope: 0
        tangentMode: 0
      - time: 0.13333334
        value: 0.9988437
        inSlope: 0
        outSlope: 0
        tangentMode: 0
      - time: 0.15
        value: 0.9988437
        inSlope: 0
        outSlope: 0
        tangentMode: 0
      - time: 0.16666667
        value: 0.9988437
        inSlope: 0
        outSlope: 0
        tangentMode: 0
      - time: 0.18333334
        value: 0.9988437
        inSlope: 0
        outSlope: 0
        tangentMode: 0
      - time: 0.2
        value: 0.9988437
        inSlope: 0
        outSlope: 0
        tangentMode: 0
      - time: 0.21666667
        value: 0.9988437
        inSlope: 0
        outSlope: 0
        tangentMode: 0
      - time: 0.23333333
        value: 0.9988437
        inSlope: 0
        outSlope: 0
        tangentMode: 0
      - time: 0.25
        value: 0.9988437
        inSlope: 0
        outSlope: 0
        tangentMode: 0
      m_PreInfinity: 2
      m_PostInfinity: 2
      m_RotationOrder: 4
    attribute: m_LocalRotation.w
    path: SchniedelA_CTRL_GRP/SchniedelA_CTRL
    classID: 4
    script: {fileID: 0}
  m_EulerEditorCurves:
  - curve:
      serializedVersion: 2
      m_Curve:
      - time: 0
        value: 15.023392
        inSlope: -14.816665
        outSlope: -14.816665
        tangentMode: 10
      - time: 0.13333334
        value: 13.047836
        inSlope: 1.0583339
        outSlope: 1.0583339
        tangentMode: 10
      - time: 0.25
        value: 15.023392
        inSlope: 16.933332
        outSlope: 16.933332
        tangentMode: 10
      m_PreInfinity: 2
      m_PostInfinity: 2
      m_RotationOrder: 4
    attribute: localEulerAnglesBaked.z
    path: Kopf_CTRL_GRP/Kopf_CTRL
    classID: 4
    script: {fileID: 0}
  - curve:
      serializedVersion: 2
      m_Curve:
      - time: 0
        value: 0
        inSlope: 0
        outSlope: 0
        tangentMode: 10
      - time: 0.13333334
        value: 0
        inSlope: 0
        outSlope: 0
        tangentMode: 10
      - time: 0.25
        value: 0
        inSlope: 0
        outSlope: 0
        tangentMode: 10
      m_PreInfinity: 2
      m_PostInfinity: 2
      m_RotationOrder: 4
    attribute: localEulerAnglesBaked.y
    path: Kopf_CTRL_GRP/Kopf_CTRL
    classID: 4
    script: {fileID: 0}
  - curve:
      serializedVersion: 2
      m_Curve:
      - time: 0
        value: 0
        inSlope: 0
        outSlope: 0
        tangentMode: 10
      - time: 0.13333334
        value: 0
        inSlope: 0
        outSlope: 0
        tangentMode: 10
      - time: 0.25
        value: 0
        inSlope: 0
        outSlope: 0
        tangentMode: 10
      m_PreInfinity: 2
      m_PostInfinity: 2
      m_RotationOrder: 4
    attribute: localEulerAnglesBaked.x
    path: Kopf_CTRL_GRP/Kopf_CTRL
    classID: 4
    script: {fileID: 0}
  - curve:
      serializedVersion: 2
      m_Curve:
      - time: 0
        value: 359.02954
        inSlope: 0
        outSlope: 0
        tangentMode: 10
      - time: 0.25
        value: 359.02954
        inSlope: 0
        outSlope: 0
        tangentMode: 10
      m_PreInfinity: 2
      m_PostInfinity: 2
      m_RotationOrder: 4
    attribute: localEulerAnglesBaked.x
    path: SchniedelA_CTRL_GRP/SchniedelA_CTRL
    classID: 4
    script: {fileID: 0}
  - curve:
      serializedVersion: 2
      m_Curve:
      - time: 0
        value: 359.9021
        inSlope: 0
        outSlope: 0
        tangentMode: 10
      - time: 0.25
        value: 359.9021
        inSlope: 0
        outSlope: 0
        tangentMode: 10
      m_PreInfinity: 2
      m_PostInfinity: 2
      m_RotationOrder: 4
    attribute: localEulerAnglesBaked.y
    path: SchniedelA_CTRL_GRP/SchniedelA_CTRL
    classID: 4
    script: {fileID: 0}
  - curve:
      serializedVersion: 2
      m_Curve:
      - time: 0
        value: 5.424988
        inSlope: 0
        outSlope: 0
        tangentMode: 10
      - time: 0.25
        value: 5.424988
        inSlope: 0
        outSlope: 0
        tangentMode: 10
      m_PreInfinity: 2
      m_PostInfinity: 2
      m_RotationOrder: 4
    attribute: localEulerAnglesBaked.z
    path: SchniedelA_CTRL_GRP/SchniedelA_CTRL
    classID: 4
    script: {fileID: 0}
  - curve:
      serializedVersion: 2
      m_Curve: []
      m_PreInfinity: 2
      m_PostInfinity: 2
      m_RotationOrder: 4
    attribute: m_LocalEulerAngles.x
    path: Brust_CTRL_GRP/Brust_CTRL
    classID: 4
    script: {fileID: 0}
  - curve:
      serializedVersion: 2
      m_Curve: []
      m_PreInfinity: 2
      m_PostInfinity: 2
      m_RotationOrder: 4
    attribute: m_LocalEulerAngles.y
    path: Brust_CTRL_GRP/Brust_CTRL
    classID: 4
    script: {fileID: 0}
  - curve:
      serializedVersion: 2
      m_Curve: []
      m_PreInfinity: 2
      m_PostInfinity: 2
      m_RotationOrder: 4
    attribute: m_LocalEulerAngles.z
    path: Brust_CTRL_GRP/Brust_CTRL
    classID: 4
    script: {fileID: 0}
  m_HasGenericRootTransform: 0
  m_HasMotionFloatCurves: 0
  m_GenerateMotionCurves: 0
  m_Events: []
