%YAML 1.1
%TAG !u! tag:unity3d.com,2011:
--- !u!74 &7400000
AnimationClip:
  m_ObjectHideFlags: 0
  m_PrefabParentObject: {fileID: 0}
  m_PrefabInternal: {fileID: 0}
  m_Name: Slothgirl_StompenMitte
  serializedVersion: 6
  m_Legacy: 0
  m_Compressed: 0
  m_UseHighQualityCurve: 1
  m_RotationCurves:
  - curve:
      serializedVersion: 2
      m_Curve:
      - time: 0
        value: {x: 0.015488906, y: -0.004794406, z: 0.91365993, w: 0.40615597}
        inSlope: {x: 0, y: 0, z: 0, w: 0}
        outSlope: {x: 0.000011175871, y: -0.0000027939677, z: 0, w: 0}
        tangentMode: 0
      - time: 0.16666667
        value: {x: 0.015488906, y: -0.004794406, z: 0.91365993, w: 0.40615597}
        inSlope: {x: 0, y: -0.0000027939677, z: 0, w: 0}
        outSlope: {x: 0.000011175871, y: -0.0000027939677, z: 0, w: 0}
        tangentMode: 0
      - time: 0.33333334
        value: {x: 0.015488906, y: -0.004794406, z: 0.91365993, w: 0.40615597}
        inSlope: {x: 0, y: -0.0000027939677, z: 0, w: 0}
        outSlope: {x: 0, y: 0, z: 0, w: 0}
        tangentMode: 0
      m_PreInfinity: 2
      m_PostInfinity: 2
      m_RotationOrder: 4
    path: FussR_CTRL
  - curve:
      serializedVersion: 2
      m_Curve:
      - time: 0
        value: {x: 0, y: 0, z: 0.59389335, w: -0.8045438}
        inSlope: {x: 0, y: 0, z: 0, w: 0}
        outSlope: {x: 0, y: 0, z: 0, w: 0}
        tangentMode: 0
      - time: 0.16666667
        value: {x: 0, y: 0, z: 0.59389335, w: -0.8045438}
        inSlope: {x: 0, y: 0, z: 0, w: 0}
        outSlope: {x: 0, y: 0, z: 0, w: 0}
        tangentMode: 0
      - time: 0.33333334
        value: {x: 0, y: 0, z: 0.59389335, w: -0.8045438}
        inSlope: {x: 0, y: 0, z: 0, w: 0}
        outSlope: {x: 0, y: 0, z: 0, w: 0}
        tangentMode: 0
      m_PreInfinity: 2
      m_PostInfinity: 2
      m_RotationOrder: 4
    path: FussL_CTRL_GRP/FussL_CTRL
  m_CompressedRotationCurves: []
  m_EulerCurves:
  - curve:
      serializedVersion: 2
      m_Curve:
      - time: 0
        value: {x: 0, y: 0, z: 4.7948}
        inSlope: {x: 0, y: 0, z: 0}
        outSlope: {x: 0, y: 0, z: 0}
        tangentMode: 0
      m_PreInfinity: 2
      m_PostInfinity: 2
      m_RotationOrder: 4
    path: Huefte/Brust/Kopf/Sloth
  m_PositionCurves:
  - curve:
      serializedVersion: 2
      m_Curve:
      - time: 0
        value: {x: -22.3, y: 34.7, z: 0.12}
        inSlope: {x: -33, y: 49.200005, z: 0.48000002}
        outSlope: {x: -33, y: 49.200005, z: 0.48000002}
        tangentMode: 0
      - time: 0.16666667
        value: {x: -27.8, y: 42.9, z: 0.2}
        inSlope: {x: -20.100002, y: 17.699993, z: 0.24000001}
        outSlope: {x: -20.100002, y: 17.699993, z: 0.24000001}
        tangentMode: 0
      - time: 0.33333334
        value: {x: -29, y: 40.6, z: 0.2}
        inSlope: {x: -7.2000046, y: -13.800018, z: 0}
        outSlope: {x: -7.2000046, y: -13.800018, z: 0}
        tangentMode: 0
      m_PreInfinity: 2
      m_PostInfinity: 2
      m_RotationOrder: 4
    path: FussR_CTRL
  - curve:
      serializedVersion: 2
      m_Curve:
      - time: 0
        value: {x: 43.67, y: -35.89, z: 0}
        inSlope: {x: 1.980011, y: 3.540001, z: 0}
        outSlope: {x: 1.980011, y: 3.540001, z: 0}
        tangentMode: 0
      - time: 0.16666667
        value: {x: 44, y: -35.3, z: 0}
        inSlope: {x: -4.7999954, y: 11.699999, z: 0}
        outSlope: {x: -4.7999954, y: 11.699999, z: 0}
        tangentMode: 0
      - time: 0.33333334
        value: {x: 42.07, y: -31.99, z: 0}
        inSlope: {x: -11.580002, y: 19.859997, z: 0}
        outSlope: {x: -11.580002, y: 19.859997, z: 0}
        tangentMode: 0
      m_PreInfinity: 2
      m_PostInfinity: 2
      m_RotationOrder: 4
    path: FussL_CTRL_GRP/FussL_CTRL
  - curve:
      serializedVersion: 2
      m_Curve:
      - time: 0
        value: {x: -13.3, y: 38.6, z: 0}
        inSlope: {x: -0.59999657, y: -5.3999863, z: -0}
        outSlope: {x: -0.59999657, y: -5.3999863, z: -0}
        tangentMode: 0
      - time: 0.16666667
        value: {x: -13.4, y: 37.7, z: -0}
        inSlope: {x: 0, y: 0, z: 0}
        outSlope: {x: 0, y: 0, z: 0}
        tangentMode: 0
      - time: 0.33333334
        value: {x: -13.3, y: 38.6, z: 0}
        inSlope: {x: 0.59999657, y: 5.3999863, z: 0}
        outSlope: {x: 0.59999657, y: 5.3999863, z: 0}
        tangentMode: 0
      m_PreInfinity: 2
      m_PostInfinity: 2
      m_RotationOrder: 4
    path: HandL_CTRL_GRP/HandL_CTRL
  - curve:
      serializedVersion: 2
      m_Curve:
      - time: 0
        value: {x: 7.2, y: 10.7, z: -0}
        inSlope: {x: 5.4000034, y: -1.1999989, z: 0}
        outSlope: {x: 5.4000034, y: -1.1999989, z: 0}
        tangentMode: 0
      - time: 0.16666667
        value: {x: 8.1, y: 10.5, z: -0}
        inSlope: {x: 0, y: 0, z: 0}
        outSlope: {x: 0, y: 0, z: 0}
        tangentMode: 0
      - time: 0.33333334
        value: {x: 7.2, y: 10.7, z: -0}
        inSlope: {x: -5.4000034, y: 1.1999989, z: 0}
        outSlope: {x: -5.4000034, y: 1.1999989, z: 0}
        tangentMode: 0
      m_PreInfinity: 2
      m_PostInfinity: 2
      m_RotationOrder: 4
    path: HandR_CTRL_GRP/HandR_CTRL
  - curve:
      serializedVersion: 2
      m_Curve:
      - time: 0
        value: {x: -27.26, y: 11.29, z: 0}
        inSlope: {x: 0, y: 0, z: 0}
        outSlope: {x: 0, y: 0, z: 0}
        tangentMode: 0
      - time: 0.33333334
        value: {x: -27.26, y: 11.29, z: 0}
        inSlope: {x: 0, y: 0, z: 0}
        outSlope: {x: 0, y: 0, z: 0}
        tangentMode: 0
      m_PreInfinity: 2
      m_PostInfinity: 2
      m_RotationOrder: 4
    path: FFD_Ctrls_GRP_4/SlothGirl_Body_Ctrl_GRP_10/SlothGirl_Body_Ctrl_10
  - curve:
      serializedVersion: 2
      m_Curve:
      - time: 0
        value: {x: -25.93, y: 15.09, z: 0}
        inSlope: {x: 0, y: 0, z: 0}
        outSlope: {x: 0, y: 0, z: 0}
        tangentMode: 0
      - time: 0.33333334
        value: {x: -25.93, y: 15.09, z: 0}
        inSlope: {x: 0, y: 0, z: 0}
        outSlope: {x: 0, y: 0, z: 0}
        tangentMode: 0
      m_PreInfinity: 2
      m_PostInfinity: 2
      m_RotationOrder: 4
    path: FFD_Ctrls_GRP_4/SlothGirl_Body_Ctrl_GRP_11/SlothGirl_Body_Ctrl_11
  - curve:
      serializedVersion: 2
      m_Curve:
      - time: 0
        value: {x: -25.03, y: 23.95, z: 0}
        inSlope: {x: 0, y: 0, z: 0}
        outSlope: {x: 0, y: 0, z: 0}
        tangentMode: 0
      - time: 0.33333334
        value: {x: -25.03, y: 23.95, z: 0}
        inSlope: {x: 0, y: 0, z: 0}
        outSlope: {x: 0, y: 0, z: 0}
        tangentMode: 0
      m_PreInfinity: 2
      m_PostInfinity: 2
      m_RotationOrder: 4
    path: FFD_Ctrls_GRP_4/SlothGirl_Body_Ctrl_GRP_12/SlothGirl_Body_Ctrl_12
  - curve:
      serializedVersion: 2
      m_Curve:
      - time: 0
        value: {x: -24.7, y: 31.2, z: 0}
        inSlope: {x: -8.279995, y: 27.120003, z: 0}
        outSlope: {x: -8.279995, y: 27.120003, z: 0}
        tangentMode: 0
      - time: 0.16666667
        value: {x: -26.08, y: 35.72, z: 0}
        inSlope: {x: 0, y: 0, z: 0}
        outSlope: {x: 0, y: 0, z: 0}
        tangentMode: 0
      - time: 0.33333334
        value: {x: -24.7, y: 31.2, z: 0}
        inSlope: {x: 8.279995, y: -27.120003, z: 0}
        outSlope: {x: 8.279995, y: -27.120003, z: 0}
        tangentMode: 0
      m_PreInfinity: 2
      m_PostInfinity: 2
      m_RotationOrder: 4
    path: FFD_Ctrls_GRP_4/SlothGirl_Body_Ctrl_GRP_13/SlothGirl_Body_Ctrl_13
  - curve:
      serializedVersion: 2
      m_Curve:
      - time: 0
        value: {x: -14.51, y: 26.32, z: 0}
        inSlope: {x: -0.8999977, y: 16.620003, z: 0}
        outSlope: {x: -0.8999977, y: 16.620003, z: 0}
        tangentMode: 0
      - time: 0.16666667
        value: {x: -14.66, y: 29.09, z: 0}
        inSlope: {x: 0, y: 0, z: 0}
        outSlope: {x: 0, y: 0, z: 0}
        tangentMode: 0
      - time: 0.33333334
        value: {x: -14.51, y: 26.32, z: 0}
        inSlope: {x: 0.8999977, y: -16.620003, z: 0}
        outSlope: {x: 0.8999977, y: -16.620003, z: 0}
        tangentMode: 0
      m_PreInfinity: 2
      m_PostInfinity: 2
      m_RotationOrder: 4
    path: FFD_Ctrls_GRP_4/SlothGirl_Body_Ctrl_GRP_14/SlothGirl_Body_Ctrl_14
  - curve:
      serializedVersion: 2
      m_Curve:
      - time: 0
        value: {x: -8.68, y: 17.09, z: 0}
        inSlope: {x: 0, y: 0, z: 0}
        outSlope: {x: 0, y: 0, z: 0}
        tangentMode: 0
      - time: 0.33333334
        value: {x: -8.68, y: 17.09, z: 0}
        inSlope: {x: 0, y: 0, z: 0}
        outSlope: {x: 0, y: 0, z: 0}
        tangentMode: 0
      m_PreInfinity: 2
      m_PostInfinity: 2
      m_RotationOrder: 4
    path: FFD_Ctrls_GRP_4/SlothGirl_Body_Ctrl_GRP_15/SlothGirl_Body_Ctrl_15
  - curve:
      serializedVersion: 2
      m_Curve:
      - time: 0
        value: {x: -1.47, y: 6.76, z: 0}
        inSlope: {x: 0, y: 0, z: 0}
        outSlope: {x: 0, y: 0, z: 0}
        tangentMode: 0
      - time: 0.33333334
        value: {x: -1.47, y: 6.76, z: 0}
        inSlope: {x: 0, y: 0, z: 0}
        outSlope: {x: 0, y: 0, z: 0}
        tangentMode: 0
      m_PreInfinity: 2
      m_PostInfinity: 2
      m_RotationOrder: 4
    path: FFD_Ctrls_GRP_4/SlothGirl_Body_Ctrl_GRP_16/SlothGirl_Body_Ctrl_16
  - curve:
      serializedVersion: 2
      m_Curve:
      - time: 0
        value: {x: 1.4, y: -5.2, z: 0}
        inSlope: {x: 0, y: 0, z: 0}
        outSlope: {x: 0, y: 0, z: 0}
        tangentMode: 0
      - time: 0.33333334
        value: {x: 1.4, y: -5.2, z: 0}
        inSlope: {x: 0, y: 0, z: 0}
        outSlope: {x: 0, y: 0, z: 0}
        tangentMode: 0
      m_PreInfinity: 2
      m_PostInfinity: 2
      m_RotationOrder: 4
    path: FFD_Ctrls_GRP_4/SlothGirl_Body_Ctrl_GRP_7/SlothGirl_Body_Ctrl_7
  - curve:
      serializedVersion: 2
      m_Curve:
      - time: 0
        value: {x: -15.6, y: 0.8, z: 0}
        inSlope: {x: 0, y: 0, z: 0}
        outSlope: {x: 0, y: 0, z: 0}
        tangentMode: 0
      - time: 0.33333334
        value: {x: -15.6, y: 0.8, z: 0}
        inSlope: {x: 0, y: 0, z: 0}
        outSlope: {x: 0, y: 0, z: 0}
        tangentMode: 0
      m_PreInfinity: 2
      m_PostInfinity: 2
      m_RotationOrder: 4
    path: FFD_Ctrls_GRP_4/SlothGirl_Body_Ctrl_GRP_8/SlothGirl_Body_Ctrl_8
  - curve:
      serializedVersion: 2
      m_Curve:
      - time: 0
        value: {x: -24.5, y: 9.6, z: 0}
        inSlope: {x: 0, y: 0, z: 0}
        outSlope: {x: 0, y: 0, z: 0}
        tangentMode: 0
      - time: 0.33333334
        value: {x: -24.5, y: 9.6, z: 0}
        inSlope: {x: 0, y: 0, z: 0}
        outSlope: {x: 0, y: 0, z: 0}
        tangentMode: 0
      m_PreInfinity: 2
      m_PostInfinity: 2
      m_RotationOrder: 4
    path: FFD_Ctrls_GRP_4/SlothGirl_Body_Ctrl_GRP_9/SlothGirl_Body_Ctrl_9
  - curve:
      serializedVersion: 2
      m_Curve:
      - time: 0
        value: {x: -18.168741, y: 14.831744, z: -0}
        inSlope: {x: -7.5470705, y: 0, z: 0}
        outSlope: {x: -7.5470705, y: 0, z: 0}
        tangentMode: 0
      m_PreInfinity: 2
      m_PostInfinity: 2
      m_RotationOrder: 4
    path: Huefte/Brust/Kopf/Sloth
  - curve:
      serializedVersion: 2
      m_Curve:
      - time: 0
        value: {x: 1.8314438, y: 23.233942, z: -0}
        inSlope: {x: -18, y: -4.7999954, z: 0}
        outSlope: {x: -18, y: -4.7999954, z: 0}
        tangentMode: 0
      - time: 0.083333336
        value: {x: 0.3314438, y: 22.833942, z: 0}
        inSlope: {x: -3, y: 23.399998, z: 0}
        outSlope: {x: -3, y: 23.399998, z: 0}
        tangentMode: 0
      - time: 0.16666667
        value: {x: 1.3314438, y: 27.133942, z: 0}
        inSlope: {x: 7.5, y: 14.099997, z: 0}
        outSlope: {x: 7.5, y: 14.099997, z: 0}
        tangentMode: 0
      - time: 0.33333334
        value: {x: 1.8314438, y: 23.233942, z: -0}
        inSlope: {x: 3, y: -23.399998, z: -0}
        outSlope: {x: 3, y: -23.399998, z: -0}
        tangentMode: 0
      m_PreInfinity: 2
      m_PostInfinity: 2
      m_RotationOrder: 4
    path: Huefte/Brust/Kopf/Sloth/SlothHandL_CTRL_GRP/SlothHandL_CTRL
  - curve:
      serializedVersion: 2
      m_Curve:
      - time: 0
        value: {x: 11, y: 12, z: 0}
        inSlope: {x: 58.799995, y: 25.200005, z: -0}
        outSlope: {x: 58.799995, y: 25.200005, z: -0}
        tangentMode: 0
      - time: 0.083333336
        value: {x: 15.9, y: 14.1, z: -0}
        inSlope: {x: 30.600002, y: 55.799995, z: 0}
        outSlope: {x: 30.600002, y: 55.799995, z: 0}
        tangentMode: 0
      - time: 0.16666667
        value: {x: 16.1, y: 21.3, z: -0}
        inSlope: {x: -14.099997, y: 15.299995, z: 0}
        outSlope: {x: -14.099997, y: 15.299995, z: 0}
        tangentMode: 0
      - time: 0.33333334
        value: {x: 11, y: 12, z: 0}
        inSlope: {x: -30.600002, y: -55.799995, z: 0}
        outSlope: {x: -30.600002, y: -55.799995, z: 0}
        tangentMode: 0
      m_PreInfinity: 2
      m_PostInfinity: 2
      m_RotationOrder: 4
    path: Huefte/Brust/Kopf/Sloth/SlothHandR_CTRL_GRP/SlothHandR_CTRL
  m_ScaleCurves: []
  m_FloatCurves: []
  m_PPtrCurves: []
  m_SampleRate: 60
  m_WrapMode: 0
  m_Bounds:
    m_Center: {x: 0, y: 0, z: 0}
    m_Extent: {x: 0, y: 0, z: 0}
  m_ClipBindingConstant:
    genericBindings:
    - path: 3685971962
      attribute: 1
      script: {fileID: 0}
      classID: 4
      customType: 0
      isPPtrCurve: 0
    - path: 1731249141
      attribute: 1
      script: {fileID: 0}
      classID: 4
      customType: 0
      isPPtrCurve: 0
    - path: 3395650270
      attribute: 1
      script: {fileID: 0}
      classID: 4
      customType: 0
      isPPtrCurve: 0
    - path: 1804795753
      attribute: 1
      script: {fileID: 0}
      classID: 4
      customType: 0
      isPPtrCurve: 0
    - path: 3346385347
      attribute: 1
      script: {fileID: 0}
      classID: 4
      customType: 0
      isPPtrCurve: 0
    - path: 1745447703
      attribute: 1
      script: {fileID: 0}
      classID: 4
      customType: 0
      isPPtrCurve: 0
    - path: 2793900456
      attribute: 1
      script: {fileID: 0}
      classID: 4
      customType: 0
      isPPtrCurve: 0
    - path: 1804590954
      attribute: 1
      script: {fileID: 0}
      classID: 4
      customType: 0
      isPPtrCurve: 0
    - path: 2465601524
      attribute: 1
      script: {fileID: 0}
      classID: 4
      customType: 0
      isPPtrCurve: 0
    - path: 3685971962
      attribute: 2
      script: {fileID: 0}
      classID: 4
      customType: 0
      isPPtrCurve: 0
    - path: 107098449
      attribute: 1
      script: {fileID: 0}
      classID: 4
      customType: 0
      isPPtrCurve: 0
    - path: 4030751968
      attribute: 1
      script: {fileID: 0}
      classID: 4
      customType: 0
      isPPtrCurve: 0
    - path: 827825266
      attribute: 1
      script: {fileID: 0}
      classID: 4
      customType: 0
      isPPtrCurve: 0
    - path: 2653634214
      attribute: 1
      script: {fileID: 0}
      classID: 4
      customType: 0
      isPPtrCurve: 0
    - path: 1597818420
      attribute: 1
      script: {fileID: 0}
      classID: 4
      customType: 0
      isPPtrCurve: 0
    - path: 2752401062
      attribute: 1
      script: {fileID: 0}
      classID: 4
      customType: 0
      isPPtrCurve: 0
    - path: 1118931135
      attribute: 1
      script: {fileID: 0}
      classID: 4
      customType: 0
      isPPtrCurve: 0
    - path: 2932167421
      attribute: 1
      script: {fileID: 0}
      classID: 4
      customType: 0
      isPPtrCurve: 0
    - path: 1731249141
      attribute: 2
      script: {fileID: 0}
      classID: 4
      customType: 0
      isPPtrCurve: 0
    - path: 2793900456
      attribute: 4
      script: {fileID: 0}
      classID: 4
      customType: 14
      isPPtrCurve: 0
    pptrCurveMapping: []
  m_AnimationClipSettings:
    serializedVersion: 2
    m_AdditiveReferencePoseClip: {fileID: 0}
    m_AdditiveReferencePoseTime: 0
    m_StartTime: 0
    m_StopTime: 0.33333334
    m_OrientationOffsetY: 0
    m_Level: 0
    m_CycleOffset: 0
    m_HasAdditiveReferencePose: 0
    m_LoopTime: 1
    m_LoopBlend: 0
    m_LoopBlendOrientation: 0
    m_LoopBlendPositionY: 0
    m_LoopBlendPositionXZ: 0
    m_KeepOriginalOrientation: 0
    m_KeepOriginalPositionY: 1
    m_KeepOriginalPositionXZ: 0
    m_HeightFromFeet: 0
    m_Mirror: 0
  m_EditorCurves:
  - curve:
      serializedVersion: 2
      m_Curve:
      - time: 0
        value: -22.3
        inSlope: -33
        outSlope: -33
        tangentMode: 10
      - time: 0.16666667
        value: -27.8
        inSlope: -20.100002
        outSlope: -20.100002
        tangentMode: 10
      - time: 0.33333334
        value: -29
        inSlope: -7.2000046
        outSlope: -7.2000046
        tangentMode: 10
      m_PreInfinity: 2
      m_PostInfinity: 2
      m_RotationOrder: 4
    attribute: m_LocalPosition.x
    path: FussR_CTRL
    classID: 4
    script: {fileID: 0}
  - curve:
      serializedVersion: 2
      m_Curve:
      - time: 0
        value: 34.7
        inSlope: 49.200005
        outSlope: 49.200005
        tangentMode: 10
      - time: 0.16666667
        value: 42.9
        inSlope: 17.699993
        outSlope: 17.699993
        tangentMode: 10
      - time: 0.33333334
        value: 40.6
        inSlope: -13.800018
        outSlope: -13.800018
        tangentMode: 10
      m_PreInfinity: 2
      m_PostInfinity: 2
      m_RotationOrder: 4
    attribute: m_LocalPosition.y
    path: FussR_CTRL
    classID: 4
    script: {fileID: 0}
  - curve:
      serializedVersion: 2
      m_Curve:
      - time: 0
        value: 0.12
        inSlope: 0.48000002
        outSlope: 0.48000002
        tangentMode: 10
      - time: 0.16666667
        value: 0.2
        inSlope: 0.24000001
        outSlope: 0.24000001
        tangentMode: 10
      - time: 0.33333334
        value: 0.2
        inSlope: 0
        outSlope: 0
        tangentMode: 10
      m_PreInfinity: 2
      m_PostInfinity: 2
      m_RotationOrder: 4
    attribute: m_LocalPosition.z
    path: FussR_CTRL
    classID: 4
    script: {fileID: 0}
  - curve:
      serializedVersion: 2
      m_Curve:
      - time: 0
        value: 43.67
        inSlope: 1.980011
        outSlope: 1.980011
        tangentMode: 10
      - time: 0.16666667
        value: 44
        inSlope: -4.7999954
        outSlope: -4.7999954
        tangentMode: 10
      - time: 0.33333334
        value: 42.07
        inSlope: -11.580002
        outSlope: -11.580002
        tangentMode: 10
      m_PreInfinity: 2
      m_PostInfinity: 2
      m_RotationOrder: 4
    attribute: m_LocalPosition.x
    path: FussL_CTRL_GRP/FussL_CTRL
    classID: 4
    script: {fileID: 0}
  - curve:
      serializedVersion: 2
      m_Curve:
      - time: 0
        value: -35.89
        inSlope: 3.540001
        outSlope: 3.540001
        tangentMode: 10
      - time: 0.16666667
        value: -35.3
        inSlope: 11.699999
        outSlope: 11.699999
        tangentMode: 10
      - time: 0.33333334
        value: -31.99
        inSlope: 19.859997
        outSlope: 19.859997
        tangentMode: 10
      m_PreInfinity: 2
      m_PostInfinity: 2
      m_RotationOrder: 4
    attribute: m_LocalPosition.y
    path: FussL_CTRL_GRP/FussL_CTRL
    classID: 4
    script: {fileID: 0}
  - curve:
      serializedVersion: 2
      m_Curve:
      - time: 0
        value: 0
        inSlope: 0
        outSlope: 0
        tangentMode: 10
      - time: 0.16666667
        value: 0
        inSlope: 0
        outSlope: 0
        tangentMode: 10
      - time: 0.33333334
        value: 0
        inSlope: 0
        outSlope: 0
        tangentMode: 10
      m_PreInfinity: 2
      m_PostInfinity: 2
      m_RotationOrder: 4
    attribute: m_LocalPosition.z
    path: FussL_CTRL_GRP/FussL_CTRL
    classID: 4
    script: {fileID: 0}
  - curve:
      serializedVersion: 2
      m_Curve:
      - time: 0
        value: -13.3
        inSlope: -0.59999657
        outSlope: -0.59999657
        tangentMode: 10
      - time: 0.16666667
        value: -13.4
        inSlope: 0
        outSlope: 0
        tangentMode: 10
      - time: 0.33333334
        value: -13.3
        inSlope: 0.59999657
        outSlope: 0.59999657
        tangentMode: 10
      m_PreInfinity: 2
      m_PostInfinity: 2
      m_RotationOrder: 4
    attribute: m_LocalPosition.x
    path: HandL_CTRL_GRP/HandL_CTRL
    classID: 4
    script: {fileID: 0}
  - curve:
      serializedVersion: 2
      m_Curve:
      - time: 0
        value: 38.6
        inSlope: -5.3999863
        outSlope: -5.3999863
        tangentMode: 10
      - time: 0.16666667
        value: 37.7
        inSlope: 0
        outSlope: 0
        tangentMode: 10
      - time: 0.33333334
        value: 38.6
        inSlope: 5.3999863
        outSlope: 5.3999863
        tangentMode: 10
      m_PreInfinity: 2
      m_PostInfinity: 2
      m_RotationOrder: 4
    attribute: m_LocalPosition.y
    path: HandL_CTRL_GRP/HandL_CTRL
    classID: 4
    script: {fileID: 0}
  - curve:
      serializedVersion: 2
      m_Curve:
      - time: 0
        value: 0
        inSlope: -0
        outSlope: -0
        tangentMode: 10
      - time: 0.16666667
        value: -0
        inSlope: 0
        outSlope: 0
        tangentMode: 10
      - time: 0.33333334
        value: 0
        inSlope: 0
        outSlope: 0
        tangentMode: 10
      m_PreInfinity: 2
      m_PostInfinity: 2
      m_RotationOrder: 4
    attribute: m_LocalPosition.z
    path: HandL_CTRL_GRP/HandL_CTRL
    classID: 4
    script: {fileID: 0}
  - curve:
      serializedVersion: 2
      m_Curve:
      - time: 0
        value: 7.2
        inSlope: 5.4000034
        outSlope: 5.4000034
        tangentMode: 10
      - time: 0.16666667
        value: 8.1
        inSlope: 0
        outSlope: 0
        tangentMode: 10
      - time: 0.33333334
        value: 7.2
        inSlope: -5.4000034
        outSlope: -5.4000034
        tangentMode: 10
      m_PreInfinity: 2
      m_PostInfinity: 2
      m_RotationOrder: 4
    attribute: m_LocalPosition.x
    path: HandR_CTRL_GRP/HandR_CTRL
    classID: 4
    script: {fileID: 0}
  - curve:
      serializedVersion: 2
      m_Curve:
      - time: 0
        value: 10.7
        inSlope: -1.1999989
        outSlope: -1.1999989
        tangentMode: 10
      - time: 0.16666667
        value: 10.5
        inSlope: 0
        outSlope: 0
        tangentMode: 10
      - time: 0.33333334
        value: 10.7
        inSlope: 1.1999989
        outSlope: 1.1999989
        tangentMode: 10
      m_PreInfinity: 2
      m_PostInfinity: 2
      m_RotationOrder: 4
    attribute: m_LocalPosition.y
    path: HandR_CTRL_GRP/HandR_CTRL
    classID: 4
    script: {fileID: 0}
  - curve:
      serializedVersion: 2
      m_Curve:
      - time: 0
        value: -0
        inSlope: 0
        outSlope: 0
        tangentMode: 10
      - time: 0.16666667
        value: -0
        inSlope: 0
        outSlope: 0
        tangentMode: 10
      - time: 0.33333334
        value: -0
        inSlope: 0
        outSlope: 0
        tangentMode: 10
      m_PreInfinity: 2
      m_PostInfinity: 2
      m_RotationOrder: 4
    attribute: m_LocalPosition.z
    path: HandR_CTRL_GRP/HandR_CTRL
    classID: 4
    script: {fileID: 0}
  - curve:
      serializedVersion: 2
      m_Curve:
      - time: 0
        value: -27.26
        inSlope: 0
        outSlope: 0
        tangentMode: 10
      - time: 0.33333334
        value: -27.26
        inSlope: 0
        outSlope: 0
        tangentMode: 10
      m_PreInfinity: 2
      m_PostInfinity: 2
      m_RotationOrder: 4
    attribute: m_LocalPosition.x
    path: FFD_Ctrls_GRP_4/SlothGirl_Body_Ctrl_GRP_10/SlothGirl_Body_Ctrl_10
    classID: 4
    script: {fileID: 0}
  - curve:
      serializedVersion: 2
      m_Curve:
      - time: 0
        value: 11.29
        inSlope: 0
        outSlope: 0
        tangentMode: 10
      - time: 0.33333334
        value: 11.29
        inSlope: 0
        outSlope: 0
        tangentMode: 10
      m_PreInfinity: 2
      m_PostInfinity: 2
      m_RotationOrder: 4
    attribute: m_LocalPosition.y
    path: FFD_Ctrls_GRP_4/SlothGirl_Body_Ctrl_GRP_10/SlothGirl_Body_Ctrl_10
    classID: 4
    script: {fileID: 0}
  - curve:
      serializedVersion: 2
      m_Curve:
      - time: 0
        value: 0
        inSlope: 0
        outSlope: 0
        tangentMode: 10
      - time: 0.33333334
        value: 0
        inSlope: 0
        outSlope: 0
        tangentMode: 10
      m_PreInfinity: 2
      m_PostInfinity: 2
      m_RotationOrder: 4
    attribute: m_LocalPosition.z
    path: FFD_Ctrls_GRP_4/SlothGirl_Body_Ctrl_GRP_10/SlothGirl_Body_Ctrl_10
    classID: 4
    script: {fileID: 0}
  - curve:
      serializedVersion: 2
      m_Curve:
      - time: 0
        value: -25.93
        inSlope: 0
        outSlope: 0
        tangentMode: 10
      - time: 0.33333334
        value: -25.93
        inSlope: 0
        outSlope: 0
        tangentMode: 10
      m_PreInfinity: 2
      m_PostInfinity: 2
      m_RotationOrder: 4
    attribute: m_LocalPosition.x
    path: FFD_Ctrls_GRP_4/SlothGirl_Body_Ctrl_GRP_11/SlothGirl_Body_Ctrl_11
    classID: 4
    script: {fileID: 0}
  - curve:
      serializedVersion: 2
      m_Curve:
      - time: 0
        value: 15.09
        inSlope: 0
        outSlope: 0
        tangentMode: 10
      - time: 0.33333334
        value: 15.09
        inSlope: 0
        outSlope: 0
        tangentMode: 10
      m_PreInfinity: 2
      m_PostInfinity: 2
      m_RotationOrder: 4
    attribute: m_LocalPosition.y
    path: FFD_Ctrls_GRP_4/SlothGirl_Body_Ctrl_GRP_11/SlothGirl_Body_Ctrl_11
    classID: 4
    script: {fileID: 0}
  - curve:
      serializedVersion: 2
      m_Curve:
      - time: 0
        value: 0
        inSlope: 0
        outSlope: 0
        tangentMode: 10
      - time: 0.33333334
        value: 0
        inSlope: 0
        outSlope: 0
        tangentMode: 10
      m_PreInfinity: 2
      m_PostInfinity: 2
      m_RotationOrder: 4
    attribute: m_LocalPosition.z
    path: FFD_Ctrls_GRP_4/SlothGirl_Body_Ctrl_GRP_11/SlothGirl_Body_Ctrl_11
    classID: 4
    script: {fileID: 0}
  - curve:
      serializedVersion: 2
      m_Curve:
      - time: 0
        value: -25.03
        inSlope: 0
        outSlope: 0
        tangentMode: 10
      - time: 0.33333334
        value: -25.03
        inSlope: 0
        outSlope: 0
        tangentMode: 10
      m_PreInfinity: 2
      m_PostInfinity: 2
      m_RotationOrder: 4
    attribute: m_LocalPosition.x
    path: FFD_Ctrls_GRP_4/SlothGirl_Body_Ctrl_GRP_12/SlothGirl_Body_Ctrl_12
    classID: 4
    script: {fileID: 0}
  - curve:
      serializedVersion: 2
      m_Curve:
      - time: 0
        value: 23.95
        inSlope: 0
        outSlope: 0
        tangentMode: 10
      - time: 0.33333334
        value: 23.95
        inSlope: 0
        outSlope: 0
        tangentMode: 10
      m_PreInfinity: 2
      m_PostInfinity: 2
      m_RotationOrder: 4
    attribute: m_LocalPosition.y
    path: FFD_Ctrls_GRP_4/SlothGirl_Body_Ctrl_GRP_12/SlothGirl_Body_Ctrl_12
    classID: 4
    script: {fileID: 0}
  - curve:
      serializedVersion: 2
      m_Curve:
      - time: 0
        value: 0
        inSlope: 0
        outSlope: 0
        tangentMode: 10
      - time: 0.33333334
        value: 0
        inSlope: 0
        outSlope: 0
        tangentMode: 10
      m_PreInfinity: 2
      m_PostInfinity: 2
      m_RotationOrder: 4
    attribute: m_LocalPosition.z
    path: FFD_Ctrls_GRP_4/SlothGirl_Body_Ctrl_GRP_12/SlothGirl_Body_Ctrl_12
    classID: 4
    script: {fileID: 0}
  - curve:
      serializedVersion: 2
      m_Curve:
      - time: 0
        value: -24.7
        inSlope: -8.279995
        outSlope: -8.279995
        tangentMode: 10
      - time: 0.16666667
        value: -26.08
        inSlope: 0
        outSlope: 0
        tangentMode: 10
      - time: 0.33333334
        value: -24.7
        inSlope: 8.279995
        outSlope: 8.279995
        tangentMode: 10
      m_PreInfinity: 2
      m_PostInfinity: 2
      m_RotationOrder: 4
    attribute: m_LocalPosition.x
    path: FFD_Ctrls_GRP_4/SlothGirl_Body_Ctrl_GRP_13/SlothGirl_Body_Ctrl_13
    classID: 4
    script: {fileID: 0}
  - curve:
      serializedVersion: 2
      m_Curve:
      - time: 0
        value: 31.2
        inSlope: 27.120003
        outSlope: 27.120003
        tangentMode: 10
      - time: 0.16666667
        value: 35.72
        inSlope: 0
        outSlope: 0
        tangentMode: 10
      - time: 0.33333334
        value: 31.2
        inSlope: -27.120003
        outSlope: -27.120003
        tangentMode: 10
      m_PreInfinity: 2
      m_PostInfinity: 2
      m_RotationOrder: 4
    attribute: m_LocalPosition.y
    path: FFD_Ctrls_GRP_4/SlothGirl_Body_Ctrl_GRP_13/SlothGirl_Body_Ctrl_13
    classID: 4
    script: {fileID: 0}
  - curve:
      serializedVersion: 2
      m_Curve:
      - time: 0
        value: 0
        inSlope: 0
        outSlope: 0
        tangentMode: 10
      - time: 0.16666667
        value: 0
        inSlope: 0
        outSlope: 0
        tangentMode: 10
      - time: 0.33333334
        value: 0
        inSlope: 0
        outSlope: 0
        tangentMode: 10
      m_PreInfinity: 2
      m_PostInfinity: 2
      m_RotationOrder: 4
    attribute: m_LocalPosition.z
    path: FFD_Ctrls_GRP_4/SlothGirl_Body_Ctrl_GRP_13/SlothGirl_Body_Ctrl_13
    classID: 4
    script: {fileID: 0}
  - curve:
      serializedVersion: 2
      m_Curve:
      - time: 0
        value: -14.51
        inSlope: -0.8999977
        outSlope: -0.8999977
        tangentMode: 10
      - time: 0.16666667
        value: -14.66
        inSlope: 0
        outSlope: 0
        tangentMode: 10
      - time: 0.33333334
        value: -14.51
        inSlope: 0.8999977
        outSlope: 0.8999977
        tangentMode: 10
      m_PreInfinity: 2
      m_PostInfinity: 2
      m_RotationOrder: 4
    attribute: m_LocalPosition.x
    path: FFD_Ctrls_GRP_4/SlothGirl_Body_Ctrl_GRP_14/SlothGirl_Body_Ctrl_14
    classID: 4
    script: {fileID: 0}
  - curve:
      serializedVersion: 2
      m_Curve:
      - time: 0
        value: 26.32
        inSlope: 16.620003
        outSlope: 16.620003
        tangentMode: 10
      - time: 0.16666667
        value: 29.09
        inSlope: 0
        outSlope: 0
        tangentMode: 10
      - time: 0.33333334
        value: 26.32
        inSlope: -16.620003
        outSlope: -16.620003
        tangentMode: 10
      m_PreInfinity: 2
      m_PostInfinity: 2
      m_RotationOrder: 4
    attribute: m_LocalPosition.y
    path: FFD_Ctrls_GRP_4/SlothGirl_Body_Ctrl_GRP_14/SlothGirl_Body_Ctrl_14
    classID: 4
    script: {fileID: 0}
  - curve:
      serializedVersion: 2
      m_Curve:
      - time: 0
        value: 0
        inSlope: 0
        outSlope: 0
        tangentMode: 10
      - time: 0.16666667
        value: 0
        inSlope: 0
        outSlope: 0
        tangentMode: 10
      - time: 0.33333334
        value: 0
        inSlope: 0
        outSlope: 0
        tangentMode: 10
      m_PreInfinity: 2
      m_PostInfinity: 2
      m_RotationOrder: 4
    attribute: m_LocalPosition.z
    path: FFD_Ctrls_GRP_4/SlothGirl_Body_Ctrl_GRP_14/SlothGirl_Body_Ctrl_14
    classID: 4
    script: {fileID: 0}
  - curve:
      serializedVersion: 2
      m_Curve:
      - time: 0
        value: -8.68
        inSlope: 0
        outSlope: 0
        tangentMode: 10
      - time: 0.33333334
        value: -8.68
        inSlope: 0
        outSlope: 0
        tangentMode: 10
      m_PreInfinity: 2
      m_PostInfinity: 2
      m_RotationOrder: 4
    attribute: m_LocalPosition.x
    path: FFD_Ctrls_GRP_4/SlothGirl_Body_Ctrl_GRP_15/SlothGirl_Body_Ctrl_15
    classID: 4
    script: {fileID: 0}
  - curve:
      serializedVersion: 2
      m_Curve:
      - time: 0
        value: 17.09
        inSlope: 0
        outSlope: 0
        tangentMode: 10
      - time: 0.33333334
        value: 17.09
        inSlope: 0
        outSlope: 0
        tangentMode: 10
      m_PreInfinity: 2
      m_PostInfinity: 2
      m_RotationOrder: 4
    attribute: m_LocalPosition.y
    path: FFD_Ctrls_GRP_4/SlothGirl_Body_Ctrl_GRP_15/SlothGirl_Body_Ctrl_15
    classID: 4
    script: {fileID: 0}
  - curve:
      serializedVersion: 2
      m_Curve:
      - time: 0
        value: 0
        inSlope: 0
        outSlope: 0
        tangentMode: 10
      - time: 0.33333334
        value: 0
        inSlope: 0
        outSlope: 0
        tangentMode: 10
      m_PreInfinity: 2
      m_PostInfinity: 2
      m_RotationOrder: 4
    attribute: m_LocalPosition.z
    path: FFD_Ctrls_GRP_4/SlothGirl_Body_Ctrl_GRP_15/SlothGirl_Body_Ctrl_15
    classID: 4
    script: {fileID: 0}
  - curve:
      serializedVersion: 2
      m_Curve:
      - time: 0
        value: -1.47
        inSlope: 0
        outSlope: 0
        tangentMode: 10
      - time: 0.33333334
        value: -1.47
        inSlope: 0
        outSlope: 0
        tangentMode: 10
      m_PreInfinity: 2
      m_PostInfinity: 2
      m_RotationOrder: 4
    attribute: m_LocalPosition.x
    path: FFD_Ctrls_GRP_4/SlothGirl_Body_Ctrl_GRP_16/SlothGirl_Body_Ctrl_16
    classID: 4
    script: {fileID: 0}
  - curve:
      serializedVersion: 2
      m_Curve:
      - time: 0
        value: 6.76
        inSlope: 0
        outSlope: 0
        tangentMode: 10
      - time: 0.33333334
        value: 6.76
        inSlope: 0
        outSlope: 0
        tangentMode: 10
      m_PreInfinity: 2
      m_PostInfinity: 2
      m_RotationOrder: 4
    attribute: m_LocalPosition.y
    path: FFD_Ctrls_GRP_4/SlothGirl_Body_Ctrl_GRP_16/SlothGirl_Body_Ctrl_16
    classID: 4
    script: {fileID: 0}
  - curve:
      serializedVersion: 2
      m_Curve:
      - time: 0
        value: 0
        inSlope: 0
        outSlope: 0
        tangentMode: 10
      - time: 0.33333334
        value: 0
        inSlope: 0
        outSlope: 0
        tangentMode: 10
      m_PreInfinity: 2
      m_PostInfinity: 2
      m_RotationOrder: 4
    attribute: m_LocalPosition.z
    path: FFD_Ctrls_GRP_4/SlothGirl_Body_Ctrl_GRP_16/SlothGirl_Body_Ctrl_16
    classID: 4
    script: {fileID: 0}
  - curve:
      serializedVersion: 2
      m_Curve:
      - time: 0
        value: 1.4
        inSlope: 0
        outSlope: 0
        tangentMode: 10
      - time: 0.33333334
        value: 1.4
        inSlope: 0
        outSlope: 0
        tangentMode: 10
      m_PreInfinity: 2
      m_PostInfinity: 2
      m_RotationOrder: 4
    attribute: m_LocalPosition.x
    path: FFD_Ctrls_GRP_4/SlothGirl_Body_Ctrl_GRP_7/SlothGirl_Body_Ctrl_7
    classID: 4
    script: {fileID: 0}
  - curve:
      serializedVersion: 2
      m_Curve:
      - time: 0
        value: -5.2
        inSlope: 0
        outSlope: 0
        tangentMode: 10
      - time: 0.33333334
        value: -5.2
        inSlope: 0
        outSlope: 0
        tangentMode: 10
      m_PreInfinity: 2
      m_PostInfinity: 2
      m_RotationOrder: 4
    attribute: m_LocalPosition.y
    path: FFD_Ctrls_GRP_4/SlothGirl_Body_Ctrl_GRP_7/SlothGirl_Body_Ctrl_7
    classID: 4
    script: {fileID: 0}
  - curve:
      serializedVersion: 2
      m_Curve:
      - time: 0
        value: 0
        inSlope: 0
        outSlope: 0
        tangentMode: 10
      - time: 0.33333334
        value: 0
        inSlope: 0
        outSlope: 0
        tangentMode: 10
      m_PreInfinity: 2
      m_PostInfinity: 2
      m_RotationOrder: 4
    attribute: m_LocalPosition.z
    path: FFD_Ctrls_GRP_4/SlothGirl_Body_Ctrl_GRP_7/SlothGirl_Body_Ctrl_7
    classID: 4
    script: {fileID: 0}
  - curve:
      serializedVersion: 2
      m_Curve:
      - time: 0
        value: -15.6
        inSlope: 0
        outSlope: 0
        tangentMode: 10
      - time: 0.33333334
        value: -15.6
        inSlope: 0
        outSlope: 0
        tangentMode: 10
      m_PreInfinity: 2
      m_PostInfinity: 2
      m_RotationOrder: 4
    attribute: m_LocalPosition.x
    path: FFD_Ctrls_GRP_4/SlothGirl_Body_Ctrl_GRP_8/SlothGirl_Body_Ctrl_8
    classID: 4
    script: {fileID: 0}
  - curve:
      serializedVersion: 2
      m_Curve:
      - time: 0
        value: 0.8
        inSlope: 0
        outSlope: 0
        tangentMode: 10
      - time: 0.33333334
        value: 0.8
        inSlope: 0
        outSlope: 0
        tangentMode: 10
      m_PreInfinity: 2
      m_PostInfinity: 2
      m_RotationOrder: 4
    attribute: m_LocalPosition.y
    path: FFD_Ctrls_GRP_4/SlothGirl_Body_Ctrl_GRP_8/SlothGirl_Body_Ctrl_8
    classID: 4
    script: {fileID: 0}
  - curve:
      serializedVersion: 2
      m_Curve:
      - time: 0
        value: 0
        inSlope: 0
        outSlope: 0
        tangentMode: 10
      - time: 0.33333334
        value: 0
        inSlope: 0
        outSlope: 0
        tangentMode: 10
      m_PreInfinity: 2
      m_PostInfinity: 2
      m_RotationOrder: 4
    attribute: m_LocalPosition.z
    path: FFD_Ctrls_GRP_4/SlothGirl_Body_Ctrl_GRP_8/SlothGirl_Body_Ctrl_8
    classID: 4
    script: {fileID: 0}
  - curve:
      serializedVersion: 2
      m_Curve:
      - time: 0
        value: -24.5
        inSlope: 0
        outSlope: 0
        tangentMode: 10
      - time: 0.33333334
        value: -24.5
        inSlope: 0
        outSlope: 0
        tangentMode: 10
      m_PreInfinity: 2
      m_PostInfinity: 2
      m_RotationOrder: 4
    attribute: m_LocalPosition.x
    path: FFD_Ctrls_GRP_4/SlothGirl_Body_Ctrl_GRP_9/SlothGirl_Body_Ctrl_9
    classID: 4
    script: {fileID: 0}
  - curve:
      serializedVersion: 2
      m_Curve:
      - time: 0
        value: 9.6
        inSlope: 0
        outSlope: 0
        tangentMode: 10
      - time: 0.33333334
        value: 9.6
        inSlope: 0
        outSlope: 0
        tangentMode: 10
      m_PreInfinity: 2
      m_PostInfinity: 2
      m_RotationOrder: 4
    attribute: m_LocalPosition.y
    path: FFD_Ctrls_GRP_4/SlothGirl_Body_Ctrl_GRP_9/SlothGirl_Body_Ctrl_9
    classID: 4
    script: {fileID: 0}
  - curve:
      serializedVersion: 2
      m_Curve:
      - time: 0
        value: 0
        inSlope: 0
        outSlope: 0
        tangentMode: 10
      - time: 0.33333334
        value: 0
        inSlope: 0
        outSlope: 0
        tangentMode: 10
      m_PreInfinity: 2
      m_PostInfinity: 2
      m_RotationOrder: 4
    attribute: m_LocalPosition.z
    path: FFD_Ctrls_GRP_4/SlothGirl_Body_Ctrl_GRP_9/SlothGirl_Body_Ctrl_9
    classID: 4
    script: {fileID: 0}
  - curve:
      serializedVersion: 2
      m_Curve:
      - time: 0
        value: -18.168741
        inSlope: -7.5470705
        outSlope: -7.5470705
        tangentMode: 10
      m_PreInfinity: 2
      m_PostInfinity: 2
      m_RotationOrder: 4
    attribute: m_LocalPosition.x
    path: Huefte/Brust/Kopf/Sloth
    classID: 4
    script: {fileID: 0}
  - curve:
      serializedVersion: 2
      m_Curve:
      - time: 0
        value: 14.831744
        inSlope: 4.7107534
        outSlope: 4.7107534
        tangentMode: 10
      m_PreInfinity: 2
      m_PostInfinity: 2
      m_RotationOrder: 4
    attribute: m_LocalPosition.y
    path: Huefte/Brust/Kopf/Sloth
    classID: 4
    script: {fileID: 0}
  - curve:
      serializedVersion: 2
      m_Curve:
      - time: 0
        value: -0
        inSlope: 1.0223245e-12
        outSlope: 1.0223245e-12
        tangentMode: 10
      m_PreInfinity: 2
      m_PostInfinity: 2
      m_RotationOrder: 4
    attribute: m_LocalPosition.z
    path: Huefte/Brust/Kopf/Sloth
    classID: 4
    script: {fileID: 0}
  - curve:
      serializedVersion: 2
      m_Curve:
      - time: 0
        value: 0
        inSlope: 0
        outSlope: 0
        tangentMode: 10
      m_PreInfinity: 2
      m_PostInfinity: 2
      m_RotationOrder: 4
    attribute: localEulerAnglesRaw.x
    path: Huefte/Brust/Kopf/Sloth
    classID: 4
    script: {fileID: 0}
  - curve:
      serializedVersion: 2
      m_Curve:
      - time: 0
        value: 0
        inSlope: 0
        outSlope: 0
        tangentMode: 10
      m_PreInfinity: 2
      m_PostInfinity: 2
      m_RotationOrder: 4
    attribute: localEulerAnglesRaw.y
    path: Huefte/Brust/Kopf/Sloth
    classID: 4
    script: {fileID: 0}
  - curve:
      serializedVersion: 2
      m_Curve:
      - time: 0
        value: 4.7948
        inSlope: -13.699383
        outSlope: -13.699383
        tangentMode: 10
      m_PreInfinity: 2
      m_PostInfinity: 2
      m_RotationOrder: 4
    attribute: localEulerAnglesRaw.z
    path: Huefte/Brust/Kopf/Sloth
    classID: 4
    script: {fileID: 0}
  - curve:
      serializedVersion: 2
      m_Curve:
      - time: 0
        value: 1.8314438
        inSlope: -18
        outSlope: -18
        tangentMode: 10
      - time: 0.083333336
        value: 0.3314438
        inSlope: -3
        outSlope: -3
        tangentMode: 10
      - time: 0.16666667
        value: 1.3314438
        inSlope: 7.5
        outSlope: 7.5
        tangentMode: 10
      - time: 0.33333334
        value: 1.8314438
        inSlope: 3
        outSlope: 3
        tangentMode: 10
      m_PreInfinity: 2
      m_PostInfinity: 2
      m_RotationOrder: 4
    attribute: m_LocalPosition.x
    path: Huefte/Brust/Kopf/Sloth/SlothHandL_CTRL_GRP/SlothHandL_CTRL
    classID: 4
    script: {fileID: 0}
  - curve:
      serializedVersion: 2
      m_Curve:
      - time: 0
        value: 23.233942
        inSlope: -4.7999954
        outSlope: -4.7999954
        tangentMode: 10
      - time: 0.083333336
        value: 22.833942
        inSlope: 23.399998
        outSlope: 23.399998
        tangentMode: 10
      - time: 0.16666667
        value: 27.133942
        inSlope: 14.099997
        outSlope: 14.099997
        tangentMode: 10
      - time: 0.33333334
        value: 23.233942
        inSlope: -23.399998
        outSlope: -23.399998
        tangentMode: 10
      m_PreInfinity: 2
      m_PostInfinity: 2
      m_RotationOrder: 4
    attribute: m_LocalPosition.y
    path: Huefte/Brust/Kopf/Sloth/SlothHandL_CTRL_GRP/SlothHandL_CTRL
    classID: 4
    script: {fileID: 0}
  - curve:
      serializedVersion: 2
      m_Curve:
      - time: 0
        value: -0
        inSlope: 0
        outSlope: 0
        tangentMode: 10
      - time: 0.083333336
        value: 0
        inSlope: 0
        outSlope: 0
        tangentMode: 10
      - time: 0.16666667
        value: 0
        inSlope: 0
        outSlope: 0
        tangentMode: 10
      - time: 0.33333334
        value: -0
        inSlope: -0
        outSlope: -0
        tangentMode: 10
      m_PreInfinity: 2
      m_PostInfinity: 2
      m_RotationOrder: 4
    attribute: m_LocalPosition.z
    path: Huefte/Brust/Kopf/Sloth/SlothHandL_CTRL_GRP/SlothHandL_CTRL
    classID: 4
    script: {fileID: 0}
  - curve:
      serializedVersion: 2
      m_Curve:
      - time: 0
        value: 11
        inSlope: 58.799995
        outSlope: 58.799995
        tangentMode: 10
      - time: 0.083333336
        value: 15.9
        inSlope: 30.600002
        outSlope: 30.600002
        tangentMode: 10
      - time: 0.16666667
        value: 16.1
        inSlope: -14.099997
        outSlope: -14.099997
        tangentMode: 10
      - time: 0.33333334
        value: 11
        inSlope: -30.600002
        outSlope: -30.600002
        tangentMode: 10
      m_PreInfinity: 2
      m_PostInfinity: 2
      m_RotationOrder: 4
    attribute: m_LocalPosition.x
    path: Huefte/Brust/Kopf/Sloth/SlothHandR_CTRL_GRP/SlothHandR_CTRL
    classID: 4
    script: {fileID: 0}
  - curve:
      serializedVersion: 2
      m_Curve:
      - time: 0
        value: 12
        inSlope: 25.200005
        outSlope: 25.200005
        tangentMode: 10
      - time: 0.083333336
        value: 14.1
        inSlope: 55.799995
        outSlope: 55.799995
        tangentMode: 10
      - time: 0.16666667
        value: 21.3
        inSlope: 15.299995
        outSlope: 15.299995
        tangentMode: 10
      - time: 0.33333334
        value: 12
        inSlope: -55.799995
        outSlope: -55.799995
        tangentMode: 10
      m_PreInfinity: 2
      m_PostInfinity: 2
      m_RotationOrder: 4
    attribute: m_LocalPosition.y
    path: Huefte/Brust/Kopf/Sloth/SlothHandR_CTRL_GRP/SlothHandR_CTRL
    classID: 4
    script: {fileID: 0}
  - curve:
      serializedVersion: 2
      m_Curve:
      - time: 0
        value: 0
        inSlope: -0
        outSlope: -0
        tangentMode: 10
      - time: 0.083333336
        value: -0
        inSlope: 0
        outSlope: 0
        tangentMode: 10
      - time: 0.16666667
        value: -0
        inSlope: 0
        outSlope: 0
        tangentMode: 10
      - time: 0.33333334
        value: 0
        inSlope: 0
        outSlope: 0
        tangentMode: 10
      m_PreInfinity: 2
      m_PostInfinity: 2
      m_RotationOrder: 4
    attribute: m_LocalPosition.z
    path: Huefte/Brust/Kopf/Sloth/SlothHandR_CTRL_GRP/SlothHandR_CTRL
    classID: 4
    script: {fileID: 0}
  - curve:
      serializedVersion: 2
      m_Curve:
      - time: 0
        value: 0.015488906
        inSlope: 0
        outSlope: 0.000011175871
        tangentMode: 0
      - time: 0.16666667
        value: 0.015488906
        inSlope: 0
        outSlope: 0.000011175871
        tangentMode: 0
      - time: 0.33333334
        value: 0.015488906
        inSlope: 0
        outSlope: 0
        tangentMode: 0
      m_PreInfinity: 2
      m_PostInfinity: 2
      m_RotationOrder: 4
    attribute: m_LocalRotation.x
    path: FussR_CTRL
    classID: 4
    script: {fileID: 0}
  - curve:
      serializedVersion: 2
      m_Curve:
      - time: 0
        value: -0.004794406
        inSlope: 0
        outSlope: -0.0000027939677
        tangentMode: 0
      - time: 0.16666667
        value: -0.004794406
        inSlope: -0.0000027939677
        outSlope: -0.0000027939677
        tangentMode: 0
      - time: 0.33333334
        value: -0.004794406
        inSlope: -0.0000027939677
        outSlope: 0
        tangentMode: 0
      m_PreInfinity: 2
      m_PostInfinity: 2
      m_RotationOrder: 4
    attribute: m_LocalRotation.y
    path: FussR_CTRL
    classID: 4
    script: {fileID: 0}
  - curve:
      serializedVersion: 2
      m_Curve:
      - time: 0
        value: 0.91365993
        inSlope: 0
        outSlope: 0
        tangentMode: 0
      - time: 0.16666667
        value: 0.91365993
        inSlope: 0
        outSlope: 0
        tangentMode: 0
      - time: 0.33333334
        value: 0.91365993
        inSlope: 0
        outSlope: 0
        tangentMode: 0
      m_PreInfinity: 2
      m_PostInfinity: 2
      m_RotationOrder: 4
    attribute: m_LocalRotation.z
    path: FussR_CTRL
    classID: 4
    script: {fileID: 0}
  - curve:
      serializedVersion: 2
      m_Curve:
      - time: 0
        value: 0.40615597
        inSlope: 0
        outSlope: 0
        tangentMode: 0
      - time: 0.16666667
        value: 0.40615597
        inSlope: 0
        outSlope: 0
        tangentMode: 0
      - time: 0.33333334
        value: 0.40615597
        inSlope: 0
        outSlope: 0
        tangentMode: 0
      m_PreInfinity: 2
      m_PostInfinity: 2
      m_RotationOrder: 4
    attribute: m_LocalRotation.w
    path: FussR_CTRL
    classID: 4
    script: {fileID: 0}
  - curve:
      serializedVersion: 2
      m_Curve:
      - time: 0
        value: 0
        inSlope: 0
        outSlope: 0
        tangentMode: 0
      - time: 0.16666667
        value: 0
        inSlope: 0
        outSlope: 0
        tangentMode: 0
      - time: 0.33333334
        value: 0
        inSlope: 0
        outSlope: 0
        tangentMode: 0
      m_PreInfinity: 2
      m_PostInfinity: 2
      m_RotationOrder: 4
    attribute: m_LocalRotation.x
    path: FussL_CTRL_GRP/FussL_CTRL
    classID: 4
    script: {fileID: 0}
  - curve:
      serializedVersion: 2
      m_Curve:
      - time: 0
        value: 0
        inSlope: 0
        outSlope: 0
        tangentMode: 0
      - time: 0.16666667
        value: 0
        inSlope: 0
        outSlope: 0
        tangentMode: 0
      - time: 0.33333334
        value: 0
        inSlope: 0
        outSlope: 0
        tangentMode: 0
      m_PreInfinity: 2
      m_PostInfinity: 2
      m_RotationOrder: 4
    attribute: m_LocalRotation.y
    path: FussL_CTRL_GRP/FussL_CTRL
    classID: 4
    script: {fileID: 0}
  - curve:
      serializedVersion: 2
      m_Curve:
      - time: 0
        value: 0.59389335
        inSlope: 0
        outSlope: 0
        tangentMode: 0
      - time: 0.16666667
        value: 0.59389335
        inSlope: 0
        outSlope: 0
        tangentMode: 0
      - time: 0.33333334
        value: 0.59389335
        inSlope: 0
        outSlope: 0
        tangentMode: 0
      m_PreInfinity: 2
      m_PostInfinity: 2
      m_RotationOrder: 4
    attribute: m_LocalRotation.z
    path: FussL_CTRL_GRP/FussL_CTRL
    classID: 4
    script: {fileID: 0}
  - curve:
      serializedVersion: 2
      m_Curve:
      - time: 0
        value: -0.8045438
        inSlope: 0
        outSlope: 0
        tangentMode: 0
      - time: 0.16666667
        value: -0.8045438
        inSlope: 0
        outSlope: 0
        tangentMode: 0
      - time: 0.33333334
        value: -0.8045438
        inSlope: 0
        outSlope: 0
        tangentMode: 0
      m_PreInfinity: 2
      m_PostInfinity: 2
      m_RotationOrder: 4
    attribute: m_LocalRotation.w
    path: FussL_CTRL_GRP/FussL_CTRL
    classID: 4
    script: {fileID: 0}
  m_EulerEditorCurves:
  - curve:
      serializedVersion: 2
      m_Curve:
      - time: 0
        value: 132.08105
        inSlope: 0
        outSlope: 0
        tangentMode: 0
      - time: 0.16666667
        value: 132.08105
        inSlope: 0
        outSlope: 0
        tangentMode: 0
      - time: 0.33333334
        value: 132.08105
        inSlope: 0
        outSlope: 0
        tangentMode: 0
      m_PreInfinity: 2
      m_PostInfinity: 2
      m_RotationOrder: 4
    attribute: localEulerAngles.z
    path: FussR_CTRL
    classID: 4
    script: {fileID: 0}
  - curve:
      serializedVersion: 2
      m_Curve:
      - time: 0
        value: 1.3989692
        inSlope: 0.0004291534
        outSlope: 0.0004291534
        tangentMode: 0
      - time: 0.16666667
        value: 1.3989692
        inSlope: 0.00042915347
        outSlope: 0.00042915347
        tangentMode: 0
      - time: 0.33333334
        value: 1.3989692
        inSlope: 0.0004291546
        outSlope: 0.0004291546
        tangentMode: 0
      m_PreInfinity: 2
      m_PostInfinity: 2
      m_RotationOrder: 4
    attribute: localEulerAngles.y
    path: FussR_CTRL
    classID: 4
    script: {fileID: 0}
  - curve:
      serializedVersion: 2
      m_Curve:
      - time: 0
        value: 1.2229415
        inSlope: 0.00083684915
        outSlope: 0.00083684915
        tangentMode: 0
      - time: 0.16666667
        value: 1.2229415
        inSlope: 0.00083684927
        outSlope: 0.00083684927
        tangentMode: 0
      - time: 0.33333334
        value: 1.2229415
        inSlope: 0.0008368515
        outSlope: 0.0008368515
        tangentMode: 0
      m_PreInfinity: 2
      m_PostInfinity: 2
      m_RotationOrder: 4
    attribute: localEulerAngles.x
    path: FussR_CTRL
    classID: 4
    script: {fileID: 0}
  - curve:
      serializedVersion: 2
      m_Curve:
      - time: 0
        value: 287.13242
        inSlope: 0
        outSlope: 0
        tangentMode: 0
      - time: 0.16666667
        value: 287.13242
        inSlope: 0
        outSlope: 0
        tangentMode: 0
      - time: 0.33333334
        value: 287.13242
        inSlope: 0
        outSlope: 0
        tangentMode: 0
      m_PreInfinity: 2
      m_PostInfinity: 2
      m_RotationOrder: 4
    attribute: localEulerAngles.z
    path: FussL_CTRL_GRP/FussL_CTRL
    classID: 4
    script: {fileID: 0}
  - curve:
      serializedVersion: 2
      m_Curve:
      - time: 0
        value: 0
        inSlope: 0
        outSlope: 0
        tangentMode: 0
      - time: 0.16666667
        value: 0
        inSlope: 0
        outSlope: 0
        tangentMode: 0
      - time: 0.33333334
        value: 0
        inSlope: 0
        outSlope: 0
        tangentMode: 0
      m_PreInfinity: 2
      m_PostInfinity: 2
      m_RotationOrder: 4
    attribute: localEulerAngles.y
    path: FussL_CTRL_GRP/FussL_CTRL
    classID: 4
    script: {fileID: 0}
  - curve:
      serializedVersion: 2
      m_Curve:
      - time: 0
        value: -0
        inSlope: 0
        outSlope: 0
        tangentMode: 0
      - time: 0.16666667
        value: -0
        inSlope: 0
        outSlope: 0
        tangentMode: 0
      - time: 0.33333334
        value: -0
        inSlope: 0
        outSlope: 0
        tangentMode: 0
      m_PreInfinity: 2
      m_PostInfinity: 2
      m_RotationOrder: 4
    attribute: localEulerAngles.x
    path: FussL_CTRL_GRP/FussL_CTRL
    classID: 4
    script: {fileID: 0}
  - curve:
      serializedVersion: 2
      m_Curve: []
      m_PreInfinity: 2
      m_PostInfinity: 2
      m_RotationOrder: 4
    attribute: m_LocalEulerAngles.x
    path: Huefte/Brust/Kopf/Sloth
    classID: 4
    script: {fileID: 0}
  - curve:
      serializedVersion: 2
      m_Curve: []
      m_PreInfinity: 2
      m_PostInfinity: 2
      m_RotationOrder: 4
    attribute: m_LocalEulerAngles.y
    path: Huefte/Brust/Kopf/Sloth
    classID: 4
    script: {fileID: 0}
  - curve:
      serializedVersion: 2
      m_Curve: []
      m_PreInfinity: 2
      m_PostInfinity: 2
      m_RotationOrder: 4
    attribute: m_LocalEulerAngles.z
    path: Huefte/Brust/Kopf/Sloth
    classID: 4
    script: {fileID: 0}
  m_HasGenericRootTransform: 0
  m_HasMotionFloatCurves: 0
  m_GenerateMotionCurves: 0
  m_Events: []
