%YAML 1.1
%TAG !u! tag:unity3d.com,2011:
--- !u!74 &7400000
AnimationClip:
  m_ObjectHideFlags: 0
  m_PrefabParentObject: {fileID: 0}
  m_PrefabInternal: {fileID: 0}
  m_Name: Slothgirl_Wallslide
  serializedVersion: 6
  m_Legacy: 0
  m_Compressed: 0
  m_UseHighQualityCurve: 1
  m_RotationCurves: []
  m_CompressedRotationCurves: []
  m_EulerCurves:
  - curve:
      serializedVersion: 2
      m_Curve:
      - time: 0
        value: {x: 0, y: 0, z: -6.1702}
        inSlope: {x: 0, y: 0, z: 0}
        outSlope: {x: 0, y: 0, z: 0}
        tangentMode: 0
      - time: 0.5
        value: {x: 0, y: 0, z: -6.1702}
        inSlope: {x: 0, y: 0, z: 0}
        outSlope: {x: 0, y: 0, z: 0}
        tangentMode: 0
      m_PreInfinity: 2
      m_PostInfinity: 2
      m_RotationOrder: 4
    path: Brust_CTRL_GRP/Brust_CTRL
  - curve:
      serializedVersion: 2
      m_Curve:
      - time: 0
        value: {x: 0.0075999997, y: -0.0011999999, z: 228.2726}
        inSlope: {x: 0, y: 0, z: 0}
        outSlope: {x: 0, y: 0, z: 0}
        tangentMode: 0
      - time: 0.5
        value: {x: 0.0075999997, y: -0.0011999999, z: 228.2726}
        inSlope: {x: 0, y: 0, z: 0}
        outSlope: {x: 0, y: 0, z: 0}
        tangentMode: 0
      m_PreInfinity: 2
      m_PostInfinity: 2
      m_RotationOrder: 4
    path: FussR_CTRL
  - curve:
      serializedVersion: 2
      m_Curve:
      - time: 0
        value: {x: 0, y: 0, z: 308.3487}
        inSlope: {x: 0, y: 0, z: 0}
        outSlope: {x: 0, y: 0, z: 0}
        tangentMode: 0
      - time: 0.5
        value: {x: 0, y: 0, z: 308.3487}
        inSlope: {x: 0, y: 0, z: 0}
        outSlope: {x: 0, y: 0, z: 0}
        tangentMode: 0
      m_PreInfinity: 2
      m_PostInfinity: 2
      m_RotationOrder: 4
    path: FussL_CTRL_GRP/FussL_CTRL
  - curve:
      serializedVersion: 2
      m_Curve:
      - time: 0
        value: {x: 0, y: 0, z: -10.6249}
        inSlope: {x: 0, y: 0, z: 0}
        outSlope: {x: 0, y: 0, z: 0}
        tangentMode: 0
      - time: 0.5
        value: {x: 0, y: 0, z: -10.6249}
        inSlope: {x: 0, y: 0, z: 0}
        outSlope: {x: 0, y: 0, z: 0}
        tangentMode: 0
      m_PreInfinity: 2
      m_PostInfinity: 2
      m_RotationOrder: 4
    path: Kopf_CTRL_GRP/Kopf_CTRL
  - curve:
      serializedVersion: 2
      m_Curve:
      - time: 0
        value: {x: 0, y: 0, z: -11.6161995}
        inSlope: {x: 0, y: 0, z: 0}
        outSlope: {x: 0, y: 0, z: 0}
        tangentMode: 0
      - time: 0.5
        value: {x: 0, y: 0, z: -11.6161995}
        inSlope: {x: 0, y: 0, z: 0}
        outSlope: {x: 0, y: 0, z: 0}
        tangentMode: 0
      m_PreInfinity: 2
      m_PostInfinity: 2
      m_RotationOrder: 4
    path: Huefte_CTRL_GRP/Huefte_CTRL
  - curve:
      serializedVersion: 2
      m_Curve:
      - time: 0
        value: {x: 0, y: 0, z: 4.7948}
        inSlope: {x: 0, y: 0, z: 0}
        outSlope: {x: 0, y: 0, z: 0}
        tangentMode: 0
      m_PreInfinity: 2
      m_PostInfinity: 2
      m_RotationOrder: 4
    path: Huefte/Brust/Kopf/Sloth
  m_PositionCurves:
  - curve:
      serializedVersion: 2
      m_Curve:
      - time: 0
        value: {x: -39.5, y: 44.7, z: -0}
        inSlope: {x: 0, y: 0, z: 0}
        outSlope: {x: 0, y: 0, z: 0}
        tangentMode: 0
      - time: 0.5
        value: {x: -39.5, y: 44.7, z: -0}
        inSlope: {x: 0, y: 0, z: 0}
        outSlope: {x: 0, y: 0, z: 0}
        tangentMode: 0
      m_PreInfinity: 2
      m_PostInfinity: 2
      m_RotationOrder: 4
    path: HandR_CTRL_GRP/HandR_CTRL
  - curve:
      serializedVersion: 2
      m_Curve:
      - time: 0
        value: {x: -3.7, y: 66.1, z: -0}
        inSlope: {x: 0, y: 0, z: 0}
        outSlope: {x: 0, y: 0, z: 0}
        tangentMode: 0
      - time: 0.5
        value: {x: -3.7, y: 66.1, z: -0}
        inSlope: {x: 0, y: 0, z: 0}
        outSlope: {x: 0, y: 0, z: 0}
        tangentMode: 0
      m_PreInfinity: 2
      m_PostInfinity: 2
      m_RotationOrder: 4
    path: HandL_CTRL_GRP/HandL_CTRL
  - curve:
      serializedVersion: 2
      m_Curve:
      - time: 0
        value: {x: -0.8700063, y: 0.28000277, z: 1.8742756e-13}
        inSlope: {x: 0, y: 0, z: 0}
        outSlope: {x: 0, y: 0, z: 0}
        tangentMode: 0
      - time: 0.5
        value: {x: -0.8700063, y: 0.28000277, z: 1.8742756e-13}
        inSlope: {x: 0, y: 0, z: 0}
        outSlope: {x: 0, y: 0, z: 0}
        tangentMode: 0
      m_PreInfinity: 2
      m_PostInfinity: 2
      m_RotationOrder: 4
    path: Brust_CTRL_GRP/Brust_CTRL
  - curve:
      serializedVersion: 2
      m_Curve:
      - time: 0
        value: {x: -1.0000038, y: 16.599998, z: 0}
        inSlope: {x: 0, y: 0, z: 0}
        outSlope: {x: 0, y: 0, z: 0}
        tangentMode: 0
      - time: 0.5
        value: {x: -1.0000038, y: 16.599998, z: 0}
        inSlope: {x: 0, y: 0, z: 0}
        outSlope: {x: 0, y: 0, z: 0}
        tangentMode: 0
      m_PreInfinity: 2
      m_PostInfinity: 2
      m_RotationOrder: 4
    path: FussR_CTRL
  - curve:
      serializedVersion: 2
      m_Curve:
      - time: 0
        value: {x: 20.1, y: -6.8, z: 0}
        inSlope: {x: 0, y: 0, z: 0}
        outSlope: {x: 0, y: 0, z: 0}
        tangentMode: 0
      - time: 0.5
        value: {x: 20.1, y: -6.8, z: 0}
        inSlope: {x: 0, y: 0, z: 0}
        outSlope: {x: 0, y: 0, z: 0}
        tangentMode: 0
      m_PreInfinity: 2
      m_PostInfinity: 2
      m_RotationOrder: 4
    path: FussL_CTRL_GRP/FussL_CTRL
  - curve:
      serializedVersion: 2
      m_Curve:
      - time: 0
        value: {x: -1.3, y: 3.9, z: 0}
        inSlope: {x: -1.2000003, y: 10, z: 0}
        outSlope: {x: -1.2000003, y: 10, z: 0}
        tangentMode: 0
      - time: 0.25
        value: {x: -1.6, y: 6.4, z: 0}
        inSlope: {x: 0, y: 0, z: 0}
        outSlope: {x: 0, y: 0, z: 0}
        tangentMode: 0
      - time: 0.5
        value: {x: -1.3, y: 3.9, z: 0}
        inSlope: {x: 1.2000003, y: -10, z: 0}
        outSlope: {x: 1.2000003, y: -10, z: 0}
        tangentMode: 0
      m_PreInfinity: 2
      m_PostInfinity: 2
      m_RotationOrder: 4
    path: FFD_Ctrls_GRP_4/SlothGirl_Body_Ctrl_GRP_15/SlothGirl_Body_Ctrl_15
  - curve:
      serializedVersion: 2
      m_Curve:
      - time: 0
        value: {x: -7.3, y: 6.1, z: 0}
        inSlope: {x: 12, y: 10.4, z: 0}
        outSlope: {x: 12, y: 10.4, z: 0}
        tangentMode: 0
      - time: 0.25
        value: {x: -4.3, y: 8.7, z: 0}
        inSlope: {x: 0, y: 0, z: 0}
        outSlope: {x: 0, y: 0, z: 0}
        tangentMode: 0
      - time: 0.5
        value: {x: -7.3, y: 6.1, z: 0}
        inSlope: {x: -12, y: -10.4, z: 0}
        outSlope: {x: -12, y: -10.4, z: 0}
        tangentMode: 0
      m_PreInfinity: 2
      m_PostInfinity: 2
      m_RotationOrder: 4
    path: FFD_Ctrls_GRP_4/SlothGirl_Body_Ctrl_GRP_14/SlothGirl_Body_Ctrl_14
  - curve:
      serializedVersion: 2
      m_Curve:
      - time: 0
        value: {x: -10.1, y: 6.3, z: 0}
        inSlope: {x: -4.799999, y: 16, z: 0}
        outSlope: {x: -4.799999, y: 16, z: 0}
        tangentMode: 0
      - time: 0.25
        value: {x: -11.3, y: 10.3, z: 0}
        inSlope: {x: 0, y: 0, z: 0}
        outSlope: {x: 0, y: 0, z: 0}
        tangentMode: 0
      - time: 0.5
        value: {x: -10.1, y: 6.3, z: 0}
        inSlope: {x: 4.799999, y: -16, z: 0}
        outSlope: {x: 4.799999, y: -16, z: 0}
        tangentMode: 0
      m_PreInfinity: 2
      m_PostInfinity: 2
      m_RotationOrder: 4
    path: FFD_Ctrls_GRP_4/SlothGirl_Body_Ctrl_GRP_13/SlothGirl_Body_Ctrl_13
  - curve:
      serializedVersion: 2
      m_Curve:
      - time: 0
        value: {x: -5.7, y: 3.8, z: 0}
        inSlope: {x: -5.200001, y: 4.8, z: 0}
        outSlope: {x: -5.200001, y: 4.8, z: 0}
        tangentMode: 0
      - time: 0.25
        value: {x: -7, y: 5, z: 0}
        inSlope: {x: 0, y: 0, z: 0}
        outSlope: {x: 0, y: 0, z: 0}
        tangentMode: 0
      - time: 0.5
        value: {x: -5.7, y: 3.8, z: 0}
        inSlope: {x: 5.200001, y: -4.8, z: 0}
        outSlope: {x: 5.200001, y: -4.8, z: 0}
        tangentMode: 0
      m_PreInfinity: 2
      m_PostInfinity: 2
      m_RotationOrder: 4
    path: FFD_Ctrls_GRP_4/SlothGirl_Body_Ctrl_GRP_12/SlothGirl_Body_Ctrl_12
  - curve:
      serializedVersion: 2
      m_Curve:
      - time: 0
        value: {x: -6, y: 2.8, z: 0}
        inSlope: {x: 21.2, y: -9.599999, z: 0}
        outSlope: {x: 21.2, y: -9.599999, z: 0}
        tangentMode: 0
      - time: 0.25
        value: {x: -0.7, y: 0.4, z: 0}
        inSlope: {x: 0, y: 0, z: 0}
        outSlope: {x: 0, y: 0, z: 0}
        tangentMode: 0
      - time: 0.5
        value: {x: -6, y: 2.8, z: 0}
        inSlope: {x: -21.2, y: 9.599999, z: 0}
        outSlope: {x: -21.2, y: 9.599999, z: 0}
        tangentMode: 0
      m_PreInfinity: 2
      m_PostInfinity: 2
      m_RotationOrder: 4
    path: FFD_Ctrls_GRP_4/SlothGirl_Body_Ctrl_GRP_9/SlothGirl_Body_Ctrl_9
  - curve:
      serializedVersion: 2
      m_Curve:
      - time: 0
        value: {x: -4.2, y: -0.3, z: 0}
        inSlope: {x: 11.999999, y: -8.400001, z: 0}
        outSlope: {x: 11.999999, y: -8.400001, z: 0}
        tangentMode: 0
      - time: 0.25
        value: {x: -1.2, y: -2.4, z: 0}
        inSlope: {x: 0, y: 0, z: 0}
        outSlope: {x: 0, y: 0, z: 0}
        tangentMode: 0
      - time: 0.5
        value: {x: -4.2, y: -0.3, z: 0}
        inSlope: {x: -11.999999, y: 8.400001, z: 0}
        outSlope: {x: -11.999999, y: 8.400001, z: 0}
        tangentMode: 0
      m_PreInfinity: 2
      m_PostInfinity: 2
      m_RotationOrder: 4
    path: FFD_Ctrls_GRP_4/SlothGirl_Body_Ctrl_GRP_8/SlothGirl_Body_Ctrl_8
  - curve:
      serializedVersion: 2
      m_Curve:
      - time: 0
        value: {x: 0.6, y: -1.9, z: 0}
        inSlope: {x: -11.200001, y: 0, z: 0}
        outSlope: {x: -11.200001, y: 0, z: 0}
        tangentMode: 0
      - time: 0.25
        value: {x: -2.2, y: -1.9, z: 0}
        inSlope: {x: 0, y: 0, z: 0}
        outSlope: {x: 0, y: 0, z: 0}
        tangentMode: 0
      - time: 0.5
        value: {x: 0.6, y: -1.9, z: 0}
        inSlope: {x: 11.200001, y: 0, z: 0}
        outSlope: {x: 11.200001, y: 0, z: 0}
        tangentMode: 0
      m_PreInfinity: 2
      m_PostInfinity: 2
      m_RotationOrder: 4
    path: FFD_Ctrls_GRP_4/SlothGirl_Body_Ctrl_GRP_7/SlothGirl_Body_Ctrl_7
  - curve:
      serializedVersion: 2
      m_Curve:
      - time: 0
        value: {x: -5.3, y: 1.8, z: 0}
        inSlope: {x: -4, y: 0.4000001, z: 0}
        outSlope: {x: -4, y: 0.4000001, z: 0}
        tangentMode: 0
      - time: 0.25
        value: {x: -6.3, y: 1.9, z: 0}
        inSlope: {x: 0, y: 0, z: 0}
        outSlope: {x: 0, y: 0, z: 0}
        tangentMode: 0
      - time: 0.5
        value: {x: -5.3, y: 1.8, z: 0}
        inSlope: {x: 4, y: -0.4000001, z: 0}
        outSlope: {x: 4, y: -0.4000001, z: 0}
        tangentMode: 0
      m_PreInfinity: 2
      m_PostInfinity: 2
      m_RotationOrder: 4
    path: FFD_Ctrls_GRP_4/SlothGirl_Body_Ctrl_GRP_11/SlothGirl_Body_Ctrl_11
  - curve:
      serializedVersion: 2
      m_Curve:
      - time: 0
        value: {x: -4.8, y: 2, z: 0}
        inSlope: {x: -11.199999, y: -2.4, z: 0}
        outSlope: {x: -11.199999, y: -2.4, z: 0}
        tangentMode: 0
      - time: 0.25
        value: {x: -7.6, y: 1.4, z: 0}
        inSlope: {x: 0, y: 0, z: 0}
        outSlope: {x: 0, y: 0, z: 0}
        tangentMode: 0
      - time: 0.5
        value: {x: -4.8, y: 2, z: 0}
        inSlope: {x: 11.199999, y: 2.4, z: 0}
        outSlope: {x: 11.199999, y: 2.4, z: 0}
        tangentMode: 0
      m_PreInfinity: 2
      m_PostInfinity: 2
      m_RotationOrder: 4
    path: FFD_Ctrls_GRP_4/SlothGirl_Body_Ctrl_GRP_10/SlothGirl_Body_Ctrl_10
  - curve:
      serializedVersion: 2
      m_Curve:
      - time: 0
        value: {x: -0.000007629406, y: -0.0000076293827, z: 7.287098e-18}
        inSlope: {x: 0, y: 0, z: 0}
        outSlope: {x: 0, y: 0, z: 0}
        tangentMode: 0
      - time: 0.5
        value: {x: -0.000007629406, y: -0.0000076293827, z: 7.287098e-18}
        inSlope: {x: 0, y: 0, z: 0}
        outSlope: {x: 0, y: 0, z: 0}
        tangentMode: 0
      m_PreInfinity: 2
      m_PostInfinity: 2
      m_RotationOrder: 4
    path: Kopf_CTRL_GRP/Kopf_CTRL
  - curve:
      serializedVersion: 2
      m_Curve:
      - time: 0
        value: {x: -1, y: 0.5, z: 0}
        inSlope: {x: -5.2, y: 1.2, z: 0}
        outSlope: {x: -5.2, y: 1.2, z: 0}
        tangentMode: 0
      - time: 0.25
        value: {x: -2.3, y: 0.8, z: 0}
        inSlope: {x: 0, y: 0, z: 0}
        outSlope: {x: 0, y: 0, z: 0}
        tangentMode: 0
      - time: 0.5
        value: {x: -1, y: 0.5, z: 0}
        inSlope: {x: 5.2, y: -1.2, z: 0}
        outSlope: {x: 5.2, y: -1.2, z: 0}
        tangentMode: 0
      m_PreInfinity: 2
      m_PostInfinity: 2
      m_RotationOrder: 4
    path: FFD_Ctrls_GRP_4/SlothGirl_Body_Ctrl_GRP_6/SlothGirl_Body_Ctrl_6
  - curve:
      serializedVersion: 2
      m_Curve:
      - time: 0
        value: {x: 0, y: 0, z: 0}
        inSlope: {x: -0.8, y: 4, z: 0}
        outSlope: {x: -0.8, y: 4, z: 0}
        tangentMode: 0
      - time: 0.25
        value: {x: -0.2, y: 1, z: 0}
        inSlope: {x: 0, y: 0, z: 0}
        outSlope: {x: 0, y: 0, z: 0}
        tangentMode: 0
      - time: 0.5
        value: {x: 0, y: 0, z: 0}
        inSlope: {x: 0.8, y: -4, z: 0}
        outSlope: {x: 0.8, y: -4, z: 0}
        tangentMode: 0
      m_PreInfinity: 2
      m_PostInfinity: 2
      m_RotationOrder: 4
    path: FFD_Ctrls_GRP_4/SlothGirl_Body_Ctrl_GRP_16/SlothGirl_Body_Ctrl_16
  - curve:
      serializedVersion: 2
      m_Curve:
      - time: 0
        value: {x: -5.500006, y: 2.8000016, z: -1.7053026e-13}
        inSlope: {x: 0, y: 0, z: 0}
        outSlope: {x: 0, y: 0, z: 0}
        tangentMode: 0
      - time: 0.5
        value: {x: -5.500006, y: 2.8000016, z: -1.7053026e-13}
        inSlope: {x: 0, y: 0, z: 0}
        outSlope: {x: 0, y: 0, z: 0}
        tangentMode: 0
      m_PreInfinity: 2
      m_PostInfinity: 2
      m_RotationOrder: 4
    path: Huefte_CTRL_GRP/Huefte_CTRL
  - curve:
      serializedVersion: 2
      m_Curve:
      - time: 0
        value: {x: 15.4, y: 21.4, z: 0}
        inSlope: {x: -4.7999954, y: 43.200005, z: -0}
        outSlope: {x: -4.7999954, y: 43.200005, z: -0}
        tangentMode: 0
      - time: 0.16666667
        value: {x: 14.6, y: 28.6, z: -0}
        inSlope: {x: 3.9000034, y: 15.900003, z: 0}
        outSlope: {x: 3.9000034, y: 15.900003, z: 0}
        tangentMode: 0
      - time: 0.33333334
        value: {x: 16.7, y: 26.7, z: 0}
        inSlope: {x: 2.3999975, y: -21.600002, z: 0}
        outSlope: {x: 2.3999975, y: -21.600002, z: 0}
        tangentMode: 0
      - time: 0.5
        value: {x: 15.4, y: 21.4, z: 0}
        inSlope: {x: -7.8000073, y: -31.800009, z: 0}
        outSlope: {x: -7.8000073, y: -31.800009, z: 0}
        tangentMode: 0
      m_PreInfinity: 2
      m_PostInfinity: 2
      m_RotationOrder: 4
    path: Huefte/Brust/Kopf/Sloth/SlothHandR_CTRL_GRP/SlothHandR_CTRL
  - curve:
      serializedVersion: 2
      m_Curve:
      - time: 0
        value: {x: -0.9956589, y: 20.27974, z: -0}
        inSlope: {x: 14.999989, y: 28.200005, z: 0}
        outSlope: {x: 14.999989, y: 28.200005, z: 0}
        tangentMode: 0
      - time: 0.16666667
        value: {x: 1.5043392, y: 24.97974, z: 0}
        inSlope: {x: -3, y: 12.899998, z: 0}
        outSlope: {x: -3, y: 12.899998, z: 0}
        tangentMode: 0
      - time: 0.33333334
        value: {x: -1.9956589, y: 24.579739, z: -0}
        inSlope: {x: -7.4999943, y: -14.100003, z: 0}
        outSlope: {x: -7.4999943, y: -14.100003, z: 0}
        tangentMode: 0
      - time: 0.5
        value: {x: -0.9956589, y: 20.27974, z: -0}
        inSlope: {x: 6.0000005, y: -25.799997, z: 0}
        outSlope: {x: 6.0000005, y: -25.799997, z: 0}
        tangentMode: 0
      m_PreInfinity: 2
      m_PostInfinity: 2
      m_RotationOrder: 4
    path: Huefte/Brust/Kopf/Sloth/SlothHandL_CTRL_GRP/SlothHandL_CTRL
  - curve:
      serializedVersion: 2
      m_Curve:
      - time: 0
        value: {x: -18.168741, y: 14.831744, z: -0}
        inSlope: {x: -7.5470705, y: 0, z: 0}
        outSlope: {x: -7.5470705, y: 0, z: 0}
        tangentMode: 0
      m_PreInfinity: 2
      m_PostInfinity: 2
      m_RotationOrder: 4
    path: Huefte/Brust/Kopf/Sloth
  m_ScaleCurves: []
  m_FloatCurves: []
  m_PPtrCurves: []
  m_SampleRate: 60
  m_WrapMode: 0
  m_Bounds:
    m_Center: {x: 0, y: 0, z: 0}
    m_Extent: {x: 0, y: 0, z: 0}
  m_ClipBindingConstant:
    genericBindings:
    - path: 2653634214
      attribute: 1
      script: {fileID: 0}
      classID: 4
      customType: 0
      isPPtrCurve: 0
    - path: 1745447703
      attribute: 1
      script: {fileID: 0}
      classID: 4
      customType: 0
      isPPtrCurve: 0
    - path: 3346385347
      attribute: 1
      script: {fileID: 0}
      classID: 4
      customType: 0
      isPPtrCurve: 0
    - path: 827825266
      attribute: 1
      script: {fileID: 0}
      classID: 4
      customType: 0
      isPPtrCurve: 0
    - path: 2932167421
      attribute: 1
      script: {fileID: 0}
      classID: 4
      customType: 0
      isPPtrCurve: 0
    - path: 1118931135
      attribute: 1
      script: {fileID: 0}
      classID: 4
      customType: 0
      isPPtrCurve: 0
    - path: 2752401062
      attribute: 1
      script: {fileID: 0}
      classID: 4
      customType: 0
      isPPtrCurve: 0
    - path: 4030751968
      attribute: 1
      script: {fileID: 0}
      classID: 4
      customType: 0
      isPPtrCurve: 0
    - path: 107098449
      attribute: 1
      script: {fileID: 0}
      classID: 4
      customType: 0
      isPPtrCurve: 0
    - path: 1215993060
      attribute: 1
      script: {fileID: 0}
      classID: 4
      customType: 0
      isPPtrCurve: 0
    - path: 1597818420
      attribute: 1
      script: {fileID: 0}
      classID: 4
      customType: 0
      isPPtrCurve: 0
    - path: 2465601524
      attribute: 1
      script: {fileID: 0}
      classID: 4
      customType: 0
      isPPtrCurve: 0
    - path: 1804590954
      attribute: 1
      script: {fileID: 0}
      classID: 4
      customType: 0
      isPPtrCurve: 0
    - path: 2793900456
      attribute: 1
      script: {fileID: 0}
      classID: 4
      customType: 0
      isPPtrCurve: 0
    - path: 1804795753
      attribute: 1
      script: {fileID: 0}
      classID: 4
      customType: 0
      isPPtrCurve: 0
    - path: 3395650270
      attribute: 1
      script: {fileID: 0}
      classID: 4
      customType: 0
      isPPtrCurve: 0
    - path: 4199396277
      attribute: 1
      script: {fileID: 0}
      classID: 4
      customType: 0
      isPPtrCurve: 0
    - path: 3685971962
      attribute: 1
      script: {fileID: 0}
      classID: 4
      customType: 0
      isPPtrCurve: 0
    - path: 1731249141
      attribute: 1
      script: {fileID: 0}
      classID: 4
      customType: 0
      isPPtrCurve: 0
    - path: 3339800587
      attribute: 1
      script: {fileID: 0}
      classID: 4
      customType: 0
      isPPtrCurve: 0
    - path: 3257212491
      attribute: 1
      script: {fileID: 0}
      classID: 4
      customType: 0
      isPPtrCurve: 0
    - path: 4199396277
      attribute: 4
      script: {fileID: 0}
      classID: 4
      customType: 14
      isPPtrCurve: 0
    - path: 3685971962
      attribute: 4
      script: {fileID: 0}
      classID: 4
      customType: 14
      isPPtrCurve: 0
    - path: 1731249141
      attribute: 4
      script: {fileID: 0}
      classID: 4
      customType: 14
      isPPtrCurve: 0
    - path: 3339800587
      attribute: 4
      script: {fileID: 0}
      classID: 4
      customType: 14
      isPPtrCurve: 0
    - path: 3257212491
      attribute: 4
      script: {fileID: 0}
      classID: 4
      customType: 14
      isPPtrCurve: 0
    - path: 2793900456
      attribute: 4
      script: {fileID: 0}
      classID: 4
      customType: 14
      isPPtrCurve: 0
    pptrCurveMapping: []
  m_AnimationClipSettings:
    serializedVersion: 2
    m_AdditiveReferencePoseClip: {fileID: 0}
    m_AdditiveReferencePoseTime: 0
    m_StartTime: 0
    m_StopTime: 0.5
    m_OrientationOffsetY: 0
    m_Level: 0
    m_CycleOffset: 0
    m_HasAdditiveReferencePose: 0
    m_LoopTime: 1
    m_LoopBlend: 0
    m_LoopBlendOrientation: 0
    m_LoopBlendPositionY: 0
    m_LoopBlendPositionXZ: 0
    m_KeepOriginalOrientation: 0
    m_KeepOriginalPositionY: 1
    m_KeepOriginalPositionXZ: 0
    m_HeightFromFeet: 0
    m_Mirror: 0
  m_EditorCurves:
  - curve:
      serializedVersion: 2
      m_Curve:
      - time: 0
        value: -39.5
        inSlope: 0
        outSlope: 0
        tangentMode: 10
      - time: 0.5
        value: -39.5
        inSlope: 0
        outSlope: 0
        tangentMode: 10
      m_PreInfinity: 2
      m_PostInfinity: 2
      m_RotationOrder: 4
    attribute: m_LocalPosition.x
    path: HandR_CTRL_GRP/HandR_CTRL
    classID: 4
    script: {fileID: 0}
  - curve:
      serializedVersion: 2
      m_Curve:
      - time: 0
        value: 44.7
        inSlope: 0
        outSlope: 0
        tangentMode: 10
      - time: 0.5
        value: 44.7
        inSlope: 0
        outSlope: 0
        tangentMode: 10
      m_PreInfinity: 2
      m_PostInfinity: 2
      m_RotationOrder: 4
    attribute: m_LocalPosition.y
    path: HandR_CTRL_GRP/HandR_CTRL
    classID: 4
    script: {fileID: 0}
  - curve:
      serializedVersion: 2
      m_Curve:
      - time: 0
        value: -0
        inSlope: 0
        outSlope: 0
        tangentMode: 10
      - time: 0.5
        value: -0
        inSlope: 0
        outSlope: 0
        tangentMode: 10
      m_PreInfinity: 2
      m_PostInfinity: 2
      m_RotationOrder: 4
    attribute: m_LocalPosition.z
    path: HandR_CTRL_GRP/HandR_CTRL
    classID: 4
    script: {fileID: 0}
  - curve:
      serializedVersion: 2
      m_Curve:
      - time: 0
        value: -3.7
        inSlope: 0
        outSlope: 0
        tangentMode: 10
      - time: 0.5
        value: -3.7
        inSlope: 0
        outSlope: 0
        tangentMode: 10
      m_PreInfinity: 2
      m_PostInfinity: 2
      m_RotationOrder: 4
    attribute: m_LocalPosition.x
    path: HandL_CTRL_GRP/HandL_CTRL
    classID: 4
    script: {fileID: 0}
  - curve:
      serializedVersion: 2
      m_Curve:
      - time: 0
        value: 66.1
        inSlope: 0
        outSlope: 0
        tangentMode: 10
      - time: 0.5
        value: 66.1
        inSlope: 0
        outSlope: 0
        tangentMode: 10
      m_PreInfinity: 2
      m_PostInfinity: 2
      m_RotationOrder: 4
    attribute: m_LocalPosition.y
    path: HandL_CTRL_GRP/HandL_CTRL
    classID: 4
    script: {fileID: 0}
  - curve:
      serializedVersion: 2
      m_Curve:
      - time: 0
        value: -0
        inSlope: 0
        outSlope: 0
        tangentMode: 10
      - time: 0.5
        value: -0
        inSlope: 0
        outSlope: 0
        tangentMode: 10
      m_PreInfinity: 2
      m_PostInfinity: 2
      m_RotationOrder: 4
    attribute: m_LocalPosition.z
    path: HandL_CTRL_GRP/HandL_CTRL
    classID: 4
    script: {fileID: 0}
  - curve:
      serializedVersion: 2
      m_Curve:
      - time: 0
        value: 0
        inSlope: 0
        outSlope: 0
        tangentMode: 10
      - time: 0.5
        value: 0
        inSlope: 0
        outSlope: 0
        tangentMode: 10
      m_PreInfinity: 2
      m_PostInfinity: 2
      m_RotationOrder: 4
    attribute: localEulerAnglesRaw.x
    path: Brust_CTRL_GRP/Brust_CTRL
    classID: 4
    script: {fileID: 0}
  - curve:
      serializedVersion: 2
      m_Curve:
      - time: 0
        value: 0
        inSlope: 0
        outSlope: 0
        tangentMode: 10
      - time: 0.5
        value: 0
        inSlope: 0
        outSlope: 0
        tangentMode: 10
      m_PreInfinity: 2
      m_PostInfinity: 2
      m_RotationOrder: 4
    attribute: localEulerAnglesRaw.y
    path: Brust_CTRL_GRP/Brust_CTRL
    classID: 4
    script: {fileID: 0}
  - curve:
      serializedVersion: 2
      m_Curve:
      - time: 0
        value: -6.1702
        inSlope: 0
        outSlope: 0
        tangentMode: 10
      - time: 0.5
        value: -6.1702
        inSlope: 0
        outSlope: 0
        tangentMode: 10
      m_PreInfinity: 2
      m_PostInfinity: 2
      m_RotationOrder: 4
    attribute: localEulerAnglesRaw.z
    path: Brust_CTRL_GRP/Brust_CTRL
    classID: 4
    script: {fileID: 0}
  - curve:
      serializedVersion: 2
      m_Curve:
      - time: 0
        value: -0.8700063
        inSlope: 0
        outSlope: 0
        tangentMode: 10
      - time: 0.5
        value: -0.8700063
        inSlope: 0
        outSlope: 0
        tangentMode: 10
      m_PreInfinity: 2
      m_PostInfinity: 2
      m_RotationOrder: 4
    attribute: m_LocalPosition.x
    path: Brust_CTRL_GRP/Brust_CTRL
    classID: 4
    script: {fileID: 0}
  - curve:
      serializedVersion: 2
      m_Curve:
      - time: 0
        value: 0.28000277
        inSlope: 0
        outSlope: 0
        tangentMode: 10
      - time: 0.5
        value: 0.28000277
        inSlope: 0
        outSlope: 0
        tangentMode: 10
      m_PreInfinity: 2
      m_PostInfinity: 2
      m_RotationOrder: 4
    attribute: m_LocalPosition.y
    path: Brust_CTRL_GRP/Brust_CTRL
    classID: 4
    script: {fileID: 0}
  - curve:
      serializedVersion: 2
      m_Curve:
      - time: 0
        value: 1.8742756e-13
        inSlope: 0
        outSlope: 0
        tangentMode: 10
      - time: 0.5
        value: 1.8742756e-13
        inSlope: 0
        outSlope: 0
        tangentMode: 10
      m_PreInfinity: 2
      m_PostInfinity: 2
      m_RotationOrder: 4
    attribute: m_LocalPosition.z
    path: Brust_CTRL_GRP/Brust_CTRL
    classID: 4
    script: {fileID: 0}
  - curve:
      serializedVersion: 2
      m_Curve:
      - time: 0
        value: 0.0075999997
        inSlope: 0
        outSlope: 0
        tangentMode: 10
      - time: 0.5
        value: 0.0075999997
        inSlope: 0
        outSlope: 0
        tangentMode: 10
      m_PreInfinity: 2
      m_PostInfinity: 2
      m_RotationOrder: 4
    attribute: localEulerAnglesRaw.x
    path: FussR_CTRL
    classID: 4
    script: {fileID: 0}
  - curve:
      serializedVersion: 2
      m_Curve:
      - time: 0
        value: -0.0011999999
        inSlope: 0
        outSlope: 0
        tangentMode: 10
      - time: 0.5
        value: -0.0011999999
        inSlope: 0
        outSlope: 0
        tangentMode: 10
      m_PreInfinity: 2
      m_PostInfinity: 2
      m_RotationOrder: 4
    attribute: localEulerAnglesRaw.y
    path: FussR_CTRL
    classID: 4
    script: {fileID: 0}
  - curve:
      serializedVersion: 2
      m_Curve:
      - time: 0
        value: 228.2726
        inSlope: 0
        outSlope: 0
        tangentMode: 10
      - time: 0.5
        value: 228.2726
        inSlope: 0
        outSlope: 0
        tangentMode: 10
      m_PreInfinity: 2
      m_PostInfinity: 2
      m_RotationOrder: 4
    attribute: localEulerAnglesRaw.z
    path: FussR_CTRL
    classID: 4
    script: {fileID: 0}
  - curve:
      serializedVersion: 2
      m_Curve:
      - time: 0
        value: -1.0000038
        inSlope: 0
        outSlope: 0
        tangentMode: 10
      - time: 0.5
        value: -1.0000038
        inSlope: 0
        outSlope: 0
        tangentMode: 10
      m_PreInfinity: 2
      m_PostInfinity: 2
      m_RotationOrder: 4
    attribute: m_LocalPosition.x
    path: FussR_CTRL
    classID: 4
    script: {fileID: 0}
  - curve:
      serializedVersion: 2
      m_Curve:
      - time: 0
        value: 16.599998
        inSlope: 0
        outSlope: 0
        tangentMode: 10
      - time: 0.5
        value: 16.599998
        inSlope: 0
        outSlope: 0
        tangentMode: 10
      m_PreInfinity: 2
      m_PostInfinity: 2
      m_RotationOrder: 4
    attribute: m_LocalPosition.y
    path: FussR_CTRL
    classID: 4
    script: {fileID: 0}
  - curve:
      serializedVersion: 2
      m_Curve:
      - time: 0
        value: 0
        inSlope: 0
        outSlope: 0
        tangentMode: 10
      - time: 0.5
        value: 0
        inSlope: 0
        outSlope: 0
        tangentMode: 10
      m_PreInfinity: 2
      m_PostInfinity: 2
      m_RotationOrder: 4
    attribute: m_LocalPosition.z
    path: FussR_CTRL
    classID: 4
    script: {fileID: 0}
  - curve:
      serializedVersion: 2
      m_Curve:
      - time: 0
        value: 0
        inSlope: 0
        outSlope: 0
        tangentMode: 10
      - time: 0.5
        value: 0
        inSlope: 0
        outSlope: 0
        tangentMode: 10
      m_PreInfinity: 2
      m_PostInfinity: 2
      m_RotationOrder: 4
    attribute: localEulerAnglesRaw.x
    path: FussL_CTRL_GRP/FussL_CTRL
    classID: 4
    script: {fileID: 0}
  - curve:
      serializedVersion: 2
      m_Curve:
      - time: 0
        value: 0
        inSlope: 0
        outSlope: 0
        tangentMode: 10
      - time: 0.5
        value: 0
        inSlope: 0
        outSlope: 0
        tangentMode: 10
      m_PreInfinity: 2
      m_PostInfinity: 2
      m_RotationOrder: 4
    attribute: localEulerAnglesRaw.y
    path: FussL_CTRL_GRP/FussL_CTRL
    classID: 4
    script: {fileID: 0}
  - curve:
      serializedVersion: 2
      m_Curve:
      - time: 0
        value: 308.3487
        inSlope: 0
        outSlope: 0
        tangentMode: 10
      - time: 0.5
        value: 308.3487
        inSlope: 0
        outSlope: 0
        tangentMode: 10
      m_PreInfinity: 2
      m_PostInfinity: 2
      m_RotationOrder: 4
    attribute: localEulerAnglesRaw.z
    path: FussL_CTRL_GRP/FussL_CTRL
    classID: 4
    script: {fileID: 0}
  - curve:
      serializedVersion: 2
      m_Curve:
      - time: 0
        value: 20.1
        inSlope: 0
        outSlope: 0
        tangentMode: 10
      - time: 0.5
        value: 20.1
        inSlope: 0
        outSlope: 0
        tangentMode: 10
      m_PreInfinity: 2
      m_PostInfinity: 2
      m_RotationOrder: 4
    attribute: m_LocalPosition.x
    path: FussL_CTRL_GRP/FussL_CTRL
    classID: 4
    script: {fileID: 0}
  - curve:
      serializedVersion: 2
      m_Curve:
      - time: 0
        value: -6.8
        inSlope: 0
        outSlope: 0
        tangentMode: 10
      - time: 0.5
        value: -6.8
        inSlope: 0
        outSlope: 0
        tangentMode: 10
      m_PreInfinity: 2
      m_PostInfinity: 2
      m_RotationOrder: 4
    attribute: m_LocalPosition.y
    path: FussL_CTRL_GRP/FussL_CTRL
    classID: 4
    script: {fileID: 0}
  - curve:
      serializedVersion: 2
      m_Curve:
      - time: 0
        value: 0
        inSlope: 0
        outSlope: 0
        tangentMode: 10
      - time: 0.5
        value: 0
        inSlope: 0
        outSlope: 0
        tangentMode: 10
      m_PreInfinity: 2
      m_PostInfinity: 2
      m_RotationOrder: 4
    attribute: m_LocalPosition.z
    path: FussL_CTRL_GRP/FussL_CTRL
    classID: 4
    script: {fileID: 0}
  - curve:
      serializedVersion: 2
      m_Curve:
      - time: 0
        value: -1.3
        inSlope: -1.2000003
        outSlope: -1.2000003
        tangentMode: 10
      - time: 0.25
        value: -1.6
        inSlope: 0
        outSlope: 0
        tangentMode: 10
      - time: 0.5
        value: -1.3
        inSlope: 1.2000003
        outSlope: 1.2000003
        tangentMode: 10
      m_PreInfinity: 2
      m_PostInfinity: 2
      m_RotationOrder: 4
    attribute: m_LocalPosition.x
    path: FFD_Ctrls_GRP_4/SlothGirl_Body_Ctrl_GRP_15/SlothGirl_Body_Ctrl_15
    classID: 4
    script: {fileID: 0}
  - curve:
      serializedVersion: 2
      m_Curve:
      - time: 0
        value: 3.9
        inSlope: 10
        outSlope: 10
        tangentMode: 10
      - time: 0.25
        value: 6.4
        inSlope: 0
        outSlope: 0
        tangentMode: 10
      - time: 0.5
        value: 3.9
        inSlope: -10
        outSlope: -10
        tangentMode: 10
      m_PreInfinity: 2
      m_PostInfinity: 2
      m_RotationOrder: 4
    attribute: m_LocalPosition.y
    path: FFD_Ctrls_GRP_4/SlothGirl_Body_Ctrl_GRP_15/SlothGirl_Body_Ctrl_15
    classID: 4
    script: {fileID: 0}
  - curve:
      serializedVersion: 2
      m_Curve:
      - time: 0
        value: 0
        inSlope: 0
        outSlope: 0
        tangentMode: 10
      - time: 0.25
        value: 0
        inSlope: 0
        outSlope: 0
        tangentMode: 10
      - time: 0.5
        value: 0
        inSlope: 0
        outSlope: 0
        tangentMode: 10
      m_PreInfinity: 2
      m_PostInfinity: 2
      m_RotationOrder: 4
    attribute: m_LocalPosition.z
    path: FFD_Ctrls_GRP_4/SlothGirl_Body_Ctrl_GRP_15/SlothGirl_Body_Ctrl_15
    classID: 4
    script: {fileID: 0}
  - curve:
      serializedVersion: 2
      m_Curve:
      - time: 0
        value: -7.3
        inSlope: 12
        outSlope: 12
        tangentMode: 10
      - time: 0.25
        value: -4.3
        inSlope: 0
        outSlope: 0
        tangentMode: 10
      - time: 0.5
        value: -7.3
        inSlope: -12
        outSlope: -12
        tangentMode: 10
      m_PreInfinity: 2
      m_PostInfinity: 2
      m_RotationOrder: 4
    attribute: m_LocalPosition.x
    path: FFD_Ctrls_GRP_4/SlothGirl_Body_Ctrl_GRP_14/SlothGirl_Body_Ctrl_14
    classID: 4
    script: {fileID: 0}
  - curve:
      serializedVersion: 2
      m_Curve:
      - time: 0
        value: 6.1
        inSlope: 10.4
        outSlope: 10.4
        tangentMode: 10
      - time: 0.25
        value: 8.7
        inSlope: 0
        outSlope: 0
        tangentMode: 10
      - time: 0.5
        value: 6.1
        inSlope: -10.4
        outSlope: -10.4
        tangentMode: 10
      m_PreInfinity: 2
      m_PostInfinity: 2
      m_RotationOrder: 4
    attribute: m_LocalPosition.y
    path: FFD_Ctrls_GRP_4/SlothGirl_Body_Ctrl_GRP_14/SlothGirl_Body_Ctrl_14
    classID: 4
    script: {fileID: 0}
  - curve:
      serializedVersion: 2
      m_Curve:
      - time: 0
        value: 0
        inSlope: 0
        outSlope: 0
        tangentMode: 10
      - time: 0.25
        value: 0
        inSlope: 0
        outSlope: 0
        tangentMode: 10
      - time: 0.5
        value: 0
        inSlope: 0
        outSlope: 0
        tangentMode: 10
      m_PreInfinity: 2
      m_PostInfinity: 2
      m_RotationOrder: 4
    attribute: m_LocalPosition.z
    path: FFD_Ctrls_GRP_4/SlothGirl_Body_Ctrl_GRP_14/SlothGirl_Body_Ctrl_14
    classID: 4
    script: {fileID: 0}
  - curve:
      serializedVersion: 2
      m_Curve:
      - time: 0
        value: -10.1
        inSlope: -4.799999
        outSlope: -4.799999
        tangentMode: 10
      - time: 0.25
        value: -11.3
        inSlope: 0
        outSlope: 0
        tangentMode: 10
      - time: 0.5
        value: -10.1
        inSlope: 4.799999
        outSlope: 4.799999
        tangentMode: 10
      m_PreInfinity: 2
      m_PostInfinity: 2
      m_RotationOrder: 4
    attribute: m_LocalPosition.x
    path: FFD_Ctrls_GRP_4/SlothGirl_Body_Ctrl_GRP_13/SlothGirl_Body_Ctrl_13
    classID: 4
    script: {fileID: 0}
  - curve:
      serializedVersion: 2
      m_Curve:
      - time: 0
        value: 6.3
        inSlope: 16
        outSlope: 16
        tangentMode: 10
      - time: 0.25
        value: 10.3
        inSlope: 0
        outSlope: 0
        tangentMode: 10
      - time: 0.5
        value: 6.3
        inSlope: -16
        outSlope: -16
        tangentMode: 10
      m_PreInfinity: 2
      m_PostInfinity: 2
      m_RotationOrder: 4
    attribute: m_LocalPosition.y
    path: FFD_Ctrls_GRP_4/SlothGirl_Body_Ctrl_GRP_13/SlothGirl_Body_Ctrl_13
    classID: 4
    script: {fileID: 0}
  - curve:
      serializedVersion: 2
      m_Curve:
      - time: 0
        value: 0
        inSlope: 0
        outSlope: 0
        tangentMode: 10
      - time: 0.25
        value: 0
        inSlope: 0
        outSlope: 0
        tangentMode: 10
      - time: 0.5
        value: 0
        inSlope: 0
        outSlope: 0
        tangentMode: 10
      m_PreInfinity: 2
      m_PostInfinity: 2
      m_RotationOrder: 4
    attribute: m_LocalPosition.z
    path: FFD_Ctrls_GRP_4/SlothGirl_Body_Ctrl_GRP_13/SlothGirl_Body_Ctrl_13
    classID: 4
    script: {fileID: 0}
  - curve:
      serializedVersion: 2
      m_Curve:
      - time: 0
        value: -5.7
        inSlope: -5.200001
        outSlope: -5.200001
        tangentMode: 10
      - time: 0.25
        value: -7
        inSlope: 0
        outSlope: 0
        tangentMode: 10
      - time: 0.5
        value: -5.7
        inSlope: 5.200001
        outSlope: 5.200001
        tangentMode: 10
      m_PreInfinity: 2
      m_PostInfinity: 2
      m_RotationOrder: 4
    attribute: m_LocalPosition.x
    path: FFD_Ctrls_GRP_4/SlothGirl_Body_Ctrl_GRP_12/SlothGirl_Body_Ctrl_12
    classID: 4
    script: {fileID: 0}
  - curve:
      serializedVersion: 2
      m_Curve:
      - time: 0
        value: 3.8
        inSlope: 4.8
        outSlope: 4.8
        tangentMode: 10
      - time: 0.25
        value: 5
        inSlope: 0
        outSlope: 0
        tangentMode: 10
      - time: 0.5
        value: 3.8
        inSlope: -4.8
        outSlope: -4.8
        tangentMode: 10
      m_PreInfinity: 2
      m_PostInfinity: 2
      m_RotationOrder: 4
    attribute: m_LocalPosition.y
    path: FFD_Ctrls_GRP_4/SlothGirl_Body_Ctrl_GRP_12/SlothGirl_Body_Ctrl_12
    classID: 4
    script: {fileID: 0}
  - curve:
      serializedVersion: 2
      m_Curve:
      - time: 0
        value: 0
        inSlope: 0
        outSlope: 0
        tangentMode: 10
      - time: 0.25
        value: 0
        inSlope: 0
        outSlope: 0
        tangentMode: 10
      - time: 0.5
        value: 0
        inSlope: 0
        outSlope: 0
        tangentMode: 10
      m_PreInfinity: 2
      m_PostInfinity: 2
      m_RotationOrder: 4
    attribute: m_LocalPosition.z
    path: FFD_Ctrls_GRP_4/SlothGirl_Body_Ctrl_GRP_12/SlothGirl_Body_Ctrl_12
    classID: 4
    script: {fileID: 0}
  - curve:
      serializedVersion: 2
      m_Curve:
      - time: 0
        value: -6
        inSlope: 21.2
        outSlope: 21.2
        tangentMode: 10
      - time: 0.25
        value: -0.7
        inSlope: 0
        outSlope: 0
        tangentMode: 10
      - time: 0.5
        value: -6
        inSlope: -21.2
        outSlope: -21.2
        tangentMode: 10
      m_PreInfinity: 2
      m_PostInfinity: 2
      m_RotationOrder: 4
    attribute: m_LocalPosition.x
    path: FFD_Ctrls_GRP_4/SlothGirl_Body_Ctrl_GRP_9/SlothGirl_Body_Ctrl_9
    classID: 4
    script: {fileID: 0}
  - curve:
      serializedVersion: 2
      m_Curve:
      - time: 0
        value: 2.8
        inSlope: -9.599999
        outSlope: -9.599999
        tangentMode: 10
      - time: 0.25
        value: 0.4
        inSlope: 0
        outSlope: 0
        tangentMode: 10
      - time: 0.5
        value: 2.8
        inSlope: 9.599999
        outSlope: 9.599999
        tangentMode: 10
      m_PreInfinity: 2
      m_PostInfinity: 2
      m_RotationOrder: 4
    attribute: m_LocalPosition.y
    path: FFD_Ctrls_GRP_4/SlothGirl_Body_Ctrl_GRP_9/SlothGirl_Body_Ctrl_9
    classID: 4
    script: {fileID: 0}
  - curve:
      serializedVersion: 2
      m_Curve:
      - time: 0
        value: 0
        inSlope: 0
        outSlope: 0
        tangentMode: 10
      - time: 0.25
        value: 0
        inSlope: 0
        outSlope: 0
        tangentMode: 10
      - time: 0.5
        value: 0
        inSlope: 0
        outSlope: 0
        tangentMode: 10
      m_PreInfinity: 2
      m_PostInfinity: 2
      m_RotationOrder: 4
    attribute: m_LocalPosition.z
    path: FFD_Ctrls_GRP_4/SlothGirl_Body_Ctrl_GRP_9/SlothGirl_Body_Ctrl_9
    classID: 4
    script: {fileID: 0}
  - curve:
      serializedVersion: 2
      m_Curve:
      - time: 0
        value: -4.2
        inSlope: 11.999999
        outSlope: 11.999999
        tangentMode: 10
      - time: 0.25
        value: -1.2
        inSlope: 0
        outSlope: 0
        tangentMode: 10
      - time: 0.5
        value: -4.2
        inSlope: -11.999999
        outSlope: -11.999999
        tangentMode: 10
      m_PreInfinity: 2
      m_PostInfinity: 2
      m_RotationOrder: 4
    attribute: m_LocalPosition.x
    path: FFD_Ctrls_GRP_4/SlothGirl_Body_Ctrl_GRP_8/SlothGirl_Body_Ctrl_8
    classID: 4
    script: {fileID: 0}
  - curve:
      serializedVersion: 2
      m_Curve:
      - time: 0
        value: -0.3
        inSlope: -8.400001
        outSlope: -8.400001
        tangentMode: 10
      - time: 0.25
        value: -2.4
        inSlope: 0
        outSlope: 0
        tangentMode: 10
      - time: 0.5
        value: -0.3
        inSlope: 8.400001
        outSlope: 8.400001
        tangentMode: 10
      m_PreInfinity: 2
      m_PostInfinity: 2
      m_RotationOrder: 4
    attribute: m_LocalPosition.y
    path: FFD_Ctrls_GRP_4/SlothGirl_Body_Ctrl_GRP_8/SlothGirl_Body_Ctrl_8
    classID: 4
    script: {fileID: 0}
  - curve:
      serializedVersion: 2
      m_Curve:
      - time: 0
        value: 0
        inSlope: 0
        outSlope: 0
        tangentMode: 10
      - time: 0.25
        value: 0
        inSlope: 0
        outSlope: 0
        tangentMode: 10
      - time: 0.5
        value: 0
        inSlope: 0
        outSlope: 0
        tangentMode: 10
      m_PreInfinity: 2
      m_PostInfinity: 2
      m_RotationOrder: 4
    attribute: m_LocalPosition.z
    path: FFD_Ctrls_GRP_4/SlothGirl_Body_Ctrl_GRP_8/SlothGirl_Body_Ctrl_8
    classID: 4
    script: {fileID: 0}
  - curve:
      serializedVersion: 2
      m_Curve:
      - time: 0
        value: 0.6
        inSlope: -11.200001
        outSlope: -11.200001
        tangentMode: 10
      - time: 0.25
        value: -2.2
        inSlope: 0
        outSlope: 0
        tangentMode: 10
      - time: 0.5
        value: 0.6
        inSlope: 11.200001
        outSlope: 11.200001
        tangentMode: 10
      m_PreInfinity: 2
      m_PostInfinity: 2
      m_RotationOrder: 4
    attribute: m_LocalPosition.x
    path: FFD_Ctrls_GRP_4/SlothGirl_Body_Ctrl_GRP_7/SlothGirl_Body_Ctrl_7
    classID: 4
    script: {fileID: 0}
  - curve:
      serializedVersion: 2
      m_Curve:
      - time: 0
        value: -1.9
        inSlope: 0
        outSlope: 0
        tangentMode: 10
      - time: 0.25
        value: -1.9
        inSlope: 0
        outSlope: 0
        tangentMode: 10
      - time: 0.5
        value: -1.9
        inSlope: 0
        outSlope: 0
        tangentMode: 10
      m_PreInfinity: 2
      m_PostInfinity: 2
      m_RotationOrder: 4
    attribute: m_LocalPosition.y
    path: FFD_Ctrls_GRP_4/SlothGirl_Body_Ctrl_GRP_7/SlothGirl_Body_Ctrl_7
    classID: 4
    script: {fileID: 0}
  - curve:
      serializedVersion: 2
      m_Curve:
      - time: 0
        value: 0
        inSlope: 0
        outSlope: 0
        tangentMode: 10
      - time: 0.25
        value: 0
        inSlope: 0
        outSlope: 0
        tangentMode: 10
      - time: 0.5
        value: 0
        inSlope: 0
        outSlope: 0
        tangentMode: 10
      m_PreInfinity: 2
      m_PostInfinity: 2
      m_RotationOrder: 4
    attribute: m_LocalPosition.z
    path: FFD_Ctrls_GRP_4/SlothGirl_Body_Ctrl_GRP_7/SlothGirl_Body_Ctrl_7
    classID: 4
    script: {fileID: 0}
  - curve:
      serializedVersion: 2
      m_Curve:
      - time: 0
        value: -5.3
        inSlope: -4
        outSlope: -4
        tangentMode: 10
      - time: 0.25
        value: -6.3
        inSlope: 0
        outSlope: 0
        tangentMode: 10
      - time: 0.5
        value: -5.3
        inSlope: 4
        outSlope: 4
        tangentMode: 10
      m_PreInfinity: 2
      m_PostInfinity: 2
      m_RotationOrder: 4
    attribute: m_LocalPosition.x
    path: FFD_Ctrls_GRP_4/SlothGirl_Body_Ctrl_GRP_11/SlothGirl_Body_Ctrl_11
    classID: 4
    script: {fileID: 0}
  - curve:
      serializedVersion: 2
      m_Curve:
      - time: 0
        value: 1.8
        inSlope: 0.4000001
        outSlope: 0.4000001
        tangentMode: 10
      - time: 0.25
        value: 1.9
        inSlope: 0
        outSlope: 0
        tangentMode: 10
      - time: 0.5
        value: 1.8
        inSlope: -0.4000001
        outSlope: -0.4000001
        tangentMode: 10
      m_PreInfinity: 2
      m_PostInfinity: 2
      m_RotationOrder: 4
    attribute: m_LocalPosition.y
    path: FFD_Ctrls_GRP_4/SlothGirl_Body_Ctrl_GRP_11/SlothGirl_Body_Ctrl_11
    classID: 4
    script: {fileID: 0}
  - curve:
      serializedVersion: 2
      m_Curve:
      - time: 0
        value: 0
        inSlope: 0
        outSlope: 0
        tangentMode: 10
      - time: 0.25
        value: 0
        inSlope: 0
        outSlope: 0
        tangentMode: 10
      - time: 0.5
        value: 0
        inSlope: 0
        outSlope: 0
        tangentMode: 10
      m_PreInfinity: 2
      m_PostInfinity: 2
      m_RotationOrder: 4
    attribute: m_LocalPosition.z
    path: FFD_Ctrls_GRP_4/SlothGirl_Body_Ctrl_GRP_11/SlothGirl_Body_Ctrl_11
    classID: 4
    script: {fileID: 0}
  - curve:
      serializedVersion: 2
      m_Curve:
      - time: 0
        value: -4.8
        inSlope: -11.199999
        outSlope: -11.199999
        tangentMode: 10
      - time: 0.25
        value: -7.6
        inSlope: 0
        outSlope: 0
        tangentMode: 10
      - time: 0.5
        value: -4.8
        inSlope: 11.199999
        outSlope: 11.199999
        tangentMode: 10
      m_PreInfinity: 2
      m_PostInfinity: 2
      m_RotationOrder: 4
    attribute: m_LocalPosition.x
    path: FFD_Ctrls_GRP_4/SlothGirl_Body_Ctrl_GRP_10/SlothGirl_Body_Ctrl_10
    classID: 4
    script: {fileID: 0}
  - curve:
      serializedVersion: 2
      m_Curve:
      - time: 0
        value: 2
        inSlope: -2.4
        outSlope: -2.4
        tangentMode: 10
      - time: 0.25
        value: 1.4
        inSlope: 0
        outSlope: 0
        tangentMode: 10
      - time: 0.5
        value: 2
        inSlope: 2.4
        outSlope: 2.4
        tangentMode: 10
      m_PreInfinity: 2
      m_PostInfinity: 2
      m_RotationOrder: 4
    attribute: m_LocalPosition.y
    path: FFD_Ctrls_GRP_4/SlothGirl_Body_Ctrl_GRP_10/SlothGirl_Body_Ctrl_10
    classID: 4
    script: {fileID: 0}
  - curve:
      serializedVersion: 2
      m_Curve:
      - time: 0
        value: 0
        inSlope: 0
        outSlope: 0
        tangentMode: 10
      - time: 0.25
        value: 0
        inSlope: 0
        outSlope: 0
        tangentMode: 10
      - time: 0.5
        value: 0
        inSlope: 0
        outSlope: 0
        tangentMode: 10
      m_PreInfinity: 2
      m_PostInfinity: 2
      m_RotationOrder: 4
    attribute: m_LocalPosition.z
    path: FFD_Ctrls_GRP_4/SlothGirl_Body_Ctrl_GRP_10/SlothGirl_Body_Ctrl_10
    classID: 4
    script: {fileID: 0}
  - curve:
      serializedVersion: 2
      m_Curve:
      - time: 0
        value: 0
        inSlope: 0
        outSlope: 0
        tangentMode: 10
      - time: 0.5
        value: 0
        inSlope: 0
        outSlope: 0
        tangentMode: 10
      m_PreInfinity: 2
      m_PostInfinity: 2
      m_RotationOrder: 4
    attribute: localEulerAnglesRaw.x
    path: Kopf_CTRL_GRP/Kopf_CTRL
    classID: 4
    script: {fileID: 0}
  - curve:
      serializedVersion: 2
      m_Curve:
      - time: 0
        value: 0
        inSlope: 0
        outSlope: 0
        tangentMode: 10
      - time: 0.5
        value: 0
        inSlope: 0
        outSlope: 0
        tangentMode: 10
      m_PreInfinity: 2
      m_PostInfinity: 2
      m_RotationOrder: 4
    attribute: localEulerAnglesRaw.y
    path: Kopf_CTRL_GRP/Kopf_CTRL
    classID: 4
    script: {fileID: 0}
  - curve:
      serializedVersion: 2
      m_Curve:
      - time: 0
        value: -10.6249
        inSlope: 0
        outSlope: 0
        tangentMode: 10
      - time: 0.5
        value: -10.6249
        inSlope: 0
        outSlope: 0
        tangentMode: 10
      m_PreInfinity: 2
      m_PostInfinity: 2
      m_RotationOrder: 4
    attribute: localEulerAnglesRaw.z
    path: Kopf_CTRL_GRP/Kopf_CTRL
    classID: 4
    script: {fileID: 0}
  - curve:
      serializedVersion: 2
      m_Curve:
      - time: 0
        value: -0.000007629406
        inSlope: 0
        outSlope: 0
        tangentMode: 10
      - time: 0.5
        value: -0.000007629406
        inSlope: 0
        outSlope: 0
        tangentMode: 10
      m_PreInfinity: 2
      m_PostInfinity: 2
      m_RotationOrder: 4
    attribute: m_LocalPosition.x
    path: Kopf_CTRL_GRP/Kopf_CTRL
    classID: 4
    script: {fileID: 0}
  - curve:
      serializedVersion: 2
      m_Curve:
      - time: 0
        value: -0.0000076293827
        inSlope: 0
        outSlope: 0
        tangentMode: 10
      - time: 0.5
        value: -0.0000076293827
        inSlope: 0
        outSlope: 0
        tangentMode: 10
      m_PreInfinity: 2
      m_PostInfinity: 2
      m_RotationOrder: 4
    attribute: m_LocalPosition.y
    path: Kopf_CTRL_GRP/Kopf_CTRL
    classID: 4
    script: {fileID: 0}
  - curve:
      serializedVersion: 2
      m_Curve:
      - time: 0
        value: 7.287098e-18
        inSlope: 0
        outSlope: 0
        tangentMode: 10
      - time: 0.5
        value: 7.287098e-18
        inSlope: 0
        outSlope: 0
        tangentMode: 10
      m_PreInfinity: 2
      m_PostInfinity: 2
      m_RotationOrder: 4
    attribute: m_LocalPosition.z
    path: Kopf_CTRL_GRP/Kopf_CTRL
    classID: 4
    script: {fileID: 0}
  - curve:
      serializedVersion: 2
      m_Curve:
      - time: 0
        value: -1
        inSlope: -5.2
        outSlope: -5.2
        tangentMode: 10
      - time: 0.25
        value: -2.3
        inSlope: 0
        outSlope: 0
        tangentMode: 10
      - time: 0.5
        value: -1
        inSlope: 5.2
        outSlope: 5.2
        tangentMode: 10
      m_PreInfinity: 2
      m_PostInfinity: 2
      m_RotationOrder: 4
    attribute: m_LocalPosition.x
    path: FFD_Ctrls_GRP_4/SlothGirl_Body_Ctrl_GRP_6/SlothGirl_Body_Ctrl_6
    classID: 4
    script: {fileID: 0}
  - curve:
      serializedVersion: 2
      m_Curve:
      - time: 0
        value: 0.5
        inSlope: 1.2
        outSlope: 1.2
        tangentMode: 10
      - time: 0.25
        value: 0.8
        inSlope: 0
        outSlope: 0
        tangentMode: 10
      - time: 0.5
        value: 0.5
        inSlope: -1.2
        outSlope: -1.2
        tangentMode: 10
      m_PreInfinity: 2
      m_PostInfinity: 2
      m_RotationOrder: 4
    attribute: m_LocalPosition.y
    path: FFD_Ctrls_GRP_4/SlothGirl_Body_Ctrl_GRP_6/SlothGirl_Body_Ctrl_6
    classID: 4
    script: {fileID: 0}
  - curve:
      serializedVersion: 2
      m_Curve:
      - time: 0
        value: 0
        inSlope: 0
        outSlope: 0
        tangentMode: 10
      - time: 0.25
        value: 0
        inSlope: 0
        outSlope: 0
        tangentMode: 10
      - time: 0.5
        value: 0
        inSlope: 0
        outSlope: 0
        tangentMode: 10
      m_PreInfinity: 2
      m_PostInfinity: 2
      m_RotationOrder: 4
    attribute: m_LocalPosition.z
    path: FFD_Ctrls_GRP_4/SlothGirl_Body_Ctrl_GRP_6/SlothGirl_Body_Ctrl_6
    classID: 4
    script: {fileID: 0}
  - curve:
      serializedVersion: 2
      m_Curve:
      - time: 0
        value: 0
        inSlope: -0.8
        outSlope: -0.8
        tangentMode: 10
      - time: 0.25
        value: -0.2
        inSlope: 0
        outSlope: 0
        tangentMode: 10
      - time: 0.5
        value: 0
        inSlope: 0.8
        outSlope: 0.8
        tangentMode: 10
      m_PreInfinity: 2
      m_PostInfinity: 2
      m_RotationOrder: 4
    attribute: m_LocalPosition.x
    path: FFD_Ctrls_GRP_4/SlothGirl_Body_Ctrl_GRP_16/SlothGirl_Body_Ctrl_16
    classID: 4
    script: {fileID: 0}
  - curve:
      serializedVersion: 2
      m_Curve:
      - time: 0
        value: 0
        inSlope: 4
        outSlope: 4
        tangentMode: 10
      - time: 0.25
        value: 1
        inSlope: 0
        outSlope: 0
        tangentMode: 10
      - time: 0.5
        value: 0
        inSlope: -4
        outSlope: -4
        tangentMode: 10
      m_PreInfinity: 2
      m_PostInfinity: 2
      m_RotationOrder: 4
    attribute: m_LocalPosition.y
    path: FFD_Ctrls_GRP_4/SlothGirl_Body_Ctrl_GRP_16/SlothGirl_Body_Ctrl_16
    classID: 4
    script: {fileID: 0}
  - curve:
      serializedVersion: 2
      m_Curve:
      - time: 0
        value: 0
        inSlope: 0
        outSlope: 0
        tangentMode: 10
      - time: 0.25
        value: 0
        inSlope: 0
        outSlope: 0
        tangentMode: 10
      - time: 0.5
        value: 0
        inSlope: 0
        outSlope: 0
        tangentMode: 10
      m_PreInfinity: 2
      m_PostInfinity: 2
      m_RotationOrder: 4
    attribute: m_LocalPosition.z
    path: FFD_Ctrls_GRP_4/SlothGirl_Body_Ctrl_GRP_16/SlothGirl_Body_Ctrl_16
    classID: 4
    script: {fileID: 0}
  - curve:
      serializedVersion: 2
      m_Curve:
      - time: 0
        value: 0
        inSlope: 0
        outSlope: 0
        tangentMode: 10
      - time: 0.5
        value: 0
        inSlope: 0
        outSlope: 0
        tangentMode: 10
      m_PreInfinity: 2
      m_PostInfinity: 2
      m_RotationOrder: 4
    attribute: localEulerAnglesRaw.x
    path: Huefte_CTRL_GRP/Huefte_CTRL
    classID: 4
    script: {fileID: 0}
  - curve:
      serializedVersion: 2
      m_Curve:
      - time: 0
        value: 0
        inSlope: 0
        outSlope: 0
        tangentMode: 10
      - time: 0.5
        value: 0
        inSlope: 0
        outSlope: 0
        tangentMode: 10
      m_PreInfinity: 2
      m_PostInfinity: 2
      m_RotationOrder: 4
    attribute: localEulerAnglesRaw.y
    path: Huefte_CTRL_GRP/Huefte_CTRL
    classID: 4
    script: {fileID: 0}
  - curve:
      serializedVersion: 2
      m_Curve:
      - time: 0
        value: -11.6161995
        inSlope: 0
        outSlope: 0
        tangentMode: 10
      - time: 0.5
        value: -11.6161995
        inSlope: 0
        outSlope: 0
        tangentMode: 10
      m_PreInfinity: 2
      m_PostInfinity: 2
      m_RotationOrder: 4
    attribute: localEulerAnglesRaw.z
    path: Huefte_CTRL_GRP/Huefte_CTRL
    classID: 4
    script: {fileID: 0}
  - curve:
      serializedVersion: 2
      m_Curve:
      - time: 0
        value: -5.500006
        inSlope: 0
        outSlope: 0
        tangentMode: 10
      - time: 0.5
        value: -5.500006
        inSlope: 0
        outSlope: 0
        tangentMode: 10
      m_PreInfinity: 2
      m_PostInfinity: 2
      m_RotationOrder: 4
    attribute: m_LocalPosition.x
    path: Huefte_CTRL_GRP/Huefte_CTRL
    classID: 4
    script: {fileID: 0}
  - curve:
      serializedVersion: 2
      m_Curve:
      - time: 0
        value: 2.8000016
        inSlope: 0
        outSlope: 0
        tangentMode: 10
      - time: 0.5
        value: 2.8000016
        inSlope: 0
        outSlope: 0
        tangentMode: 10
      m_PreInfinity: 2
      m_PostInfinity: 2
      m_RotationOrder: 4
    attribute: m_LocalPosition.y
    path: Huefte_CTRL_GRP/Huefte_CTRL
    classID: 4
    script: {fileID: 0}
  - curve:
      serializedVersion: 2
      m_Curve:
      - time: 0
        value: -1.7053026e-13
        inSlope: 0
        outSlope: 0
        tangentMode: 10
      - time: 0.5
        value: -1.7053026e-13
        inSlope: 0
        outSlope: 0
        tangentMode: 10
      m_PreInfinity: 2
      m_PostInfinity: 2
      m_RotationOrder: 4
    attribute: m_LocalPosition.z
    path: Huefte_CTRL_GRP/Huefte_CTRL
    classID: 4
    script: {fileID: 0}
  - curve:
      serializedVersion: 2
      m_Curve:
      - time: 0
        value: 15.4
        inSlope: -4.7999954
        outSlope: -4.7999954
        tangentMode: 10
      - time: 0.16666667
        value: 14.6
        inSlope: 3.9000034
        outSlope: 3.9000034
        tangentMode: 10
      - time: 0.33333334
        value: 16.7
        inSlope: 2.3999975
        outSlope: 2.3999975
        tangentMode: 10
      - time: 0.5
        value: 15.4
        inSlope: -7.8000073
        outSlope: -7.8000073
        tangentMode: 10
      m_PreInfinity: 2
      m_PostInfinity: 2
      m_RotationOrder: 4
    attribute: m_LocalPosition.x
    path: Huefte/Brust/Kopf/Sloth/SlothHandR_CTRL_GRP/SlothHandR_CTRL
    classID: 4
    script: {fileID: 0}
  - curve:
      serializedVersion: 2
      m_Curve:
      - time: 0
        value: 21.4
        inSlope: 43.200005
        outSlope: 43.200005
        tangentMode: 10
      - time: 0.16666667
        value: 28.6
        inSlope: 15.900003
        outSlope: 15.900003
        tangentMode: 10
      - time: 0.33333334
        value: 26.7
        inSlope: -21.600002
        outSlope: -21.600002
        tangentMode: 10
      - time: 0.5
        value: 21.4
        inSlope: -31.800009
        outSlope: -31.800009
        tangentMode: 10
      m_PreInfinity: 2
      m_PostInfinity: 2
      m_RotationOrder: 4
    attribute: m_LocalPosition.y
    path: Huefte/Brust/Kopf/Sloth/SlothHandR_CTRL_GRP/SlothHandR_CTRL
    classID: 4
    script: {fileID: 0}
  - curve:
      serializedVersion: 2
      m_Curve:
      - time: 0
        value: 0
        inSlope: -0
        outSlope: -0
        tangentMode: 10
      - time: 0.16666667
        value: -0
        inSlope: 0
        outSlope: 0
        tangentMode: 10
      - time: 0.33333334
        value: 0
        inSlope: 0
        outSlope: 0
        tangentMode: 10
      - time: 0.5
        value: 0
        inSlope: 0
        outSlope: 0
        tangentMode: 10
      m_PreInfinity: 2
      m_PostInfinity: 2
      m_RotationOrder: 4
    attribute: m_LocalPosition.z
    path: Huefte/Brust/Kopf/Sloth/SlothHandR_CTRL_GRP/SlothHandR_CTRL
    classID: 4
    script: {fileID: 0}
  - curve:
      serializedVersion: 2
      m_Curve:
      - time: 0
        value: -0.9956589
        inSlope: 14.999989
        outSlope: 14.999989
        tangentMode: 10
      - time: 0.16666667
        value: 1.5043392
        inSlope: -3
        outSlope: -3
        tangentMode: 10
      - time: 0.33333334
        value: -1.9956589
        inSlope: -7.4999943
        outSlope: -7.4999943
        tangentMode: 10
      - time: 0.5
        value: -0.9956589
        inSlope: 6.0000005
        outSlope: 6.0000005
        tangentMode: 10
      m_PreInfinity: 2
      m_PostInfinity: 2
      m_RotationOrder: 4
    attribute: m_LocalPosition.x
    path: Huefte/Brust/Kopf/Sloth/SlothHandL_CTRL_GRP/SlothHandL_CTRL
    classID: 4
    script: {fileID: 0}
  - curve:
      serializedVersion: 2
      m_Curve:
      - time: 0
        value: 20.27974
        inSlope: 28.200005
        outSlope: 28.200005
        tangentMode: 10
      - time: 0.16666667
        value: 24.97974
        inSlope: 12.899998
        outSlope: 12.899998
        tangentMode: 10
      - time: 0.33333334
        value: 24.579739
        inSlope: -14.100003
        outSlope: -14.100003
        tangentMode: 10
      - time: 0.5
        value: 20.27974
        inSlope: -25.799997
        outSlope: -25.799997
        tangentMode: 10
      m_PreInfinity: 2
      m_PostInfinity: 2
      m_RotationOrder: 4
    attribute: m_LocalPosition.y
    path: Huefte/Brust/Kopf/Sloth/SlothHandL_CTRL_GRP/SlothHandL_CTRL
    classID: 4
    script: {fileID: 0}
  - curve:
      serializedVersion: 2
      m_Curve:
      - time: 0
        value: -0
        inSlope: 0
        outSlope: 0
        tangentMode: 10
      - time: 0.16666667
        value: 0
        inSlope: 0
        outSlope: 0
        tangentMode: 10
      - time: 0.33333334
        value: -0
        inSlope: 0
        outSlope: 0
        tangentMode: 10
      - time: 0.5
        value: -0
        inSlope: 0
        outSlope: 0
        tangentMode: 10
      m_PreInfinity: 2
      m_PostInfinity: 2
      m_RotationOrder: 4
    attribute: m_LocalPosition.z
    path: Huefte/Brust/Kopf/Sloth/SlothHandL_CTRL_GRP/SlothHandL_CTRL
    classID: 4
    script: {fileID: 0}
  - curve:
      serializedVersion: 2
      m_Curve:
      - time: 0
        value: 0
        inSlope: 0
        outSlope: 0
        tangentMode: 10
      m_PreInfinity: 2
      m_PostInfinity: 2
      m_RotationOrder: 4
    attribute: localEulerAnglesRaw.x
    path: Huefte/Brust/Kopf/Sloth
    classID: 4
    script: {fileID: 0}
  - curve:
      serializedVersion: 2
      m_Curve:
      - time: 0
        value: 0
        inSlope: 0
        outSlope: 0
        tangentMode: 10
      m_PreInfinity: 2
      m_PostInfinity: 2
      m_RotationOrder: 4
    attribute: localEulerAnglesRaw.y
    path: Huefte/Brust/Kopf/Sloth
    classID: 4
    script: {fileID: 0}
  - curve:
      serializedVersion: 2
      m_Curve:
      - time: 0
        value: 4.7948
        inSlope: -13.699383
        outSlope: -13.699383
        tangentMode: 10
      m_PreInfinity: 2
      m_PostInfinity: 2
      m_RotationOrder: 4
    attribute: localEulerAnglesRaw.z
    path: Huefte/Brust/Kopf/Sloth
    classID: 4
    script: {fileID: 0}
  - curve:
      serializedVersion: 2
      m_Curve:
      - time: 0
        value: -18.168741
        inSlope: -7.5470705
        outSlope: -7.5470705
        tangentMode: 10
      m_PreInfinity: 2
      m_PostInfinity: 2
      m_RotationOrder: 4
    attribute: m_LocalPosition.x
    path: Huefte/Brust/Kopf/Sloth
    classID: 4
    script: {fileID: 0}
  - curve:
      serializedVersion: 2
      m_Curve:
      - time: 0
        value: 14.831744
        inSlope: 4.7107534
        outSlope: 4.7107534
        tangentMode: 10
      m_PreInfinity: 2
      m_PostInfinity: 2
      m_RotationOrder: 4
    attribute: m_LocalPosition.y
    path: Huefte/Brust/Kopf/Sloth
    classID: 4
    script: {fileID: 0}
  - curve:
      serializedVersion: 2
      m_Curve:
      - time: 0
        value: -0
        inSlope: 1.0223245e-12
        outSlope: 1.0223245e-12
        tangentMode: 10
      m_PreInfinity: 2
      m_PostInfinity: 2
      m_RotationOrder: 4
    attribute: m_LocalPosition.z
    path: Huefte/Brust/Kopf/Sloth
    classID: 4
    script: {fileID: 0}
  m_EulerEditorCurves:
  - curve:
      serializedVersion: 2
      m_Curve: []
      m_PreInfinity: 2
      m_PostInfinity: 2
      m_RotationOrder: 4
    attribute: m_LocalEulerAngles.z
    path: FussL_CTRL_GRP/FussL_CTRL
    classID: 4
    script: {fileID: 0}
  - curve:
      serializedVersion: 2
      m_Curve: []
      m_PreInfinity: 2
      m_PostInfinity: 2
      m_RotationOrder: 4
    attribute: m_LocalEulerAngles.y
    path: FussL_CTRL_GRP/FussL_CTRL
    classID: 4
    script: {fileID: 0}
  - curve:
      serializedVersion: 2
      m_Curve: []
      m_PreInfinity: 2
      m_PostInfinity: 2
      m_RotationOrder: 4
    attribute: m_LocalEulerAngles.x
    path: FussL_CTRL_GRP/FussL_CTRL
    classID: 4
    script: {fileID: 0}
  - curve:
      serializedVersion: 2
      m_Curve: []
      m_PreInfinity: 2
      m_PostInfinity: 2
      m_RotationOrder: 4
    attribute: m_LocalEulerAngles.z
    path: Brust_CTRL_GRP/Brust_CTRL
    classID: 4
    script: {fileID: 0}
  - curve:
      serializedVersion: 2
      m_Curve: []
      m_PreInfinity: 2
      m_PostInfinity: 2
      m_RotationOrder: 4
    attribute: m_LocalEulerAngles.y
    path: Brust_CTRL_GRP/Brust_CTRL
    classID: 4
    script: {fileID: 0}
  - curve:
      serializedVersion: 2
      m_Curve: []
      m_PreInfinity: 2
      m_PostInfinity: 2
      m_RotationOrder: 4
    attribute: m_LocalEulerAngles.x
    path: Brust_CTRL_GRP/Brust_CTRL
    classID: 4
    script: {fileID: 0}
  - curve:
      serializedVersion: 2
      m_Curve: []
      m_PreInfinity: 2
      m_PostInfinity: 2
      m_RotationOrder: 4
    attribute: m_LocalEulerAngles.z
    path: Huefte_CTRL_GRP/Huefte_CTRL
    classID: 4
    script: {fileID: 0}
  - curve:
      serializedVersion: 2
      m_Curve: []
      m_PreInfinity: 2
      m_PostInfinity: 2
      m_RotationOrder: 4
    attribute: m_LocalEulerAngles.y
    path: Huefte_CTRL_GRP/Huefte_CTRL
    classID: 4
    script: {fileID: 0}
  - curve:
      serializedVersion: 2
      m_Curve: []
      m_PreInfinity: 2
      m_PostInfinity: 2
      m_RotationOrder: 4
    attribute: m_LocalEulerAngles.x
    path: Huefte_CTRL_GRP/Huefte_CTRL
    classID: 4
    script: {fileID: 0}
  - curve:
      serializedVersion: 2
      m_Curve: []
      m_PreInfinity: 2
      m_PostInfinity: 2
      m_RotationOrder: 4
    attribute: m_LocalEulerAngles.z
    path: Kopf_CTRL_GRP/Kopf_CTRL
    classID: 4
    script: {fileID: 0}
  - curve:
      serializedVersion: 2
      m_Curve: []
      m_PreInfinity: 2
      m_PostInfinity: 2
      m_RotationOrder: 4
    attribute: m_LocalEulerAngles.y
    path: Kopf_CTRL_GRP/Kopf_CTRL
    classID: 4
    script: {fileID: 0}
  - curve:
      serializedVersion: 2
      m_Curve: []
      m_PreInfinity: 2
      m_PostInfinity: 2
      m_RotationOrder: 4
    attribute: m_LocalEulerAngles.x
    path: Kopf_CTRL_GRP/Kopf_CTRL
    classID: 4
    script: {fileID: 0}
  - curve:
      serializedVersion: 2
      m_Curve: []
      m_PreInfinity: 2
      m_PostInfinity: 2
      m_RotationOrder: 4
    attribute: m_LocalEulerAngles.z
    path: FussR_CTRL
    classID: 4
    script: {fileID: 0}
  - curve:
      serializedVersion: 2
      m_Curve: []
      m_PreInfinity: 2
      m_PostInfinity: 2
      m_RotationOrder: 4
    attribute: m_LocalEulerAngles.y
    path: FussR_CTRL
    classID: 4
    script: {fileID: 0}
  - curve:
      serializedVersion: 2
      m_Curve: []
      m_PreInfinity: 2
      m_PostInfinity: 2
      m_RotationOrder: 4
    attribute: m_LocalEulerAngles.x
    path: FussR_CTRL
    classID: 4
    script: {fileID: 0}
  - curve:
      serializedVersion: 2
      m_Curve: []
      m_PreInfinity: 2
      m_PostInfinity: 2
      m_RotationOrder: 4
    attribute: m_LocalEulerAngles.x
    path: Huefte/Brust/Kopf/Sloth
    classID: 4
    script: {fileID: 0}
  - curve:
      serializedVersion: 2
      m_Curve: []
      m_PreInfinity: 2
      m_PostInfinity: 2
      m_RotationOrder: 4
    attribute: m_LocalEulerAngles.y
    path: Huefte/Brust/Kopf/Sloth
    classID: 4
    script: {fileID: 0}
  - curve:
      serializedVersion: 2
      m_Curve: []
      m_PreInfinity: 2
      m_PostInfinity: 2
      m_RotationOrder: 4
    attribute: m_LocalEulerAngles.z
    path: Huefte/Brust/Kopf/Sloth
    classID: 4
    script: {fileID: 0}
  m_HasGenericRootTransform: 0
  m_HasMotionFloatCurves: 0
  m_GenerateMotionCurves: 0
  m_Events: []
