%YAML 1.1
%TAG !u! tag:unity3d.com,2011:
--- !u!74 &7400000
AnimationClip:
  m_ObjectHideFlags: 0
  m_PrefabParentObject: {fileID: 0}
  m_PrefabInternal: {fileID: 0}
  m_Name: Slothgirl_StompenMitteNEU
  serializedVersion: 6
  m_Legacy: 0
  m_Compressed: 0
  m_UseHighQualityCurve: 1
  m_RotationCurves:
  - curve:
      serializedVersion: 2
      m_Curve:
      - time: 0
        value: {x: 0, y: 0, z: 0.59389335, w: -0.8045438}
        inSlope: {x: 0, y: 0, z: 0, w: 0}
        outSlope: {x: 0, y: 0, z: 0, w: 0}
        tangentMode: 0
      - time: 0.2335
        value: {x: 0, y: 0, z: 0.59389335, w: -0.8045438}
        inSlope: {x: 0, y: 0, z: 0, w: 0}
        outSlope: {x: 0, y: 0, z: 0, w: 0}
        tangentMode: 0
      - time: 0.36683333
        value: {x: 0, y: 0, z: 0.59389335, w: -0.8045438}
        inSlope: {x: 0, y: 0, z: 0, w: 0}
        outSlope: {x: 0, y: 0, z: 0, w: 0}
        tangentMode: 0
      m_PreInfinity: 2
      m_PostInfinity: 2
      m_RotationOrder: 4
    path: FussL_CTRL_GRP/FussL_CTRL
  m_CompressedRotationCurves: []
  m_EulerCurves:
  - curve:
      serializedVersion: 2
      m_Curve:
      - time: 0
        value: {x: 0, y: 0, z: 4.7948}
        inSlope: {x: 0, y: 0, z: 0}
        outSlope: {x: 0, y: 0, z: 0}
        tangentMode: 0
      - time: 0.36683333
        value: {x: 0, y: 0, z: 4.7948}
        inSlope: {x: 0, y: 0, z: 0}
        outSlope: {x: 0, y: 0, z: 0}
        tangentMode: 0
      m_PreInfinity: 2
      m_PostInfinity: 2
      m_RotationOrder: 4
    path: Huefte/Brust/Kopf/Sloth
  - curve:
      serializedVersion: 2
      m_Curve:
      - time: 0
        value: {x: 0.0075999997, y: -0.0011999999, z: 110.3875}
        inSlope: {x: 0, y: 0, z: 0}
        outSlope: {x: 0, y: 0, z: 0}
        tangentMode: 0
      - time: 0.36683333
        value: {x: 0.0075999997, y: -0.0011999999, z: 110.3875}
        inSlope: {x: 0, y: 0, z: 0}
        outSlope: {x: 0, y: 0, z: 0}
        tangentMode: 0
      m_PreInfinity: 2
      m_PostInfinity: 2
      m_RotationOrder: 4
    path: FussR_CTRL
  m_PositionCurves:
  - curve:
      serializedVersion: 2
      m_Curve:
      - time: 0
        value: {x: 43.67, y: -35.89, z: 0}
        inSlope: {x: 1.4132841, y: 2.5267673, z: 0}
        outSlope: {x: 1.4132841, y: 2.5267673, z: 0}
        tangentMode: 0
      - time: 0.2335
        value: {x: 44, y: -35.3, z: 0}
        inSlope: {x: -0.53086495, y: -0.9491172, z: 0}
        outSlope: {x: -0.53086495, y: -0.9491172, z: 0}
        tangentMode: 0
      - time: 0.36683333
        value: {x: 43.67, y: -35.89, z: 0}
        inSlope: {x: -2.475014, y: -4.4250016, z: 0}
        outSlope: {x: -2.475014, y: -4.4250016, z: 0}
        tangentMode: 0
      m_PreInfinity: 2
      m_PostInfinity: 2
      m_RotationOrder: 4
    path: FussL_CTRL_GRP/FussL_CTRL
  - curve:
      serializedVersion: 2
      m_Curve:
      - time: 0
        value: {x: -13.3, y: 38.6, z: 0}
        inSlope: {x: -0.42826307, y: -3.85438, z: -0}
        outSlope: {x: -0.42826307, y: -3.85438, z: -0}
        tangentMode: 0
      - time: 0.2335
        value: {x: -13.4, y: 37.7, z: -0}
        inSlope: {x: 0.16086635, y: 1.4478017, z: 0}
        outSlope: {x: 0.16086635, y: 1.4478017, z: 0}
        tangentMode: 0
      - time: 0.36683333
        value: {x: -13.3, y: 38.6, z: 0}
        inSlope: {x: 0.74999577, y: 6.7499833, z: 0}
        outSlope: {x: 0.74999577, y: 6.7499833, z: 0}
        tangentMode: 0
      m_PreInfinity: 2
      m_PostInfinity: 2
      m_RotationOrder: 4
    path: HandL_CTRL_GRP/HandL_CTRL
  - curve:
      serializedVersion: 2
      m_Curve:
      - time: 0
        value: {x: 7.2, y: 10.7, z: -0}
        inSlope: {x: 3.854392, y: -0.8565302, z: 0}
        outSlope: {x: 3.854392, y: -0.8565302, z: 0}
        tangentMode: 0
      - time: 0.2335
        value: {x: 8.1, y: 10.5, z: -0}
        inSlope: {x: -1.4478064, y: 0.32173425, z: 0}
        outSlope: {x: -1.4478064, y: 0.32173425, z: 0}
        tangentMode: 0
      - time: 0.36683333
        value: {x: 7.2, y: 10.7, z: -0}
        inSlope: {x: -6.750005, y: 1.4999987, z: 0}
        outSlope: {x: -6.750005, y: 1.4999987, z: 0}
        tangentMode: 0
      m_PreInfinity: 2
      m_PostInfinity: 2
      m_RotationOrder: 4
    path: HandR_CTRL_GRP/HandR_CTRL
  - curve:
      serializedVersion: 2
      m_Curve:
      - time: 0
        value: {x: -27.26, y: 11.29, z: 0}
        inSlope: {x: 0, y: 0, z: 0}
        outSlope: {x: 0, y: 0, z: 0}
        tangentMode: 0
      - time: 0.36683333
        value: {x: -27.26, y: 11.29, z: 0}
        inSlope: {x: 0, y: 0, z: 0}
        outSlope: {x: 0, y: 0, z: 0}
        tangentMode: 0
      m_PreInfinity: 2
      m_PostInfinity: 2
      m_RotationOrder: 4
    path: FFD_Ctrls_GRP_4/SlothGirl_Body_Ctrl_GRP_10/SlothGirl_Body_Ctrl_10
  - curve:
      serializedVersion: 2
      m_Curve:
      - time: 0
        value: {x: -25.93, y: 15.09, z: 0}
        inSlope: {x: 0, y: 0, z: 0}
        outSlope: {x: 0, y: 0, z: 0}
        tangentMode: 0
      - time: 0.36683333
        value: {x: -25.93, y: 15.09, z: 0}
        inSlope: {x: 0, y: 0, z: 0}
        outSlope: {x: 0, y: 0, z: 0}
        tangentMode: 0
      m_PreInfinity: 2
      m_PostInfinity: 2
      m_RotationOrder: 4
    path: FFD_Ctrls_GRP_4/SlothGirl_Body_Ctrl_GRP_11/SlothGirl_Body_Ctrl_11
  - curve:
      serializedVersion: 2
      m_Curve:
      - time: 0
        value: {x: -25.03, y: 23.95, z: 0}
        inSlope: {x: 0, y: 0, z: 0}
        outSlope: {x: 0, y: 0, z: 0}
        tangentMode: 0
      - time: 0.36683333
        value: {x: -25.03, y: 23.95, z: 0}
        inSlope: {x: 0, y: 0, z: 0}
        outSlope: {x: 0, y: 0, z: 0}
        tangentMode: 0
      m_PreInfinity: 2
      m_PostInfinity: 2
      m_RotationOrder: 4
    path: FFD_Ctrls_GRP_4/SlothGirl_Body_Ctrl_GRP_12/SlothGirl_Body_Ctrl_12
  - curve:
      serializedVersion: 2
      m_Curve:
      - time: 0
        value: {x: -24.7, y: 31.2, z: 0}
        inSlope: {x: -5.9100604, y: 19.357603, z: 0}
        outSlope: {x: -5.9100604, y: 19.357603, z: 0}
        tangentMode: 0
      - time: 0.2335
        value: {x: -26.08, y: 35.72, z: 0}
        inSlope: {x: 2.2199671, y: -7.271201, z: 0}
        outSlope: {x: 2.2199671, y: -7.271201, z: 0}
        tangentMode: 0
      - time: 0.36683333
        value: {x: -24.7, y: 31.2, z: 0}
        inSlope: {x: 10.349995, y: -33.900005, z: 0}
        outSlope: {x: 10.349995, y: -33.900005, z: 0}
        tangentMode: 0
      m_PreInfinity: 2
      m_PostInfinity: 2
      m_RotationOrder: 4
    path: FFD_Ctrls_GRP_4/SlothGirl_Body_Ctrl_GRP_13/SlothGirl_Body_Ctrl_13
  - curve:
      serializedVersion: 2
      m_Curve:
      - time: 0
        value: {x: -14.51, y: 26.32, z: 0}
        inSlope: {x: -0.6423966, y: 11.862957, z: 0}
        outSlope: {x: -0.6423966, y: 11.862957, z: 0}
        tangentMode: 0
      - time: 0.2335
        value: {x: -14.66, y: 29.09, z: 0}
        inSlope: {x: 0.24130031, y: -4.456024, z: 0}
        outSlope: {x: 0.24130031, y: -4.456024, z: 0}
        tangentMode: 0
      - time: 0.36683333
        value: {x: -14.51, y: 26.32, z: 0}
        inSlope: {x: 1.1249973, y: -20.775005, z: 0}
        outSlope: {x: 1.1249973, y: -20.775005, z: 0}
        tangentMode: 0
      m_PreInfinity: 2
      m_PostInfinity: 2
      m_RotationOrder: 4
    path: FFD_Ctrls_GRP_4/SlothGirl_Body_Ctrl_GRP_14/SlothGirl_Body_Ctrl_14
  - curve:
      serializedVersion: 2
      m_Curve:
      - time: 0
        value: {x: -8.68, y: 17.09, z: 0}
        inSlope: {x: 0, y: 0, z: 0}
        outSlope: {x: 0, y: 0, z: 0}
        tangentMode: 0
      - time: 0.36683333
        value: {x: -8.68, y: 17.09, z: 0}
        inSlope: {x: 0, y: 0, z: 0}
        outSlope: {x: 0, y: 0, z: 0}
        tangentMode: 0
      m_PreInfinity: 2
      m_PostInfinity: 2
      m_RotationOrder: 4
    path: FFD_Ctrls_GRP_4/SlothGirl_Body_Ctrl_GRP_15/SlothGirl_Body_Ctrl_15
  - curve:
      serializedVersion: 2
      m_Curve:
      - time: 0
        value: {x: -1.47, y: 6.76, z: 0}
        inSlope: {x: 0, y: 0, z: 0}
        outSlope: {x: 0, y: 0, z: 0}
        tangentMode: 0
      - time: 0.36683333
        value: {x: -1.47, y: 6.76, z: 0}
        inSlope: {x: 0, y: 0, z: 0}
        outSlope: {x: 0, y: 0, z: 0}
        tangentMode: 0
      m_PreInfinity: 2
      m_PostInfinity: 2
      m_RotationOrder: 4
    path: FFD_Ctrls_GRP_4/SlothGirl_Body_Ctrl_GRP_16/SlothGirl_Body_Ctrl_16
  - curve:
      serializedVersion: 2
      m_Curve:
      - time: 0
        value: {x: 1.4, y: -5.2, z: 0}
        inSlope: {x: 0, y: 0, z: 0}
        outSlope: {x: 0, y: 0, z: 0}
        tangentMode: 0
      - time: 0.36683333
        value: {x: 1.4, y: -5.2, z: 0}
        inSlope: {x: 0, y: 0, z: 0}
        outSlope: {x: 0, y: 0, z: 0}
        tangentMode: 0
      m_PreInfinity: 2
      m_PostInfinity: 2
      m_RotationOrder: 4
    path: FFD_Ctrls_GRP_4/SlothGirl_Body_Ctrl_GRP_7/SlothGirl_Body_Ctrl_7
  - curve:
      serializedVersion: 2
      m_Curve:
      - time: 0
        value: {x: -15.6, y: 0.8, z: 0}
        inSlope: {x: 0, y: 0, z: 0}
        outSlope: {x: 0, y: 0, z: 0}
        tangentMode: 0
      - time: 0.36683333
        value: {x: -15.6, y: 0.8, z: 0}
        inSlope: {x: 0, y: 0, z: 0}
        outSlope: {x: 0, y: 0, z: 0}
        tangentMode: 0
      m_PreInfinity: 2
      m_PostInfinity: 2
      m_RotationOrder: 4
    path: FFD_Ctrls_GRP_4/SlothGirl_Body_Ctrl_GRP_8/SlothGirl_Body_Ctrl_8
  - curve:
      serializedVersion: 2
      m_Curve:
      - time: 0
        value: {x: -24.5, y: 9.6, z: 0}
        inSlope: {x: 0, y: 0, z: 0}
        outSlope: {x: 0, y: 0, z: 0}
        tangentMode: 0
      - time: 0.36683333
        value: {x: -24.5, y: 9.6, z: 0}
        inSlope: {x: 0, y: 0, z: 0}
        outSlope: {x: 0, y: 0, z: 0}
        tangentMode: 0
      m_PreInfinity: 2
      m_PostInfinity: 2
      m_RotationOrder: 4
    path: FFD_Ctrls_GRP_4/SlothGirl_Body_Ctrl_GRP_9/SlothGirl_Body_Ctrl_9
  - curve:
      serializedVersion: 2
      m_Curve:
      - time: 0
        value: {x: -18.168741, y: 14.831744, z: -0}
        inSlope: {x: 0, y: 0, z: 0}
        outSlope: {x: 0, y: 0, z: 0}
        tangentMode: 0
      - time: 0.36683333
        value: {x: -18.168741, y: 14.831744, z: -0}
        inSlope: {x: 0, y: 0, z: 0}
        outSlope: {x: 0, y: 0, z: 0}
        tangentMode: 0
      m_PreInfinity: 2
      m_PostInfinity: 2
      m_RotationOrder: 4
    path: Huefte/Brust/Kopf/Sloth
  - curve:
      serializedVersion: 2
      m_Curve:
      - time: 0
        value: {x: 1.8314438, y: 23.233942, z: -0}
        inSlope: {x: -12.857142, y: -3.4285681, z: 0}
        outSlope: {x: -12.857142, y: -3.4285681, z: 0}
        tangentMode: 0
      - time: 0.11666667
        value: {x: 0.3314438, y: 22.833942, z: 0}
        inSlope: {x: -2.1489706, y: 16.687994, z: 0}
        outSlope: {x: -2.1489706, y: 16.687994, z: 0}
        tangentMode: 0
      - time: 0.2335
        value: {x: 1.3314438, y: 27.133942, z: 0}
        inSlope: {x: 6.1546006, y: 3.7772799, z: 0}
        outSlope: {x: 6.1546006, y: 3.7772799, z: 0}
        tangentMode: 0
      - time: 0.36683333
        value: {x: 1.8314438, y: 23.233942, z: -0}
        inSlope: {x: 3.7500002, y: -29.249998, z: -0}
        outSlope: {x: 3.7500002, y: -29.249998, z: -0}
        tangentMode: 0
      m_PreInfinity: 2
      m_PostInfinity: 2
      m_RotationOrder: 4
    path: Huefte/Brust/Kopf/Sloth/SlothHandL_CTRL_GRP/SlothHandL_CTRL
  - curve:
      serializedVersion: 2
      m_Curve:
      - time: 0
        value: {x: 11, y: 12, z: 0}
        inSlope: {x: 41.999996, y: 18.000004, z: -0}
        outSlope: {x: 41.999996, y: 18.000004, z: -0}
        tangentMode: 0
      - time: 0.11666667
        value: {x: 15.9, y: 14.1, z: -0}
        inSlope: {x: 21.85592, y: 39.813118, z: 0}
        outSlope: {x: 21.85592, y: 39.813118, z: 0}
        tangentMode: 0
      - time: 0.2335
        value: {x: 16.1, y: 21.3, z: -0}
        inSlope: {x: -18.26908, y: -4.061882, z: 0}
        outSlope: {x: -18.26908, y: -4.061882, z: 0}
        tangentMode: 0
      - time: 0.36683333
        value: {x: 11, y: 12, z: 0}
        inSlope: {x: -38.250004, y: -69.75, z: 0}
        outSlope: {x: -38.250004, y: -69.75, z: 0}
        tangentMode: 0
      m_PreInfinity: 2
      m_PostInfinity: 2
      m_RotationOrder: 4
    path: Huefte/Brust/Kopf/Sloth/SlothHandR_CTRL_GRP/SlothHandR_CTRL
  - curve:
      serializedVersion: 2
      m_Curve:
      - time: 0
        value: {x: -28.2, y: 38.9, z: -0}
        inSlope: {x: 5.1391892, y: -10.2783785, z: 0}
        outSlope: {x: 5.1391892, y: -10.2783785, z: 0}
        tangentMode: 0
      - time: 0.2335
        value: {x: -27, y: 36.5, z: -0}
        inSlope: {x: -1.9304087, y: 3.8608174, z: 0}
        outSlope: {x: -1.9304087, y: 3.8608174, z: 0}
        tangentMode: 0
      - time: 0.36683333
        value: {x: -28.2, y: 38.9, z: -0}
        inSlope: {x: -9.000007, y: 18.000013, z: 0}
        outSlope: {x: -9.000007, y: 18.000013, z: 0}
        tangentMode: 0
      m_PreInfinity: 2
      m_PostInfinity: 2
      m_RotationOrder: 4
    path: FussR_CTRL
  m_ScaleCurves: []
  m_FloatCurves: []
  m_PPtrCurves: []
  m_SampleRate: 60
  m_WrapMode: 0
  m_Bounds:
    m_Center: {x: 0, y: 0, z: 0}
    m_Extent: {x: 0, y: 0, z: 0}
  m_ClipBindingConstant:
    genericBindings:
    - path: 1731249141
      attribute: 1
      script: {fileID: 0}
      classID: 4
      customType: 0
      isPPtrCurve: 0
    - path: 3395650270
      attribute: 1
      script: {fileID: 0}
      classID: 4
      customType: 0
      isPPtrCurve: 0
    - path: 1804795753
      attribute: 1
      script: {fileID: 0}
      classID: 4
      customType: 0
      isPPtrCurve: 0
    - path: 3346385347
      attribute: 1
      script: {fileID: 0}
      classID: 4
      customType: 0
      isPPtrCurve: 0
    - path: 1745447703
      attribute: 1
      script: {fileID: 0}
      classID: 4
      customType: 0
      isPPtrCurve: 0
    - path: 1804590954
      attribute: 1
      script: {fileID: 0}
      classID: 4
      customType: 0
      isPPtrCurve: 0
    - path: 2465601524
      attribute: 1
      script: {fileID: 0}
      classID: 4
      customType: 0
      isPPtrCurve: 0
    - path: 3685971962
      attribute: 1
      script: {fileID: 0}
      classID: 4
      customType: 0
      isPPtrCurve: 0
    - path: 107098449
      attribute: 1
      script: {fileID: 0}
      classID: 4
      customType: 0
      isPPtrCurve: 0
    - path: 4030751968
      attribute: 1
      script: {fileID: 0}
      classID: 4
      customType: 0
      isPPtrCurve: 0
    - path: 827825266
      attribute: 1
      script: {fileID: 0}
      classID: 4
      customType: 0
      isPPtrCurve: 0
    - path: 2653634214
      attribute: 1
      script: {fileID: 0}
      classID: 4
      customType: 0
      isPPtrCurve: 0
    - path: 1597818420
      attribute: 1
      script: {fileID: 0}
      classID: 4
      customType: 0
      isPPtrCurve: 0
    - path: 2752401062
      attribute: 1
      script: {fileID: 0}
      classID: 4
      customType: 0
      isPPtrCurve: 0
    - path: 1118931135
      attribute: 1
      script: {fileID: 0}
      classID: 4
      customType: 0
      isPPtrCurve: 0
    - path: 2932167421
      attribute: 1
      script: {fileID: 0}
      classID: 4
      customType: 0
      isPPtrCurve: 0
    - path: 2793900456
      attribute: 1
      script: {fileID: 0}
      classID: 4
      customType: 0
      isPPtrCurve: 0
    - path: 1731249141
      attribute: 2
      script: {fileID: 0}
      classID: 4
      customType: 0
      isPPtrCurve: 0
    - path: 2793900456
      attribute: 4
      script: {fileID: 0}
      classID: 4
      customType: 14
      isPPtrCurve: 0
    - path: 3685971962
      attribute: 4
      script: {fileID: 0}
      classID: 4
      customType: 14
      isPPtrCurve: 0
    pptrCurveMapping: []
  m_AnimationClipSettings:
    serializedVersion: 2
    m_AdditiveReferencePoseClip: {fileID: 0}
    m_AdditiveReferencePoseTime: 0
    m_StartTime: 0
    m_StopTime: 0.36683333
    m_OrientationOffsetY: 0
    m_Level: 0
    m_CycleOffset: 0
    m_HasAdditiveReferencePose: 0
    m_LoopTime: 1
    m_LoopBlend: 0
    m_LoopBlendOrientation: 0
    m_LoopBlendPositionY: 0
    m_LoopBlendPositionXZ: 0
    m_KeepOriginalOrientation: 0
    m_KeepOriginalPositionY: 1
    m_KeepOriginalPositionXZ: 0
    m_HeightFromFeet: 0
    m_Mirror: 0
  m_EditorCurves:
  - curve:
      serializedVersion: 2
      m_Curve:
      - time: 0
        value: 43.67
        inSlope: 1.4132841
        outSlope: 1.4132841
        tangentMode: 10
      - time: 0.2335
        value: 44
        inSlope: -0.53086495
        outSlope: -0.53086495
        tangentMode: 10
      - time: 0.36683333
        value: 43.67
        inSlope: -2.475014
        outSlope: -2.475014
        tangentMode: 10
      m_PreInfinity: 2
      m_PostInfinity: 2
      m_RotationOrder: 4
    attribute: m_LocalPosition.x
    path: FussL_CTRL_GRP/FussL_CTRL
    classID: 4
    script: {fileID: 0}
  - curve:
      serializedVersion: 2
      m_Curve:
      - time: 0
        value: -35.89
        inSlope: 2.5267673
        outSlope: 2.5267673
        tangentMode: 10
      - time: 0.2335
        value: -35.3
        inSlope: -0.9491172
        outSlope: -0.9491172
        tangentMode: 10
      - time: 0.36683333
        value: -35.89
        inSlope: -4.4250016
        outSlope: -4.4250016
        tangentMode: 10
      m_PreInfinity: 2
      m_PostInfinity: 2
      m_RotationOrder: 4
    attribute: m_LocalPosition.y
    path: FussL_CTRL_GRP/FussL_CTRL
    classID: 4
    script: {fileID: 0}
  - curve:
      serializedVersion: 2
      m_Curve:
      - time: 0
        value: 0
        inSlope: 0
        outSlope: 0
        tangentMode: 10
      - time: 0.2335
        value: 0
        inSlope: 0
        outSlope: 0
        tangentMode: 10
      - time: 0.36683333
        value: 0
        inSlope: 0
        outSlope: 0
        tangentMode: 10
      m_PreInfinity: 2
      m_PostInfinity: 2
      m_RotationOrder: 4
    attribute: m_LocalPosition.z
    path: FussL_CTRL_GRP/FussL_CTRL
    classID: 4
    script: {fileID: 0}
  - curve:
      serializedVersion: 2
      m_Curve:
      - time: 0
        value: -13.3
        inSlope: -0.42826307
        outSlope: -0.42826307
        tangentMode: 10
      - time: 0.2335
        value: -13.4
        inSlope: 0.16086635
        outSlope: 0.16086635
        tangentMode: 10
      - time: 0.36683333
        value: -13.3
        inSlope: 0.74999577
        outSlope: 0.74999577
        tangentMode: 10
      m_PreInfinity: 2
      m_PostInfinity: 2
      m_RotationOrder: 4
    attribute: m_LocalPosition.x
    path: HandL_CTRL_GRP/HandL_CTRL
    classID: 4
    script: {fileID: 0}
  - curve:
      serializedVersion: 2
      m_Curve:
      - time: 0
        value: 38.6
        inSlope: -3.85438
        outSlope: -3.85438
        tangentMode: 10
      - time: 0.2335
        value: 37.7
        inSlope: 1.4478017
        outSlope: 1.4478017
        tangentMode: 10
      - time: 0.36683333
        value: 38.6
        inSlope: 6.7499833
        outSlope: 6.7499833
        tangentMode: 10
      m_PreInfinity: 2
      m_PostInfinity: 2
      m_RotationOrder: 4
    attribute: m_LocalPosition.y
    path: HandL_CTRL_GRP/HandL_CTRL
    classID: 4
    script: {fileID: 0}
  - curve:
      serializedVersion: 2
      m_Curve:
      - time: 0
        value: 0
        inSlope: -0
        outSlope: -0
        tangentMode: 10
      - time: 0.2335
        value: -0
        inSlope: 0
        outSlope: 0
        tangentMode: 10
      - time: 0.36683333
        value: 0
        inSlope: 0
        outSlope: 0
        tangentMode: 10
      m_PreInfinity: 2
      m_PostInfinity: 2
      m_RotationOrder: 4
    attribute: m_LocalPosition.z
    path: HandL_CTRL_GRP/HandL_CTRL
    classID: 4
    script: {fileID: 0}
  - curve:
      serializedVersion: 2
      m_Curve:
      - time: 0
        value: 7.2
        inSlope: 3.854392
        outSlope: 3.854392
        tangentMode: 10
      - time: 0.2335
        value: 8.1
        inSlope: -1.4478064
        outSlope: -1.4478064
        tangentMode: 10
      - time: 0.36683333
        value: 7.2
        inSlope: -6.750005
        outSlope: -6.750005
        tangentMode: 10
      m_PreInfinity: 2
      m_PostInfinity: 2
      m_RotationOrder: 4
    attribute: m_LocalPosition.x
    path: HandR_CTRL_GRP/HandR_CTRL
    classID: 4
    script: {fileID: 0}
  - curve:
      serializedVersion: 2
      m_Curve:
      - time: 0
        value: 10.7
        inSlope: -0.8565302
        outSlope: -0.8565302
        tangentMode: 10
      - time: 0.2335
        value: 10.5
        inSlope: 0.32173425
        outSlope: 0.32173425
        tangentMode: 10
      - time: 0.36683333
        value: 10.7
        inSlope: 1.4999987
        outSlope: 1.4999987
        tangentMode: 10
      m_PreInfinity: 2
      m_PostInfinity: 2
      m_RotationOrder: 4
    attribute: m_LocalPosition.y
    path: HandR_CTRL_GRP/HandR_CTRL
    classID: 4
    script: {fileID: 0}
  - curve:
      serializedVersion: 2
      m_Curve:
      - time: 0
        value: -0
        inSlope: 0
        outSlope: 0
        tangentMode: 10
      - time: 0.2335
        value: -0
        inSlope: 0
        outSlope: 0
        tangentMode: 10
      - time: 0.36683333
        value: -0
        inSlope: 0
        outSlope: 0
        tangentMode: 10
      m_PreInfinity: 2
      m_PostInfinity: 2
      m_RotationOrder: 4
    attribute: m_LocalPosition.z
    path: HandR_CTRL_GRP/HandR_CTRL
    classID: 4
    script: {fileID: 0}
  - curve:
      serializedVersion: 2
      m_Curve:
      - time: 0
        value: -27.26
        inSlope: 0
        outSlope: 0
        tangentMode: 10
      - time: 0.36683333
        value: -27.26
        inSlope: 0
        outSlope: 0
        tangentMode: 10
      m_PreInfinity: 2
      m_PostInfinity: 2
      m_RotationOrder: 4
    attribute: m_LocalPosition.x
    path: FFD_Ctrls_GRP_4/SlothGirl_Body_Ctrl_GRP_10/SlothGirl_Body_Ctrl_10
    classID: 4
    script: {fileID: 0}
  - curve:
      serializedVersion: 2
      m_Curve:
      - time: 0
        value: 11.29
        inSlope: 0
        outSlope: 0
        tangentMode: 10
      - time: 0.36683333
        value: 11.29
        inSlope: 0
        outSlope: 0
        tangentMode: 10
      m_PreInfinity: 2
      m_PostInfinity: 2
      m_RotationOrder: 4
    attribute: m_LocalPosition.y
    path: FFD_Ctrls_GRP_4/SlothGirl_Body_Ctrl_GRP_10/SlothGirl_Body_Ctrl_10
    classID: 4
    script: {fileID: 0}
  - curve:
      serializedVersion: 2
      m_Curve:
      - time: 0
        value: 0
        inSlope: 0
        outSlope: 0
        tangentMode: 10
      - time: 0.36683333
        value: 0
        inSlope: 0
        outSlope: 0
        tangentMode: 10
      m_PreInfinity: 2
      m_PostInfinity: 2
      m_RotationOrder: 4
    attribute: m_LocalPosition.z
    path: FFD_Ctrls_GRP_4/SlothGirl_Body_Ctrl_GRP_10/SlothGirl_Body_Ctrl_10
    classID: 4
    script: {fileID: 0}
  - curve:
      serializedVersion: 2
      m_Curve:
      - time: 0
        value: -25.93
        inSlope: 0
        outSlope: 0
        tangentMode: 10
      - time: 0.36683333
        value: -25.93
        inSlope: 0
        outSlope: 0
        tangentMode: 10
      m_PreInfinity: 2
      m_PostInfinity: 2
      m_RotationOrder: 4
    attribute: m_LocalPosition.x
    path: FFD_Ctrls_GRP_4/SlothGirl_Body_Ctrl_GRP_11/SlothGirl_Body_Ctrl_11
    classID: 4
    script: {fileID: 0}
  - curve:
      serializedVersion: 2
      m_Curve:
      - time: 0
        value: 15.09
        inSlope: 0
        outSlope: 0
        tangentMode: 10
      - time: 0.36683333
        value: 15.09
        inSlope: 0
        outSlope: 0
        tangentMode: 10
      m_PreInfinity: 2
      m_PostInfinity: 2
      m_RotationOrder: 4
    attribute: m_LocalPosition.y
    path: FFD_Ctrls_GRP_4/SlothGirl_Body_Ctrl_GRP_11/SlothGirl_Body_Ctrl_11
    classID: 4
    script: {fileID: 0}
  - curve:
      serializedVersion: 2
      m_Curve:
      - time: 0
        value: 0
        inSlope: 0
        outSlope: 0
        tangentMode: 10
      - time: 0.36683333
        value: 0
        inSlope: 0
        outSlope: 0
        tangentMode: 10
      m_PreInfinity: 2
      m_PostInfinity: 2
      m_RotationOrder: 4
    attribute: m_LocalPosition.z
    path: FFD_Ctrls_GRP_4/SlothGirl_Body_Ctrl_GRP_11/SlothGirl_Body_Ctrl_11
    classID: 4
    script: {fileID: 0}
  - curve:
      serializedVersion: 2
      m_Curve:
      - time: 0
        value: -25.03
        inSlope: 0
        outSlope: 0
        tangentMode: 10
      - time: 0.36683333
        value: -25.03
        inSlope: 0
        outSlope: 0
        tangentMode: 10
      m_PreInfinity: 2
      m_PostInfinity: 2
      m_RotationOrder: 4
    attribute: m_LocalPosition.x
    path: FFD_Ctrls_GRP_4/SlothGirl_Body_Ctrl_GRP_12/SlothGirl_Body_Ctrl_12
    classID: 4
    script: {fileID: 0}
  - curve:
      serializedVersion: 2
      m_Curve:
      - time: 0
        value: 23.95
        inSlope: 0
        outSlope: 0
        tangentMode: 10
      - time: 0.36683333
        value: 23.95
        inSlope: 0
        outSlope: 0
        tangentMode: 10
      m_PreInfinity: 2
      m_PostInfinity: 2
      m_RotationOrder: 4
    attribute: m_LocalPosition.y
    path: FFD_Ctrls_GRP_4/SlothGirl_Body_Ctrl_GRP_12/SlothGirl_Body_Ctrl_12
    classID: 4
    script: {fileID: 0}
  - curve:
      serializedVersion: 2
      m_Curve:
      - time: 0
        value: 0
        inSlope: 0
        outSlope: 0
        tangentMode: 10
      - time: 0.36683333
        value: 0
        inSlope: 0
        outSlope: 0
        tangentMode: 10
      m_PreInfinity: 2
      m_PostInfinity: 2
      m_RotationOrder: 4
    attribute: m_LocalPosition.z
    path: FFD_Ctrls_GRP_4/SlothGirl_Body_Ctrl_GRP_12/SlothGirl_Body_Ctrl_12
    classID: 4
    script: {fileID: 0}
  - curve:
      serializedVersion: 2
      m_Curve:
      - time: 0
        value: -24.7
        inSlope: -5.9100604
        outSlope: -5.9100604
        tangentMode: 10
      - time: 0.2335
        value: -26.08
        inSlope: 2.2199671
        outSlope: 2.2199671
        tangentMode: 10
      - time: 0.36683333
        value: -24.7
        inSlope: 10.349995
        outSlope: 10.349995
        tangentMode: 10
      m_PreInfinity: 2
      m_PostInfinity: 2
      m_RotationOrder: 4
    attribute: m_LocalPosition.x
    path: FFD_Ctrls_GRP_4/SlothGirl_Body_Ctrl_GRP_13/SlothGirl_Body_Ctrl_13
    classID: 4
    script: {fileID: 0}
  - curve:
      serializedVersion: 2
      m_Curve:
      - time: 0
        value: 31.2
        inSlope: 19.357603
        outSlope: 19.357603
        tangentMode: 10
      - time: 0.2335
        value: 35.72
        inSlope: -7.271201
        outSlope: -7.271201
        tangentMode: 10
      - time: 0.36683333
        value: 31.2
        inSlope: -33.900005
        outSlope: -33.900005
        tangentMode: 10
      m_PreInfinity: 2
      m_PostInfinity: 2
      m_RotationOrder: 4
    attribute: m_LocalPosition.y
    path: FFD_Ctrls_GRP_4/SlothGirl_Body_Ctrl_GRP_13/SlothGirl_Body_Ctrl_13
    classID: 4
    script: {fileID: 0}
  - curve:
      serializedVersion: 2
      m_Curve:
      - time: 0
        value: 0
        inSlope: 0
        outSlope: 0
        tangentMode: 10
      - time: 0.2335
        value: 0
        inSlope: 0
        outSlope: 0
        tangentMode: 10
      - time: 0.36683333
        value: 0
        inSlope: 0
        outSlope: 0
        tangentMode: 10
      m_PreInfinity: 2
      m_PostInfinity: 2
      m_RotationOrder: 4
    attribute: m_LocalPosition.z
    path: FFD_Ctrls_GRP_4/SlothGirl_Body_Ctrl_GRP_13/SlothGirl_Body_Ctrl_13
    classID: 4
    script: {fileID: 0}
  - curve:
      serializedVersion: 2
      m_Curve:
      - time: 0
        value: -14.51
        inSlope: -0.6423966
        outSlope: -0.6423966
        tangentMode: 10
      - time: 0.2335
        value: -14.66
        inSlope: 0.24130031
        outSlope: 0.24130031
        tangentMode: 10
      - time: 0.36683333
        value: -14.51
        inSlope: 1.1249973
        outSlope: 1.1249973
        tangentMode: 10
      m_PreInfinity: 2
      m_PostInfinity: 2
      m_RotationOrder: 4
    attribute: m_LocalPosition.x
    path: FFD_Ctrls_GRP_4/SlothGirl_Body_Ctrl_GRP_14/SlothGirl_Body_Ctrl_14
    classID: 4
    script: {fileID: 0}
  - curve:
      serializedVersion: 2
      m_Curve:
      - time: 0
        value: 26.32
        inSlope: 11.862957
        outSlope: 11.862957
        tangentMode: 10
      - time: 0.2335
        value: 29.09
        inSlope: -4.456024
        outSlope: -4.456024
        tangentMode: 10
      - time: 0.36683333
        value: 26.32
        inSlope: -20.775005
        outSlope: -20.775005
        tangentMode: 10
      m_PreInfinity: 2
      m_PostInfinity: 2
      m_RotationOrder: 4
    attribute: m_LocalPosition.y
    path: FFD_Ctrls_GRP_4/SlothGirl_Body_Ctrl_GRP_14/SlothGirl_Body_Ctrl_14
    classID: 4
    script: {fileID: 0}
  - curve:
      serializedVersion: 2
      m_Curve:
      - time: 0
        value: 0
        inSlope: 0
        outSlope: 0
        tangentMode: 10
      - time: 0.2335
        value: 0
        inSlope: 0
        outSlope: 0
        tangentMode: 10
      - time: 0.36683333
        value: 0
        inSlope: 0
        outSlope: 0
        tangentMode: 10
      m_PreInfinity: 2
      m_PostInfinity: 2
      m_RotationOrder: 4
    attribute: m_LocalPosition.z
    path: FFD_Ctrls_GRP_4/SlothGirl_Body_Ctrl_GRP_14/SlothGirl_Body_Ctrl_14
    classID: 4
    script: {fileID: 0}
  - curve:
      serializedVersion: 2
      m_Curve:
      - time: 0
        value: -8.68
        inSlope: 0
        outSlope: 0
        tangentMode: 10
      - time: 0.36683333
        value: -8.68
        inSlope: 0
        outSlope: 0
        tangentMode: 10
      m_PreInfinity: 2
      m_PostInfinity: 2
      m_RotationOrder: 4
    attribute: m_LocalPosition.x
    path: FFD_Ctrls_GRP_4/SlothGirl_Body_Ctrl_GRP_15/SlothGirl_Body_Ctrl_15
    classID: 4
    script: {fileID: 0}
  - curve:
      serializedVersion: 2
      m_Curve:
      - time: 0
        value: 17.09
        inSlope: 0
        outSlope: 0
        tangentMode: 10
      - time: 0.36683333
        value: 17.09
        inSlope: 0
        outSlope: 0
        tangentMode: 10
      m_PreInfinity: 2
      m_PostInfinity: 2
      m_RotationOrder: 4
    attribute: m_LocalPosition.y
    path: FFD_Ctrls_GRP_4/SlothGirl_Body_Ctrl_GRP_15/SlothGirl_Body_Ctrl_15
    classID: 4
    script: {fileID: 0}
  - curve:
      serializedVersion: 2
      m_Curve:
      - time: 0
        value: 0
        inSlope: 0
        outSlope: 0
        tangentMode: 10
      - time: 0.36683333
        value: 0
        inSlope: 0
        outSlope: 0
        tangentMode: 10
      m_PreInfinity: 2
      m_PostInfinity: 2
      m_RotationOrder: 4
    attribute: m_LocalPosition.z
    path: FFD_Ctrls_GRP_4/SlothGirl_Body_Ctrl_GRP_15/SlothGirl_Body_Ctrl_15
    classID: 4
    script: {fileID: 0}
  - curve:
      serializedVersion: 2
      m_Curve:
      - time: 0
        value: -1.47
        inSlope: 0
        outSlope: 0
        tangentMode: 10
      - time: 0.36683333
        value: -1.47
        inSlope: 0
        outSlope: 0
        tangentMode: 10
      m_PreInfinity: 2
      m_PostInfinity: 2
      m_RotationOrder: 4
    attribute: m_LocalPosition.x
    path: FFD_Ctrls_GRP_4/SlothGirl_Body_Ctrl_GRP_16/SlothGirl_Body_Ctrl_16
    classID: 4
    script: {fileID: 0}
  - curve:
      serializedVersion: 2
      m_Curve:
      - time: 0
        value: 6.76
        inSlope: 0
        outSlope: 0
        tangentMode: 10
      - time: 0.36683333
        value: 6.76
        inSlope: 0
        outSlope: 0
        tangentMode: 10
      m_PreInfinity: 2
      m_PostInfinity: 2
      m_RotationOrder: 4
    attribute: m_LocalPosition.y
    path: FFD_Ctrls_GRP_4/SlothGirl_Body_Ctrl_GRP_16/SlothGirl_Body_Ctrl_16
    classID: 4
    script: {fileID: 0}
  - curve:
      serializedVersion: 2
      m_Curve:
      - time: 0
        value: 0
        inSlope: 0
        outSlope: 0
        tangentMode: 10
      - time: 0.36683333
        value: 0
        inSlope: 0
        outSlope: 0
        tangentMode: 10
      m_PreInfinity: 2
      m_PostInfinity: 2
      m_RotationOrder: 4
    attribute: m_LocalPosition.z
    path: FFD_Ctrls_GRP_4/SlothGirl_Body_Ctrl_GRP_16/SlothGirl_Body_Ctrl_16
    classID: 4
    script: {fileID: 0}
  - curve:
      serializedVersion: 2
      m_Curve:
      - time: 0
        value: 1.4
        inSlope: 0
        outSlope: 0
        tangentMode: 10
      - time: 0.36683333
        value: 1.4
        inSlope: 0
        outSlope: 0
        tangentMode: 10
      m_PreInfinity: 2
      m_PostInfinity: 2
      m_RotationOrder: 4
    attribute: m_LocalPosition.x
    path: FFD_Ctrls_GRP_4/SlothGirl_Body_Ctrl_GRP_7/SlothGirl_Body_Ctrl_7
    classID: 4
    script: {fileID: 0}
  - curve:
      serializedVersion: 2
      m_Curve:
      - time: 0
        value: -5.2
        inSlope: 0
        outSlope: 0
        tangentMode: 10
      - time: 0.36683333
        value: -5.2
        inSlope: 0
        outSlope: 0
        tangentMode: 10
      m_PreInfinity: 2
      m_PostInfinity: 2
      m_RotationOrder: 4
    attribute: m_LocalPosition.y
    path: FFD_Ctrls_GRP_4/SlothGirl_Body_Ctrl_GRP_7/SlothGirl_Body_Ctrl_7
    classID: 4
    script: {fileID: 0}
  - curve:
      serializedVersion: 2
      m_Curve:
      - time: 0
        value: 0
        inSlope: 0
        outSlope: 0
        tangentMode: 10
      - time: 0.36683333
        value: 0
        inSlope: 0
        outSlope: 0
        tangentMode: 10
      m_PreInfinity: 2
      m_PostInfinity: 2
      m_RotationOrder: 4
    attribute: m_LocalPosition.z
    path: FFD_Ctrls_GRP_4/SlothGirl_Body_Ctrl_GRP_7/SlothGirl_Body_Ctrl_7
    classID: 4
    script: {fileID: 0}
  - curve:
      serializedVersion: 2
      m_Curve:
      - time: 0
        value: -15.6
        inSlope: 0
        outSlope: 0
        tangentMode: 10
      - time: 0.36683333
        value: -15.6
        inSlope: 0
        outSlope: 0
        tangentMode: 10
      m_PreInfinity: 2
      m_PostInfinity: 2
      m_RotationOrder: 4
    attribute: m_LocalPosition.x
    path: FFD_Ctrls_GRP_4/SlothGirl_Body_Ctrl_GRP_8/SlothGirl_Body_Ctrl_8
    classID: 4
    script: {fileID: 0}
  - curve:
      serializedVersion: 2
      m_Curve:
      - time: 0
        value: 0.8
        inSlope: 0
        outSlope: 0
        tangentMode: 10
      - time: 0.36683333
        value: 0.8
        inSlope: 0
        outSlope: 0
        tangentMode: 10
      m_PreInfinity: 2
      m_PostInfinity: 2
      m_RotationOrder: 4
    attribute: m_LocalPosition.y
    path: FFD_Ctrls_GRP_4/SlothGirl_Body_Ctrl_GRP_8/SlothGirl_Body_Ctrl_8
    classID: 4
    script: {fileID: 0}
  - curve:
      serializedVersion: 2
      m_Curve:
      - time: 0
        value: 0
        inSlope: 0
        outSlope: 0
        tangentMode: 10
      - time: 0.36683333
        value: 0
        inSlope: 0
        outSlope: 0
        tangentMode: 10
      m_PreInfinity: 2
      m_PostInfinity: 2
      m_RotationOrder: 4
    attribute: m_LocalPosition.z
    path: FFD_Ctrls_GRP_4/SlothGirl_Body_Ctrl_GRP_8/SlothGirl_Body_Ctrl_8
    classID: 4
    script: {fileID: 0}
  - curve:
      serializedVersion: 2
      m_Curve:
      - time: 0
        value: -24.5
        inSlope: 0
        outSlope: 0
        tangentMode: 10
      - time: 0.36683333
        value: -24.5
        inSlope: 0
        outSlope: 0
        tangentMode: 10
      m_PreInfinity: 2
      m_PostInfinity: 2
      m_RotationOrder: 4
    attribute: m_LocalPosition.x
    path: FFD_Ctrls_GRP_4/SlothGirl_Body_Ctrl_GRP_9/SlothGirl_Body_Ctrl_9
    classID: 4
    script: {fileID: 0}
  - curve:
      serializedVersion: 2
      m_Curve:
      - time: 0
        value: 9.6
        inSlope: 0
        outSlope: 0
        tangentMode: 10
      - time: 0.36683333
        value: 9.6
        inSlope: 0
        outSlope: 0
        tangentMode: 10
      m_PreInfinity: 2
      m_PostInfinity: 2
      m_RotationOrder: 4
    attribute: m_LocalPosition.y
    path: FFD_Ctrls_GRP_4/SlothGirl_Body_Ctrl_GRP_9/SlothGirl_Body_Ctrl_9
    classID: 4
    script: {fileID: 0}
  - curve:
      serializedVersion: 2
      m_Curve:
      - time: 0
        value: 0
        inSlope: 0
        outSlope: 0
        tangentMode: 10
      - time: 0.36683333
        value: 0
        inSlope: 0
        outSlope: 0
        tangentMode: 10
      m_PreInfinity: 2
      m_PostInfinity: 2
      m_RotationOrder: 4
    attribute: m_LocalPosition.z
    path: FFD_Ctrls_GRP_4/SlothGirl_Body_Ctrl_GRP_9/SlothGirl_Body_Ctrl_9
    classID: 4
    script: {fileID: 0}
  - curve:
      serializedVersion: 2
      m_Curve:
      - time: 0
        value: -18.168741
        inSlope: 0
        outSlope: 0
        tangentMode: 10
      - time: 0.36683333
        value: -18.168741
        inSlope: 0
        outSlope: 0
        tangentMode: 10
      m_PreInfinity: 2
      m_PostInfinity: 2
      m_RotationOrder: 4
    attribute: m_LocalPosition.x
    path: Huefte/Brust/Kopf/Sloth
    classID: 4
    script: {fileID: 0}
  - curve:
      serializedVersion: 2
      m_Curve:
      - time: 0
        value: 14.831744
        inSlope: 0
        outSlope: 0
        tangentMode: 10
      - time: 0.36683333
        value: 14.831744
        inSlope: 0
        outSlope: 0
        tangentMode: 10
      m_PreInfinity: 2
      m_PostInfinity: 2
      m_RotationOrder: 4
    attribute: m_LocalPosition.y
    path: Huefte/Brust/Kopf/Sloth
    classID: 4
    script: {fileID: 0}
  - curve:
      serializedVersion: 2
      m_Curve:
      - time: 0
        value: -0
        inSlope: 0
        outSlope: 0
        tangentMode: 10
      - time: 0.36683333
        value: -0
        inSlope: 0
        outSlope: 0
        tangentMode: 10
      m_PreInfinity: 2
      m_PostInfinity: 2
      m_RotationOrder: 4
    attribute: m_LocalPosition.z
    path: Huefte/Brust/Kopf/Sloth
    classID: 4
    script: {fileID: 0}
  - curve:
      serializedVersion: 2
      m_Curve:
      - time: 0
        value: 0
        inSlope: 0
        outSlope: 0
        tangentMode: 10
      - time: 0.36683333
        value: 0
        inSlope: 0
        outSlope: 0
        tangentMode: 10
      m_PreInfinity: 2
      m_PostInfinity: 2
      m_RotationOrder: 4
    attribute: localEulerAnglesRaw.x
    path: Huefte/Brust/Kopf/Sloth
    classID: 4
    script: {fileID: 0}
  - curve:
      serializedVersion: 2
      m_Curve:
      - time: 0
        value: 0
        inSlope: 0
        outSlope: 0
        tangentMode: 10
      - time: 0.36683333
        value: 0
        inSlope: 0
        outSlope: 0
        tangentMode: 10
      m_PreInfinity: 2
      m_PostInfinity: 2
      m_RotationOrder: 4
    attribute: localEulerAnglesRaw.y
    path: Huefte/Brust/Kopf/Sloth
    classID: 4
    script: {fileID: 0}
  - curve:
      serializedVersion: 2
      m_Curve:
      - time: 0
        value: 4.7948
        inSlope: 0
        outSlope: 0
        tangentMode: 10
      - time: 0.36683333
        value: 4.7948
        inSlope: 0
        outSlope: 0
        tangentMode: 10
      m_PreInfinity: 2
      m_PostInfinity: 2
      m_RotationOrder: 4
    attribute: localEulerAnglesRaw.z
    path: Huefte/Brust/Kopf/Sloth
    classID: 4
    script: {fileID: 0}
  - curve:
      serializedVersion: 2
      m_Curve:
      - time: 0
        value: 1.8314438
        inSlope: -12.857142
        outSlope: -12.857142
        tangentMode: 10
      - time: 0.11666667
        value: 0.3314438
        inSlope: -2.1489706
        outSlope: -2.1489706
        tangentMode: 10
      - time: 0.2335
        value: 1.3314438
        inSlope: 6.1546006
        outSlope: 6.1546006
        tangentMode: 10
      - time: 0.36683333
        value: 1.8314438
        inSlope: 3.7500002
        outSlope: 3.7500002
        tangentMode: 10
      m_PreInfinity: 2
      m_PostInfinity: 2
      m_RotationOrder: 4
    attribute: m_LocalPosition.x
    path: Huefte/Brust/Kopf/Sloth/SlothHandL_CTRL_GRP/SlothHandL_CTRL
    classID: 4
    script: {fileID: 0}
  - curve:
      serializedVersion: 2
      m_Curve:
      - time: 0
        value: 23.233942
        inSlope: -3.4285681
        outSlope: -3.4285681
        tangentMode: 10
      - time: 0.11666667
        value: 22.833942
        inSlope: 16.687994
        outSlope: 16.687994
        tangentMode: 10
      - time: 0.2335
        value: 27.133942
        inSlope: 3.7772799
        outSlope: 3.7772799
        tangentMode: 10
      - time: 0.36683333
        value: 23.233942
        inSlope: -29.249998
        outSlope: -29.249998
        tangentMode: 10
      m_PreInfinity: 2
      m_PostInfinity: 2
      m_RotationOrder: 4
    attribute: m_LocalPosition.y
    path: Huefte/Brust/Kopf/Sloth/SlothHandL_CTRL_GRP/SlothHandL_CTRL
    classID: 4
    script: {fileID: 0}
  - curve:
      serializedVersion: 2
      m_Curve:
      - time: 0
        value: -0
        inSlope: 0
        outSlope: 0
        tangentMode: 10
      - time: 0.11666667
        value: 0
        inSlope: 0
        outSlope: 0
        tangentMode: 10
      - time: 0.2335
        value: 0
        inSlope: 0
        outSlope: 0
        tangentMode: 10
      - time: 0.36683333
        value: -0
        inSlope: -0
        outSlope: -0
        tangentMode: 10
      m_PreInfinity: 2
      m_PostInfinity: 2
      m_RotationOrder: 4
    attribute: m_LocalPosition.z
    path: Huefte/Brust/Kopf/Sloth/SlothHandL_CTRL_GRP/SlothHandL_CTRL
    classID: 4
    script: {fileID: 0}
  - curve:
      serializedVersion: 2
      m_Curve:
      - time: 0
        value: 11
        inSlope: 41.999996
        outSlope: 41.999996
        tangentMode: 10
      - time: 0.11666667
        value: 15.9
        inSlope: 21.85592
        outSlope: 21.85592
        tangentMode: 10
      - time: 0.2335
        value: 16.1
        inSlope: -18.26908
        outSlope: -18.26908
        tangentMode: 10
      - time: 0.36683333
        value: 11
        inSlope: -38.250004
        outSlope: -38.250004
        tangentMode: 10
      m_PreInfinity: 2
      m_PostInfinity: 2
      m_RotationOrder: 4
    attribute: m_LocalPosition.x
    path: Huefte/Brust/Kopf/Sloth/SlothHandR_CTRL_GRP/SlothHandR_CTRL
    classID: 4
    script: {fileID: 0}
  - curve:
      serializedVersion: 2
      m_Curve:
      - time: 0
        value: 12
        inSlope: 18.000004
        outSlope: 18.000004
        tangentMode: 10
      - time: 0.11666667
        value: 14.1
        inSlope: 39.813118
        outSlope: 39.813118
        tangentMode: 10
      - time: 0.2335
        value: 21.3
        inSlope: -4.061882
        outSlope: -4.061882
        tangentMode: 10
      - time: 0.36683333
        value: 12
        inSlope: -69.75
        outSlope: -69.75
        tangentMode: 10
      m_PreInfinity: 2
      m_PostInfinity: 2
      m_RotationOrder: 4
    attribute: m_LocalPosition.y
    path: Huefte/Brust/Kopf/Sloth/SlothHandR_CTRL_GRP/SlothHandR_CTRL
    classID: 4
    script: {fileID: 0}
  - curve:
      serializedVersion: 2
      m_Curve:
      - time: 0
        value: 0
        inSlope: -0
        outSlope: -0
        tangentMode: 10
      - time: 0.11666667
        value: -0
        inSlope: 0
        outSlope: 0
        tangentMode: 10
      - time: 0.2335
        value: -0
        inSlope: 0
        outSlope: 0
        tangentMode: 10
      - time: 0.36683333
        value: 0
        inSlope: 0
        outSlope: 0
        tangentMode: 10
      m_PreInfinity: 2
      m_PostInfinity: 2
      m_RotationOrder: 4
    attribute: m_LocalPosition.z
    path: Huefte/Brust/Kopf/Sloth/SlothHandR_CTRL_GRP/SlothHandR_CTRL
    classID: 4
    script: {fileID: 0}
  - curve:
      serializedVersion: 2
      m_Curve:
      - time: 0
        value: -28.2
        inSlope: 5.1391892
        outSlope: 5.1391892
        tangentMode: 10
      - time: 0.2335
        value: -27
        inSlope: -1.9304087
        outSlope: -1.9304087
        tangentMode: 10
      - time: 0.36683333
        value: -28.2
        inSlope: -9.000007
        outSlope: -9.000007
        tangentMode: 10
      m_PreInfinity: 2
      m_PostInfinity: 2
      m_RotationOrder: 4
    attribute: m_LocalPosition.x
    path: FussR_CTRL
    classID: 4
    script: {fileID: 0}
  - curve:
      serializedVersion: 2
      m_Curve:
      - time: 0
        value: 38.9
        inSlope: -10.2783785
        outSlope: -10.2783785
        tangentMode: 10
      - time: 0.2335
        value: 36.5
        inSlope: 3.8608174
        outSlope: 3.8608174
        tangentMode: 10
      - time: 0.36683333
        value: 38.9
        inSlope: 18.000013
        outSlope: 18.000013
        tangentMode: 10
      m_PreInfinity: 2
      m_PostInfinity: 2
      m_RotationOrder: 4
    attribute: m_LocalPosition.y
    path: FussR_CTRL
    classID: 4
    script: {fileID: 0}
  - curve:
      serializedVersion: 2
      m_Curve:
      - time: 0
        value: -0
        inSlope: 0
        outSlope: 0
        tangentMode: 10
      - time: 0.2335
        value: -0
        inSlope: 0
        outSlope: 0
        tangentMode: 10
      - time: 0.36683333
        value: -0
        inSlope: 0
        outSlope: 0
        tangentMode: 10
      m_PreInfinity: 2
      m_PostInfinity: 2
      m_RotationOrder: 4
    attribute: m_LocalPosition.z
    path: FussR_CTRL
    classID: 4
    script: {fileID: 0}
  - curve:
      serializedVersion: 2
      m_Curve:
      - time: 0
        value: 0.0075999997
        inSlope: 0
        outSlope: 0
        tangentMode: 10
      - time: 0.36683333
        value: 0.0075999997
        inSlope: 0
        outSlope: 0
        tangentMode: 10
      m_PreInfinity: 2
      m_PostInfinity: 2
      m_RotationOrder: 4
    attribute: localEulerAnglesRaw.x
    path: FussR_CTRL
    classID: 4
    script: {fileID: 0}
  - curve:
      serializedVersion: 2
      m_Curve:
      - time: 0
        value: -0.0011999999
        inSlope: 0
        outSlope: 0
        tangentMode: 10
      - time: 0.36683333
        value: -0.0011999999
        inSlope: 0
        outSlope: 0
        tangentMode: 10
      m_PreInfinity: 2
      m_PostInfinity: 2
      m_RotationOrder: 4
    attribute: localEulerAnglesRaw.y
    path: FussR_CTRL
    classID: 4
    script: {fileID: 0}
  - curve:
      serializedVersion: 2
      m_Curve:
      - time: 0
        value: 110.3875
        inSlope: 0
        outSlope: 0
        tangentMode: 10
      - time: 0.36683333
        value: 110.3875
        inSlope: 0
        outSlope: 0
        tangentMode: 10
      m_PreInfinity: 2
      m_PostInfinity: 2
      m_RotationOrder: 4
    attribute: localEulerAnglesRaw.z
    path: FussR_CTRL
    classID: 4
    script: {fileID: 0}
  - curve:
      serializedVersion: 2
      m_Curve:
      - time: 0
        value: 0
        inSlope: 0
        outSlope: 0
        tangentMode: 0
      - time: 0.2335
        value: 0
        inSlope: 0
        outSlope: 0
        tangentMode: 0
      - time: 0.36683333
        value: 0
        inSlope: 0
        outSlope: 0
        tangentMode: 0
      m_PreInfinity: 2
      m_PostInfinity: 2
      m_RotationOrder: 4
    attribute: m_LocalRotation.x
    path: FussL_CTRL_GRP/FussL_CTRL
    classID: 4
    script: {fileID: 0}
  - curve:
      serializedVersion: 2
      m_Curve:
      - time: 0
        value: 0
        inSlope: 0
        outSlope: 0
        tangentMode: 0
      - time: 0.2335
        value: 0
        inSlope: 0
        outSlope: 0
        tangentMode: 0
      - time: 0.36683333
        value: 0
        inSlope: 0
        outSlope: 0
        tangentMode: 0
      m_PreInfinity: 2
      m_PostInfinity: 2
      m_RotationOrder: 4
    attribute: m_LocalRotation.y
    path: FussL_CTRL_GRP/FussL_CTRL
    classID: 4
    script: {fileID: 0}
  - curve:
      serializedVersion: 2
      m_Curve:
      - time: 0
        value: 0.59389335
        inSlope: 0
        outSlope: 0
        tangentMode: 0
      - time: 0.2335
        value: 0.59389335
        inSlope: 0
        outSlope: 0
        tangentMode: 0
      - time: 0.36683333
        value: 0.59389335
        inSlope: 0
        outSlope: 0
        tangentMode: 0
      m_PreInfinity: 2
      m_PostInfinity: 2
      m_RotationOrder: 4
    attribute: m_LocalRotation.z
    path: FussL_CTRL_GRP/FussL_CTRL
    classID: 4
    script: {fileID: 0}
  - curve:
      serializedVersion: 2
      m_Curve:
      - time: 0
        value: -0.8045438
        inSlope: 0
        outSlope: 0
        tangentMode: 0
      - time: 0.2335
        value: -0.8045438
        inSlope: 0
        outSlope: 0
        tangentMode: 0
      - time: 0.36683333
        value: -0.8045438
        inSlope: 0
        outSlope: 0
        tangentMode: 0
      m_PreInfinity: 2
      m_PostInfinity: 2
      m_RotationOrder: 4
    attribute: m_LocalRotation.w
    path: FussL_CTRL_GRP/FussL_CTRL
    classID: 4
    script: {fileID: 0}
  m_EulerEditorCurves:
  - curve:
      serializedVersion: 2
      m_Curve:
      - time: 0
        value: -0
        inSlope: 0
        outSlope: 0
        tangentMode: 0
      - time: 0.2335
        value: -0
        inSlope: 0
        outSlope: 0
        tangentMode: 0
      - time: 0.36683333
        value: -0
        inSlope: 0
        outSlope: 0
        tangentMode: 0
      m_PreInfinity: 2
      m_PostInfinity: 2
      m_RotationOrder: 4
    attribute: localEulerAngles.x
    path: FussL_CTRL_GRP/FussL_CTRL
    classID: 4
    script: {fileID: 0}
  - curve:
      serializedVersion: 2
      m_Curve:
      - time: 0
        value: 0
        inSlope: 0
        outSlope: 0
        tangentMode: 0
      - time: 0.2335
        value: 0
        inSlope: 0
        outSlope: 0
        tangentMode: 0
      - time: 0.36683333
        value: 0
        inSlope: 0
        outSlope: 0
        tangentMode: 0
      m_PreInfinity: 2
      m_PostInfinity: 2
      m_RotationOrder: 4
    attribute: localEulerAngles.y
    path: FussL_CTRL_GRP/FussL_CTRL
    classID: 4
    script: {fileID: 0}
  - curve:
      serializedVersion: 2
      m_Curve:
      - time: 0
        value: 287.13242
        inSlope: 0
        outSlope: 0
        tangentMode: 0
      - time: 0.2335
        value: 287.13242
        inSlope: 0
        outSlope: 0
        tangentMode: 0
      - time: 0.36683333
        value: 287.13242
        inSlope: 0
        outSlope: 0
        tangentMode: 0
      m_PreInfinity: 2
      m_PostInfinity: 2
      m_RotationOrder: 4
    attribute: localEulerAngles.z
    path: FussL_CTRL_GRP/FussL_CTRL
    classID: 4
    script: {fileID: 0}
  - curve:
      serializedVersion: 2
      m_Curve: []
      m_PreInfinity: 2
      m_PostInfinity: 2
      m_RotationOrder: 4
    attribute: m_LocalEulerAngles.z
    path: FussR_CTRL
    classID: 4
    script: {fileID: 0}
  - curve:
      serializedVersion: 2
      m_Curve: []
      m_PreInfinity: 2
      m_PostInfinity: 2
      m_RotationOrder: 4
    attribute: m_LocalEulerAngles.y
    path: FussR_CTRL
    classID: 4
    script: {fileID: 0}
  - curve:
      serializedVersion: 2
      m_Curve: []
      m_PreInfinity: 2
      m_PostInfinity: 2
      m_RotationOrder: 4
    attribute: m_LocalEulerAngles.x
    path: FussR_CTRL
    classID: 4
    script: {fileID: 0}
  - curve:
      serializedVersion: 2
      m_Curve: []
      m_PreInfinity: 2
      m_PostInfinity: 2
      m_RotationOrder: 4
    attribute: m_LocalEulerAngles.x
    path: Huefte/Brust/Kopf/Sloth
    classID: 4
    script: {fileID: 0}
  - curve:
      serializedVersion: 2
      m_Curve: []
      m_PreInfinity: 2
      m_PostInfinity: 2
      m_RotationOrder: 4
    attribute: m_LocalEulerAngles.y
    path: Huefte/Brust/Kopf/Sloth
    classID: 4
    script: {fileID: 0}
  - curve:
      serializedVersion: 2
      m_Curve: []
      m_PreInfinity: 2
      m_PostInfinity: 2
      m_RotationOrder: 4
    attribute: m_LocalEulerAngles.z
    path: Huefte/Brust/Kopf/Sloth
    classID: 4
    script: {fileID: 0}
  m_HasGenericRootTransform: 0
  m_HasMotionFloatCurves: 0
  m_GenerateMotionCurves: 0
  m_Events: []
