%YAML 1.1
%TAG !u! tag:unity3d.com,2011:
--- !u!74 &7400000
AnimationClip:
  m_ObjectHideFlags: 0
  m_PrefabParentObject: {fileID: 0}
  m_PrefabInternal: {fileID: 0}
  m_Name: Warrior_Sterben
  serializedVersion: 6
  m_Legacy: 0
  m_Compressed: 0
  m_UseHighQualityCurve: 1
  m_RotationCurves:
  - curve:
      serializedVersion: 2
      m_Curve:
      - time: 0
        value: {x: 0, y: 0, z: -0.002826143, w: 0.999996}
        inSlope: {x: 0, y: 0, z: -1.192187, w: -0.015217065}
        outSlope: {x: 0, y: 0, z: -1.192187, w: -0.015217065}
        tangentMode: 0
      - time: 0.016666668
        value: {x: 0, y: 0, z: -0.022695927, w: 0.9997424}
        inSlope: {x: 0, y: 0, z: -1.2626424, w: -0.03015518}
        outSlope: {x: 0, y: 0, z: -1.2626424, w: -0.03015518}
        tangentMode: 0
      - time: 0.033333335
        value: {x: 0, y: 0, z: -0.044914223, w: 0.99899083}
        inSlope: {x: 0, y: 0, z: -1.2971141, w: -0.05754947}
        outSlope: {x: 0, y: 0, z: -1.2971141, w: -0.05754947}
        tangentMode: 0
      - time: 0.050000004
        value: {x: 0, y: 0, z: -0.06593307, w: 0.9978241}
        inSlope: {x: 0, y: 0, z: -1.1191776, w: -0.07129848}
        outSlope: {x: 0, y: 0, z: -1.1191776, w: -0.07129848}
        tangentMode: 0
      - time: 0.06666667
        value: {x: 0, y: 0, z: -0.082220145, w: 0.9966142}
        inSlope: {x: 0, y: 0, z: -0.7299004, w: -0.057182916}
        outSlope: {x: 0, y: 0, z: -0.7299004, w: -0.057182916}
        tangentMode: 0
      - time: 0.083333336
        value: {x: 0, y: 0, z: -0.09026308, w: 0.995918}
        inSlope: {x: 0, y: 0, z: -0.22402258, w: -0.019328}
        outSlope: {x: 0, y: 0, z: -0.22402258, w: -0.019328}
        tangentMode: 0
      - time: 0.1
        value: {x: 0, y: 0, z: -0.08968756, w: 0.99596995}
        inSlope: {x: 0, y: 0, z: 0.20947897, w: 0.018244388}
        outSlope: {x: 0, y: 0, z: 0.20947897, w: 0.018244388}
        tangentMode: 0
      - time: 0.11666667
        value: {x: 0, y: 0, z: -0.08328045, w: 0.9965261}
        inSlope: {x: 0, y: 0, z: 0.5224131, w: 0.042446844}
        outSlope: {x: 0, y: 0, z: 0.5224131, w: 0.042446844}
        tangentMode: 0
      - time: 0.13333334
        value: {x: 0, y: 0, z: -0.07227379, w: 0.99738485}
        inSlope: {x: 0, y: 0, z: 0.76141846, w: 0.053889148}
        outSlope: {x: 0, y: 0, z: 0.76141846, w: 0.053889148}
        tangentMode: 0
      - time: 0.15
        value: {x: 0, y: 0, z: -0.057899833, w: 0.9983224}
        inSlope: {x: 0, y: 0, z: 0.9263422, w: 0.052739386}
        outSlope: {x: 0, y: 0, z: 0.9263422, w: 0.052739386}
        tangentMode: 0
      - time: 0.16666667
        value: {x: 0, y: 0, z: -0.04139572, w: 0.9991428}
        inSlope: {x: 0, y: 0, z: 1.0168458, w: 0.04168153}
        outSlope: {x: 0, y: 0, z: 1.0168458, w: 0.04168153}
        tangentMode: 0
      - time: 0.18333334
        value: {x: 0, y: 0, z: -0.024004973, w: 0.9997118}
        inSlope: {x: 0, y: 0, z: 1.0325978, w: 0.024985675}
        outSlope: {x: 0, y: 0, z: 1.0325978, w: 0.024985675}
        tangentMode: 0
      - time: 0.2
        value: {x: 0, y: 0, z: -0.006975795, w: 0.9999757}
        inSlope: {x: 0, y: 0, z: 0.9734154, w: 0.0075763473}
        outSlope: {x: 0, y: 0, z: 0.9734154, w: 0.0075763473}
        tangentMode: 0
      - time: 0.21666667
        value: {x: 0, y: 0, z: 0.008442204, w: 0.99996436}
        inSlope: {x: 0, y: 0, z: 0.839309, w: -0.005886555}
        outSlope: {x: 0, y: 0, z: 0.839309, w: -0.005886555}
        tangentMode: 0
      - time: 0.23333333
        value: {x: 0, y: 0, z: 0.02100117, w: 0.99977946}
        inSlope: {x: 0, y: 0, z: 0.63043475, w: -0.011948348}
        outSlope: {x: 0, y: 0, z: 0.63043475, w: -0.011948348}
        tangentMode: 0
      - time: 0.25
        value: {x: 0, y: 0, z: 0.029456694, w: 0.9995661}
        inSlope: {x: 0, y: 0, z: 0.3841513, w: -0.010532138}
        outSlope: {x: 0, y: 0, z: 0.3841513, w: -0.010532138}
        tangentMode: 0
      - time: 0.26666668
        value: {x: 0, y: 0, z: 0.033806216, w: 0.9994284}
        inSlope: {x: 0, y: 0, z: 0.17583564, w: -0.0056987954}
        outSlope: {x: 0, y: 0, z: 0.17583564, w: -0.0056987954}
        tangentMode: 0
      - time: 0.28333336
        value: {x: 0, y: 0, z: 0.035317887, w: 0.9993761}
        inSlope: {x: 0, y: 0, z: 0.025463866, w: -0.00087082316}
        outSlope: {x: 0, y: 0, z: 0.025463866, w: -0.00087082316}
        tangentMode: 0
      - time: 0.30000004
        value: {x: 0, y: 0, z: 0.034655012, w: 0.99939936}
        inSlope: {x: 0, y: 0, z: -0.08512498, w: 0.0028878427}
        outSlope: {x: 0, y: 0, z: -0.08512498, w: 0.0028878427}
        tangentMode: 0
      - time: 0.31666672
        value: {x: 0, y: 0, z: 0.032480385, w: 0.9994724}
        inSlope: {x: 0, y: 0, z: -0.15594977, w: 0.0050014216}
        outSlope: {x: 0, y: 0, z: -0.15594977, w: 0.0050014216}
        tangentMode: 0
      - time: 0.3333334
        value: {x: 0, y: 0, z: 0.029456683, w: 0.9995661}
        inSlope: {x: 0, y: 0, z: -0.2223936, w: 0.0064015333}
        outSlope: {x: 0, y: 0, z: -0.2223936, w: 0.0064015333}
        tangentMode: 0
      - time: 0.35000008
        value: {x: 0, y: 0, z: 0.025067259, w: 0.99968576}
        inSlope: {x: 0, y: 0, z: -0.3176114, w: 0.0076764757}
        outSlope: {x: 0, y: 0, z: -0.3176114, w: 0.0076764757}
        tangentMode: 0
      - time: 0.36666676
        value: {x: 0, y: 0, z: 0.018869627, w: 0.99982196}
        inSlope: {x: 0, y: 0, z: -0.40287256, w: 0.0073957383}
        outSlope: {x: 0, y: 0, z: -0.40287256, w: 0.0073957383}
        tangentMode: 0
      - time: 0.38333344
        value: {x: 0, y: 0, z: 0.011638163, w: 0.9999323}
        inSlope: {x: 0, y: 0, z: -0.4416546, w: 0.005083676}
        outSlope: {x: 0, y: 0, z: -0.4416546, w: 0.005083676}
        tangentMode: 0
      - time: 0.40000013
        value: {x: 0, y: 0, z: 0.004147795, w: 0.9999914}
        inSlope: {x: 0, y: 0, z: -0.4339307, w: 0.0019115206}
        outSlope: {x: 0, y: 0, z: -0.4339307, w: 0.0019115206}
        tangentMode: 0
      - time: 0.41666666
        value: {x: 0, y: 0, z: -0.002826143, w: 0.999996}
        inSlope: {x: 0, y: 0, z: -0.4184397, w: 0.0002753757}
        outSlope: {x: 0, y: 0, z: -0.4184397, w: 0.0002753757}
        tangentMode: 0
      m_PreInfinity: 2
      m_PostInfinity: 2
      m_RotationOrder: 4
    path: Brust_CTRL_GRP/Brust_CTRL
  - curve:
      serializedVersion: 2
      m_Curve:
      - time: 0
        value: {x: 0, y: 0, z: 0.060361777, w: -0.9981766}
        inSlope: {x: 0, y: 0, z: 0, w: 0}
        outSlope: {x: 0, y: 0, z: 0, w: 0}
        tangentMode: 0
      m_PreInfinity: 2
      m_PostInfinity: 2
      m_RotationOrder: 4
    path: "Fu\xDFL_CTRL_GRP/Fu\xDFL_CTRL"
  m_CompressedRotationCurves: []
  m_EulerCurves:
  - curve:
      serializedVersion: 2
      m_Curve:
      - time: 0
        value: {x: 0, y: 0, z: 568.9429}
        inSlope: {x: 0, y: 0, z: -2813.815}
        outSlope: {x: 0, y: 0, z: -2813.815}
        tangentMode: 0
      - time: 0.083333336
        value: {x: 0, y: 0, z: 334.45828}
        inSlope: {x: 0, y: 0, z: -324.1853}
        outSlope: {x: 0, y: 0, z: -324.1853}
        tangentMode: 0
      - time: 0.16666667
        value: {x: 0, y: 0, z: 514.912}
        inSlope: {x: 0, y: 0, z: 1084.3331}
        outSlope: {x: 0, y: 0, z: 1084.3331}
        tangentMode: 0
      - time: 0.25
        value: {x: 0, y: 0, z: 515.1805}
        inSlope: {x: 0, y: 0, z: 162.89815}
        outSlope: {x: 0, y: 0, z: 162.89815}
        tangentMode: 0
      - time: 0.41666666
        value: {x: 0, y: 0, z: 568.9429}
        inSlope: {x: 0, y: 0, z: 322.57437}
        outSlope: {x: 0, y: 0, z: 322.57437}
        tangentMode: 0
      m_PreInfinity: 2
      m_PostInfinity: 2
      m_RotationOrder: 4
    path: Huefte/Brust/SchulterR/ArmR/warrior_Amolette
  - curve:
      serializedVersion: 2
      m_Curve:
      - time: 0
        value: {x: 0, y: 0, z: 6.0724998}
        inSlope: {x: 0, y: 0, z: 143.445}
        outSlope: {x: 0, y: 0, z: 143.445}
        tangentMode: 0
      - time: 0.033333335
        value: {x: 0, y: 0, z: 10.854}
        inSlope: {x: 0, y: 0, z: 65.48576}
        outSlope: {x: 0, y: 0, z: 65.48576}
        tangentMode: 0
      - time: 0.41666666
        value: {x: 0, y: 0, z: 6.0724998}
        inSlope: {x: 0, y: 0, z: -12.473479}
        outSlope: {x: 0, y: 0, z: -12.473479}
        tangentMode: 0
      m_PreInfinity: 2
      m_PostInfinity: 2
      m_RotationOrder: 4
    path: Huefte_CTRL_GRP/Huefte_CTRL
  - curve:
      serializedVersion: 2
      m_Curve:
      - time: 0
        value: {x: 0, y: 0, z: -4.9967}
        inSlope: {x: 0, y: 0, z: -71.781006}
        outSlope: {x: 0, y: 0, z: -71.781006}
        tangentMode: 0
      - time: 0.033333335
        value: {x: 0, y: 0, z: -7.3894}
        inSlope: {x: 0, y: 0, z: -32.76959}
        outSlope: {x: 0, y: 0, z: -32.76959}
        tangentMode: 0
      - time: 0.41666666
        value: {x: 0, y: 0, z: -4.9967}
        inSlope: {x: 0, y: 0, z: 6.2418265}
        outSlope: {x: 0, y: 0, z: 6.2418265}
        tangentMode: 0
      m_PreInfinity: 2
      m_PostInfinity: 2
      m_RotationOrder: 4
    path: Kopf_CTRL_GRP/Kopf_CTRL
  - curve:
      serializedVersion: 2
      m_Curve:
      - time: 0
        value: {x: 0, y: 0, z: -4.3241997}
        inSlope: {x: 0, y: 0, z: 0}
        outSlope: {x: 0, y: 0, z: 0}
        tangentMode: 0
      - time: 0.41666666
        value: {x: 0, y: 0, z: -4.3241997}
        inSlope: {x: 0, y: 0, z: 0}
        outSlope: {x: 0, y: 0, z: 0}
        tangentMode: 0
      m_PreInfinity: 2
      m_PostInfinity: 2
      m_RotationOrder: 4
    path: "Fu\xDFR_CTRL_GRP/Fu\xDFR_CTRL"
  m_PositionCurves:
  - curve:
      serializedVersion: 2
      m_Curve:
      - time: 0
        value: {x: -5.2, y: 15.4, z: 0}
        inSlope: {x: -26.400003, y: 158.40001, z: 0}
        outSlope: {x: -26.400003, y: 158.40001, z: 0}
        tangentMode: 0
      - time: 0.083333336
        value: {x: -7.4, y: 28.6, z: 0}
        inSlope: {x: 120.00001, y: 37.2, z: 0}
        outSlope: {x: 120.00001, y: 37.2, z: 0}
        tangentMode: 0
      - time: 0.25
        value: {x: 37, y: 14.6, z: 0}
        inSlope: {x: -12.179962, y: -76.44, z: 0}
        outSlope: {x: -12.179962, y: -76.44, z: 0}
        tangentMode: 0
      - time: 0.33333334
        value: {x: 12.77, y: 8.86, z: -0}
        inSlope: {x: -253.20001, y: 4.8000107, z: 0}
        outSlope: {x: -253.20001, y: 4.8000107, z: 0}
        tangentMode: 0
      - time: 0.41666666
        value: {x: -5.2, y: 15.4, z: 0}
        inSlope: {x: -215.64006, y: 78.48002, z: 0}
        outSlope: {x: -215.64006, y: 78.48002, z: 0}
        tangentMode: 0
      m_PreInfinity: 2
      m_PostInfinity: 2
      m_RotationOrder: 4
    path: HandL_CTRL_GRP/HandL_CTRL
  - curve:
      serializedVersion: 2
      m_Curve:
      - time: 0
        value: {x: -37.5, y: 23.8, z: 0}
        inSlope: {x: 606, y: 322.80002, z: 0}
        outSlope: {x: 606, y: 322.80002, z: 0}
        tangentMode: 0
      - time: 0.083333336
        value: {x: 13, y: 50.7, z: 0}
        inSlope: {x: 240.6, y: 162.6, z: 0}
        outSlope: {x: 240.6, y: 162.6, z: 0}
        tangentMode: 0
      - time: 0.16666667
        value: {x: 2.6, y: 50.9, z: 0}
        inSlope: {x: -413.46, y: -134.46002, z: 0}
        outSlope: {x: -413.46, y: -134.46002, z: 0}
        tangentMode: 0
      - time: 0.25
        value: {x: -55.91, y: 28.29, z: -0}
        inSlope: {x: -351.06, y: -135.66002, z: 0}
        outSlope: {x: -351.06, y: -135.66002, z: 0}
        tangentMode: 0
      - time: 0.33333334
        value: {x: -55.91, y: 28.29, z: -0}
        inSlope: {x: 110.46002, y: -26.940016, z: 0}
        outSlope: {x: 110.46002, y: -26.940016, z: 0}
        tangentMode: 0
      - time: 0.41666666
        value: {x: -37.5, y: 23.8, z: 0}
        inSlope: {x: 220.92004, y: -53.88003, z: 0}
        outSlope: {x: 220.92004, y: -53.88003, z: 0}
        tangentMode: 0
      m_PreInfinity: 2
      m_PostInfinity: 2
      m_RotationOrder: 4
    path: HandR_CTRL_GRP/HandR_CTRL
  - curve:
      serializedVersion: 2
      m_Curve:
      - time: 0
        value: {x: 0.09, y: 1.26, z: 0}
        inSlope: {x: 0.23999995, y: -0.5999994, z: 0}
        outSlope: {x: 0.23999995, y: -0.5999994, z: 0}
        tangentMode: 0
      - time: 0.083333336
        value: {x: 0.11, y: 1.21, z: 0}
        inSlope: {x: 0.54, y: 0, z: 0}
        outSlope: {x: 0.54, y: 0, z: 0}
        tangentMode: 0
      - time: 0.16666667
        value: {x: 0.18, y: 1.26, z: -0}
        inSlope: {x: -0.120000035, y: -0.119999915, z: 0}
        outSlope: {x: -0.120000035, y: -0.119999915, z: 0}
        tangentMode: 0
      - time: 0.25
        value: {x: 0.09, y: 1.19, z: 0}
        inSlope: {x: -0.5400001, y: -0.20999981, z: 0}
        outSlope: {x: -0.5400001, y: -0.20999981, z: 0}
        tangentMode: 0
      - time: 0.41666666
        value: {x: 0.09, y: 1.26, z: 0}
        inSlope: {x: 0, y: 0.41999963, z: 0}
        outSlope: {x: 0, y: 0.41999963, z: 0}
        tangentMode: 0
      m_PreInfinity: 2
      m_PostInfinity: 2
      m_RotationOrder: 4
    path: Huefte/Brust/SchulterR/ArmR/warrior_Amolette
  - curve:
      serializedVersion: 2
      m_Curve:
      - time: 0
        value: {x: 0, y: 0, z: -1.6484591e-12}
        inSlope: {x: 7.324588, y: -16.937906, z: 7.56728e-12}
        outSlope: {x: 7.324588, y: -16.937906, z: 7.56728e-12}
        tangentMode: 0
      - time: 0.033333335
        value: {x: 0.24415293, y: -0.5645969, z: -1.3962165e-12}
        inSlope: {x: 6.791172, y: -15.704498, z: 7.005678e-12}
        outSlope: {x: 6.791172, y: -15.704498, z: 7.005678e-12}
        tangentMode: 0
      - time: 0.25
        value: {x: 1.6, y: -3.7, z: -0}
        inSlope: {x: -1.6711223, y: 3.8644547, z: -1.7233398e-12}
        outSlope: {x: -1.6711223, y: 3.8644547, z: -1.7233398e-12}
        tangentMode: 0
      - time: 0.41666666
        value: {x: 0, y: 0, z: -1.6484591e-12}
        inSlope: {x: -9.6, y: 22.2, z: -9.890756e-12}
        outSlope: {x: -9.6, y: 22.2, z: -9.890756e-12}
        tangentMode: 0
      m_PreInfinity: 2
      m_PostInfinity: 2
      m_RotationOrder: 4
    path: Huefte_CTRL_GRP/Huefte_CTRL
  - curve:
      serializedVersion: 2
      m_Curve:
      - time: 0
        value: {x: 8, y: -2.099999, z: 5.963112e-19}
        inSlope: {x: 0, y: 0, z: 0}
        outSlope: {x: 0, y: 0, z: 0}
        tangentMode: 0
      m_PreInfinity: 2
      m_PostInfinity: 2
      m_RotationOrder: 4
    path: "Fu\xDFL_CTRL_GRP/Fu\xDFL_CTRL"
  - curve:
      serializedVersion: 2
      m_Curve:
      - time: 0
        value: {x: 0, y: 0, z: 0}
        inSlope: {x: 0.00022888182, y: -6.7128774e-25, z: -6.2360423e-18}
        outSlope: {x: 0.00022888182, y: -6.7128774e-25, z: -6.2360423e-18}
        tangentMode: 0
      - time: 0.033333335
        value: {x: 0.0000076293945, y: -2.237626e-26, z: -2.0786808e-19}
        inSlope: {x: 0.000104489525, y: -3.0645745e-25, z: -2.846889e-18}
        outSlope: {x: 0.000104489525, y: -3.0645745e-25, z: -2.846889e-18}
        tangentMode: 0
      - time: 0.41666666
        value: {x: 0, y: 0, z: 0}
        inSlope: {x: -0.000019902769, y: 5.8372854e-26, z: 5.4226456e-19}
        outSlope: {x: -0.000019902769, y: 5.8372854e-26, z: 5.4226456e-19}
        tangentMode: 0
      m_PreInfinity: 2
      m_PostInfinity: 2
      m_RotationOrder: 4
    path: Kopf_CTRL_GRP/Kopf_CTRL
  - curve:
      serializedVersion: 2
      m_Curve:
      - time: 0
        value: {x: -2.4, y: 1.5, z: -0}
        inSlope: {x: 0, y: 0, z: 0}
        outSlope: {x: 0, y: 0, z: 0}
        tangentMode: 0
      m_PreInfinity: 2
      m_PostInfinity: 2
      m_RotationOrder: 4
    path: "Fu\xDFR_CTRL_GRP/Fu\xDFR_CTRL"
  m_ScaleCurves: []
  m_FloatCurves: []
  m_PPtrCurves: []
  m_SampleRate: 60
  m_WrapMode: 0
  m_Bounds:
    m_Center: {x: 0, y: 0, z: 0}
    m_Extent: {x: 0, y: 0, z: 0}
  m_ClipBindingConstant:
    genericBindings:
    - path: 3395650270
      attribute: 1
      script: {fileID: 0}
      classID: 4
      customType: 0
      isPPtrCurve: 0
    - path: 1804795753
      attribute: 1
      script: {fileID: 0}
      classID: 4
      customType: 0
      isPPtrCurve: 0
    - path: 1028011994
      attribute: 1
      script: {fileID: 0}
      classID: 4
      customType: 0
      isPPtrCurve: 0
    - path: 3257212491
      attribute: 1
      script: {fileID: 0}
      classID: 4
      customType: 0
      isPPtrCurve: 0
    - path: 3339800587
      attribute: 1
      script: {fileID: 0}
      classID: 4
      customType: 0
      isPPtrCurve: 0
    - path: 4199396277
      attribute: 2
      script: {fileID: 0}
      classID: 4
      customType: 0
      isPPtrCurve: 0
    - path: 1028011994
      attribute: 4
      script: {fileID: 0}
      classID: 4
      customType: 14
      isPPtrCurve: 0
    - path: 3257212491
      attribute: 4
      script: {fileID: 0}
      classID: 4
      customType: 14
      isPPtrCurve: 0
    - path: 3339800587
      attribute: 4
      script: {fileID: 0}
      classID: 4
      customType: 14
      isPPtrCurve: 0
    - path: 2501583950
      attribute: 1
      script: {fileID: 0}
      classID: 4
      customType: 0
      isPPtrCurve: 0
    - path: 887904761
      attribute: 1
      script: {fileID: 0}
      classID: 4
      customType: 0
      isPPtrCurve: 0
    - path: 2501583950
      attribute: 2
      script: {fileID: 0}
      classID: 4
      customType: 0
      isPPtrCurve: 0
    - path: 887904761
      attribute: 4
      script: {fileID: 0}
      classID: 4
      customType: 14
      isPPtrCurve: 0
    pptrCurveMapping: []
  m_AnimationClipSettings:
    serializedVersion: 2
    m_AdditiveReferencePoseClip: {fileID: 0}
    m_AdditiveReferencePoseTime: 0
    m_StartTime: 0
    m_StopTime: 0.41666666
    m_OrientationOffsetY: 0
    m_Level: 0
    m_CycleOffset: 0
    m_HasAdditiveReferencePose: 0
    m_LoopTime: 1
    m_LoopBlend: 0
    m_LoopBlendOrientation: 0
    m_LoopBlendPositionY: 0
    m_LoopBlendPositionXZ: 0
    m_KeepOriginalOrientation: 0
    m_KeepOriginalPositionY: 1
    m_KeepOriginalPositionXZ: 0
    m_HeightFromFeet: 0
    m_Mirror: 0
  m_EditorCurves:
  - curve:
      serializedVersion: 2
      m_Curve:
      - time: 0
        value: -5.2
        inSlope: -26.400003
        outSlope: -26.400003
        tangentMode: 10
      - time: 0.083333336
        value: -7.4
        inSlope: 120.00001
        outSlope: 120.00001
        tangentMode: 10
      - time: 0.25
        value: 37
        inSlope: -12.179962
        outSlope: -12.179962
        tangentMode: 10
      - time: 0.33333334
        value: 12.77
        inSlope: -253.20001
        outSlope: -253.20001
        tangentMode: 10
      - time: 0.41666666
        value: -5.2
        inSlope: -215.64006
        outSlope: -215.64006
        tangentMode: 10
      m_PreInfinity: 2
      m_PostInfinity: 2
      m_RotationOrder: 4
    attribute: m_LocalPosition.x
    path: HandL_CTRL_GRP/HandL_CTRL
    classID: 4
    script: {fileID: 0}
  - curve:
      serializedVersion: 2
      m_Curve:
      - time: 0
        value: 15.4
        inSlope: 158.40001
        outSlope: 158.40001
        tangentMode: 10
      - time: 0.083333336
        value: 28.6
        inSlope: 37.2
        outSlope: 37.2
        tangentMode: 10
      - time: 0.25
        value: 14.6
        inSlope: -76.44
        outSlope: -76.44
        tangentMode: 10
      - time: 0.33333334
        value: 8.86
        inSlope: 4.8000107
        outSlope: 4.8000107
        tangentMode: 10
      - time: 0.41666666
        value: 15.4
        inSlope: 78.48002
        outSlope: 78.48002
        tangentMode: 10
      m_PreInfinity: 2
      m_PostInfinity: 2
      m_RotationOrder: 4
    attribute: m_LocalPosition.y
    path: HandL_CTRL_GRP/HandL_CTRL
    classID: 4
    script: {fileID: 0}
  - curve:
      serializedVersion: 2
      m_Curve:
      - time: 0
        value: 0
        inSlope: 0
        outSlope: 0
        tangentMode: 10
      - time: 0.083333336
        value: 0
        inSlope: 0
        outSlope: 0
        tangentMode: 10
      - time: 0.25
        value: 0
        inSlope: 0
        outSlope: 0
        tangentMode: 10
      - time: 0.33333334
        value: -0
        inSlope: 0
        outSlope: 0
        tangentMode: 10
      - time: 0.41666666
        value: 0
        inSlope: 0
        outSlope: 0
        tangentMode: 10
      m_PreInfinity: 2
      m_PostInfinity: 2
      m_RotationOrder: 4
    attribute: m_LocalPosition.z
    path: HandL_CTRL_GRP/HandL_CTRL
    classID: 4
    script: {fileID: 0}
  - curve:
      serializedVersion: 2
      m_Curve:
      - time: 0
        value: -37.5
        inSlope: 606
        outSlope: 606
        tangentMode: 10
      - time: 0.083333336
        value: 13
        inSlope: 240.6
        outSlope: 240.6
        tangentMode: 10
      - time: 0.16666667
        value: 2.6
        inSlope: -413.46
        outSlope: -413.46
        tangentMode: 10
      - time: 0.25
        value: -55.91
        inSlope: -351.06
        outSlope: -351.06
        tangentMode: 10
      - time: 0.33333334
        value: -55.91
        inSlope: 110.46002
        outSlope: 110.46002
        tangentMode: 10
      - time: 0.41666666
        value: -37.5
        inSlope: 220.92004
        outSlope: 220.92004
        tangentMode: 10
      m_PreInfinity: 2
      m_PostInfinity: 2
      m_RotationOrder: 4
    attribute: m_LocalPosition.x
    path: HandR_CTRL_GRP/HandR_CTRL
    classID: 4
    script: {fileID: 0}
  - curve:
      serializedVersion: 2
      m_Curve:
      - time: 0
        value: 23.8
        inSlope: 322.80002
        outSlope: 322.80002
        tangentMode: 10
      - time: 0.083333336
        value: 50.7
        inSlope: 162.6
        outSlope: 162.6
        tangentMode: 10
      - time: 0.16666667
        value: 50.9
        inSlope: -134.46002
        outSlope: -134.46002
        tangentMode: 10
      - time: 0.25
        value: 28.29
        inSlope: -135.66002
        outSlope: -135.66002
        tangentMode: 10
      - time: 0.33333334
        value: 28.29
        inSlope: -26.940016
        outSlope: -26.940016
        tangentMode: 10
      - time: 0.41666666
        value: 23.8
        inSlope: -53.88003
        outSlope: -53.88003
        tangentMode: 10
      m_PreInfinity: 2
      m_PostInfinity: 2
      m_RotationOrder: 4
    attribute: m_LocalPosition.y
    path: HandR_CTRL_GRP/HandR_CTRL
    classID: 4
    script: {fileID: 0}
  - curve:
      serializedVersion: 2
      m_Curve:
      - time: 0
        value: 0
        inSlope: 0
        outSlope: 0
        tangentMode: 10
      - time: 0.083333336
        value: 0
        inSlope: 0
        outSlope: 0
        tangentMode: 10
      - time: 0.16666667
        value: 0
        inSlope: 0
        outSlope: 0
        tangentMode: 10
      - time: 0.25
        value: -0
        inSlope: 0
        outSlope: 0
        tangentMode: 10
      - time: 0.33333334
        value: -0
        inSlope: 0
        outSlope: 0
        tangentMode: 10
      - time: 0.41666666
        value: 0
        inSlope: 0
        outSlope: 0
        tangentMode: 10
      m_PreInfinity: 2
      m_PostInfinity: 2
      m_RotationOrder: 4
    attribute: m_LocalPosition.z
    path: HandR_CTRL_GRP/HandR_CTRL
    classID: 4
    script: {fileID: 0}
  - curve:
      serializedVersion: 2
      m_Curve:
      - time: 0
        value: 0
        inSlope: 0
        outSlope: 0
        tangentMode: 10
      - time: 0.083333336
        value: 0
        inSlope: 0
        outSlope: 0
        tangentMode: 10
      - time: 0.16666667
        value: 0
        inSlope: 0
        outSlope: 0
        tangentMode: 10
      - time: 0.25
        value: 0
        inSlope: 0
        outSlope: 0
        tangentMode: 10
      - time: 0.41666666
        value: 0
        inSlope: 0
        outSlope: 0
        tangentMode: 10
      m_PreInfinity: 2
      m_PostInfinity: 2
      m_RotationOrder: 4
    attribute: localEulerAnglesRaw.x
    path: Huefte/Brust/SchulterR/ArmR/warrior_Amolette
    classID: 4
    script: {fileID: 0}
  - curve:
      serializedVersion: 2
      m_Curve:
      - time: 0
        value: 0
        inSlope: 0
        outSlope: 0
        tangentMode: 10
      - time: 0.083333336
        value: 0
        inSlope: 0
        outSlope: 0
        tangentMode: 10
      - time: 0.16666667
        value: 0
        inSlope: 0
        outSlope: 0
        tangentMode: 10
      - time: 0.25
        value: 0
        inSlope: 0
        outSlope: 0
        tangentMode: 10
      - time: 0.41666666
        value: 0
        inSlope: 0
        outSlope: 0
        tangentMode: 10
      m_PreInfinity: 2
      m_PostInfinity: 2
      m_RotationOrder: 4
    attribute: localEulerAnglesRaw.y
    path: Huefte/Brust/SchulterR/ArmR/warrior_Amolette
    classID: 4
    script: {fileID: 0}
  - curve:
      serializedVersion: 2
      m_Curve:
      - time: 0
        value: 568.9429
        inSlope: -2813.815
        outSlope: -2813.815
        tangentMode: 10
      - time: 0.083333336
        value: 334.45828
        inSlope: -324.1853
        outSlope: -324.1853
        tangentMode: 10
      - time: 0.16666667
        value: 514.912
        inSlope: 1084.3331
        outSlope: 1084.3331
        tangentMode: 10
      - time: 0.25
        value: 515.1805
        inSlope: 162.89815
        outSlope: 162.89815
        tangentMode: 10
      - time: 0.41666666
        value: 568.9429
        inSlope: 322.57437
        outSlope: 322.57437
        tangentMode: 10
      m_PreInfinity: 2
      m_PostInfinity: 2
      m_RotationOrder: 4
    attribute: localEulerAnglesRaw.z
    path: Huefte/Brust/SchulterR/ArmR/warrior_Amolette
    classID: 4
    script: {fileID: 0}
  - curve:
      serializedVersion: 2
      m_Curve:
      - time: 0
        value: 0.09
        inSlope: 0.23999995
        outSlope: 0.23999995
        tangentMode: 10
      - time: 0.083333336
        value: 0.11
        inSlope: 0.54
        outSlope: 0.54
        tangentMode: 10
      - time: 0.16666667
        value: 0.18
        inSlope: -0.120000035
        outSlope: -0.120000035
        tangentMode: 10
      - time: 0.25
        value: 0.09
        inSlope: -0.5400001
        outSlope: -0.5400001
        tangentMode: 10
      - time: 0.41666666
        value: 0.09
        inSlope: 0
        outSlope: 0
        tangentMode: 10
      m_PreInfinity: 2
      m_PostInfinity: 2
      m_RotationOrder: 4
    attribute: m_LocalPosition.x
    path: Huefte/Brust/SchulterR/ArmR/warrior_Amolette
    classID: 4
    script: {fileID: 0}
  - curve:
      serializedVersion: 2
      m_Curve:
      - time: 0
        value: 1.26
        inSlope: -0.5999994
        outSlope: -0.5999994
        tangentMode: 10
      - time: 0.083333336
        value: 1.21
        inSlope: 0
        outSlope: 0
        tangentMode: 10
      - time: 0.16666667
        value: 1.26
        inSlope: -0.119999915
        outSlope: -0.119999915
        tangentMode: 10
      - time: 0.25
        value: 1.19
        inSlope: -0.20999981
        outSlope: -0.20999981
        tangentMode: 10
      - time: 0.41666666
        value: 1.26
        inSlope: 0.41999963
        outSlope: 0.41999963
        tangentMode: 10
      m_PreInfinity: 2
      m_PostInfinity: 2
      m_RotationOrder: 4
    attribute: m_LocalPosition.y
    path: Huefte/Brust/SchulterR/ArmR/warrior_Amolette
    classID: 4
    script: {fileID: 0}
  - curve:
      serializedVersion: 2
      m_Curve:
      - time: 0
        value: 0
        inSlope: 0
        outSlope: 0
        tangentMode: 10
      - time: 0.083333336
        value: 0
        inSlope: 0
        outSlope: 0
        tangentMode: 10
      - time: 0.16666667
        value: -0
        inSlope: 0
        outSlope: 0
        tangentMode: 10
      - time: 0.25
        value: 0
        inSlope: 0
        outSlope: 0
        tangentMode: 10
      - time: 0.41666666
        value: 0
        inSlope: 0
        outSlope: 0
        tangentMode: 10
      m_PreInfinity: 2
      m_PostInfinity: 2
      m_RotationOrder: 4
    attribute: m_LocalPosition.z
    path: Huefte/Brust/SchulterR/ArmR/warrior_Amolette
    classID: 4
    script: {fileID: 0}
  - curve:
      serializedVersion: 2
      m_Curve:
      - time: 0
        value: 0
        inSlope: 7.324588
        outSlope: 7.324588
        tangentMode: 10
      - time: 0.033333335
        value: 0.24415293
        inSlope: 6.791172
        outSlope: 6.791172
        tangentMode: 10
      - time: 0.25
        value: 1.6
        inSlope: -1.6711223
        outSlope: -1.6711223
        tangentMode: 10
      - time: 0.41666666
        value: 0
        inSlope: -9.6
        outSlope: -9.6
        tangentMode: 10
      m_PreInfinity: 2
      m_PostInfinity: 2
      m_RotationOrder: 4
    attribute: m_LocalPosition.x
    path: Huefte_CTRL_GRP/Huefte_CTRL
    classID: 4
    script: {fileID: 0}
  - curve:
      serializedVersion: 2
      m_Curve:
      - time: 0
        value: 0
        inSlope: -16.937906
        outSlope: -16.937906
        tangentMode: 10
      - time: 0.033333335
        value: -0.5645969
        inSlope: -15.704498
        outSlope: -15.704498
        tangentMode: 10
      - time: 0.25
        value: -3.7
        inSlope: 3.8644547
        outSlope: 3.8644547
        tangentMode: 10
      - time: 0.41666666
        value: 0
        inSlope: 22.2
        outSlope: 22.2
        tangentMode: 10
      m_PreInfinity: 2
      m_PostInfinity: 2
      m_RotationOrder: 4
    attribute: m_LocalPosition.y
    path: Huefte_CTRL_GRP/Huefte_CTRL
    classID: 4
    script: {fileID: 0}
  - curve:
      serializedVersion: 2
      m_Curve:
      - time: 0
        value: -1.6484591e-12
        inSlope: 7.56728e-12
        outSlope: 7.56728e-12
        tangentMode: 10
      - time: 0.033333335
        value: -1.3962165e-12
        inSlope: 7.005678e-12
        outSlope: 7.005678e-12
        tangentMode: 10
      - time: 0.25
        value: -0
        inSlope: -1.7233398e-12
        outSlope: -1.7233398e-12
        tangentMode: 10
      - time: 0.41666666
        value: -1.6484591e-12
        inSlope: -9.890756e-12
        outSlope: -9.890756e-12
        tangentMode: 10
      m_PreInfinity: 2
      m_PostInfinity: 2
      m_RotationOrder: 4
    attribute: m_LocalPosition.z
    path: Huefte_CTRL_GRP/Huefte_CTRL
    classID: 4
    script: {fileID: 0}
  - curve:
      serializedVersion: 2
      m_Curve:
      - time: 0
        value: 0
        inSlope: 0
        outSlope: 0
        tangentMode: 10
      - time: 0.033333335
        value: 0
        inSlope: 0
        outSlope: 0
        tangentMode: 10
      - time: 0.41666666
        value: 0
        inSlope: 0
        outSlope: 0
        tangentMode: 10
      m_PreInfinity: 2
      m_PostInfinity: 2
      m_RotationOrder: 4
    attribute: localEulerAnglesRaw.x
    path: Huefte_CTRL_GRP/Huefte_CTRL
    classID: 4
    script: {fileID: 0}
  - curve:
      serializedVersion: 2
      m_Curve:
      - time: 0
        value: 0
        inSlope: 0
        outSlope: 0
        tangentMode: 10
      - time: 0.033333335
        value: 0
        inSlope: 0
        outSlope: 0
        tangentMode: 10
      - time: 0.41666666
        value: 0
        inSlope: 0
        outSlope: 0
        tangentMode: 10
      m_PreInfinity: 2
      m_PostInfinity: 2
      m_RotationOrder: 4
    attribute: localEulerAnglesRaw.y
    path: Huefte_CTRL_GRP/Huefte_CTRL
    classID: 4
    script: {fileID: 0}
  - curve:
      serializedVersion: 2
      m_Curve:
      - time: 0
        value: 6.0724998
        inSlope: 143.445
        outSlope: 143.445
        tangentMode: 10
      - time: 0.033333335
        value: 10.854
        inSlope: 65.48576
        outSlope: 65.48576
        tangentMode: 10
      - time: 0.41666666
        value: 6.0724998
        inSlope: -12.473479
        outSlope: -12.473479
        tangentMode: 10
      m_PreInfinity: 2
      m_PostInfinity: 2
      m_RotationOrder: 4
    attribute: localEulerAnglesRaw.z
    path: Huefte_CTRL_GRP/Huefte_CTRL
    classID: 4
    script: {fileID: 0}
  - curve:
      serializedVersion: 2
      m_Curve:
      - time: 0
        value: 8
        inSlope: 0
        outSlope: 0
        tangentMode: 10
      m_PreInfinity: 2
      m_PostInfinity: 2
      m_RotationOrder: 4
    attribute: m_LocalPosition.x
    path: "Fu\xDFL_CTRL_GRP/Fu\xDFL_CTRL"
    classID: 4
    script: {fileID: 0}
  - curve:
      serializedVersion: 2
      m_Curve:
      - time: 0
        value: -2.099999
        inSlope: -0.0000022888185
        outSlope: -0.0000022888185
        tangentMode: 10
      m_PreInfinity: 2
      m_PostInfinity: 2
      m_RotationOrder: 4
    attribute: m_LocalPosition.y
    path: "Fu\xDFL_CTRL_GRP/Fu\xDFL_CTRL"
    classID: 4
    script: {fileID: 0}
  - curve:
      serializedVersion: 2
      m_Curve:
      - time: 0
        value: 5.963112e-19
        inSlope: -1.431147e-18
        outSlope: -1.431147e-18
        tangentMode: 10
      m_PreInfinity: 2
      m_PostInfinity: 2
      m_RotationOrder: 4
    attribute: m_LocalPosition.z
    path: "Fu\xDFL_CTRL_GRP/Fu\xDFL_CTRL"
    classID: 4
    script: {fileID: 0}
  - curve:
      serializedVersion: 2
      m_Curve:
      - time: 0
        value: 0
        inSlope: 0
        outSlope: 0
        tangentMode: 10
      - time: 0.033333335
        value: 0
        inSlope: 0
        outSlope: 0
        tangentMode: 10
      - time: 0.41666666
        value: 0
        inSlope: 0
        outSlope: 0
        tangentMode: 10
      m_PreInfinity: 2
      m_PostInfinity: 2
      m_RotationOrder: 4
    attribute: localEulerAnglesRaw.x
    path: Kopf_CTRL_GRP/Kopf_CTRL
    classID: 4
    script: {fileID: 0}
  - curve:
      serializedVersion: 2
      m_Curve:
      - time: 0
        value: 0
        inSlope: 0
        outSlope: 0
        tangentMode: 10
      - time: 0.033333335
        value: 0
        inSlope: 0
        outSlope: 0
        tangentMode: 10
      - time: 0.41666666
        value: 0
        inSlope: 0
        outSlope: 0
        tangentMode: 10
      m_PreInfinity: 2
      m_PostInfinity: 2
      m_RotationOrder: 4
    attribute: localEulerAnglesRaw.y
    path: Kopf_CTRL_GRP/Kopf_CTRL
    classID: 4
    script: {fileID: 0}
  - curve:
      serializedVersion: 2
      m_Curve:
      - time: 0
        value: -4.9967
        inSlope: -71.781006
        outSlope: -71.781006
        tangentMode: 10
      - time: 0.033333335
        value: -7.3894
        inSlope: -32.76959
        outSlope: -32.76959
        tangentMode: 10
      - time: 0.41666666
        value: -4.9967
        inSlope: 6.2418265
        outSlope: 6.2418265
        tangentMode: 10
      m_PreInfinity: 2
      m_PostInfinity: 2
      m_RotationOrder: 4
    attribute: localEulerAnglesRaw.z
    path: Kopf_CTRL_GRP/Kopf_CTRL
    classID: 4
    script: {fileID: 0}
  - curve:
      serializedVersion: 2
      m_Curve:
      - time: 0
        value: 0
        inSlope: 0.00022888182
        outSlope: 0.00022888182
        tangentMode: 10
      - time: 0.033333335
        value: 0.0000076293945
        inSlope: 0.000104489525
        outSlope: 0.000104489525
        tangentMode: 10
      - time: 0.41666666
        value: 0
        inSlope: -0.000019902769
        outSlope: -0.000019902769
        tangentMode: 10
      m_PreInfinity: 2
      m_PostInfinity: 2
      m_RotationOrder: 4
    attribute: m_LocalPosition.x
    path: Kopf_CTRL_GRP/Kopf_CTRL
    classID: 4
    script: {fileID: 0}
  - curve:
      serializedVersion: 2
      m_Curve:
      - time: 0
        value: 0
        inSlope: -6.7128774e-25
        outSlope: -6.7128774e-25
        tangentMode: 10
      - time: 0.033333335
        value: -2.237626e-26
        inSlope: -3.0645745e-25
        outSlope: -3.0645745e-25
        tangentMode: 10
      - time: 0.41666666
        value: 0
        inSlope: 5.8372854e-26
        outSlope: 5.8372854e-26
        tangentMode: 10
      m_PreInfinity: 2
      m_PostInfinity: 2
      m_RotationOrder: 4
    attribute: m_LocalPosition.y
    path: Kopf_CTRL_GRP/Kopf_CTRL
    classID: 4
    script: {fileID: 0}
  - curve:
      serializedVersion: 2
      m_Curve:
      - time: 0
        value: 0
        inSlope: -6.2360423e-18
        outSlope: -6.2360423e-18
        tangentMode: 10
      - time: 0.033333335
        value: -2.0786808e-19
        inSlope: -2.846889e-18
        outSlope: -2.846889e-18
        tangentMode: 10
      - time: 0.41666666
        value: 0
        inSlope: 5.4226456e-19
        outSlope: 5.4226456e-19
        tangentMode: 10
      m_PreInfinity: 2
      m_PostInfinity: 2
      m_RotationOrder: 4
    attribute: m_LocalPosition.z
    path: Kopf_CTRL_GRP/Kopf_CTRL
    classID: 4
    script: {fileID: 0}
  - curve:
      serializedVersion: 2
      m_Curve:
      - time: 0
        value: -2.4
        inSlope: 0
        outSlope: 0
        tangentMode: 10
      m_PreInfinity: 2
      m_PostInfinity: 2
      m_RotationOrder: 4
    attribute: m_LocalPosition.x
    path: "Fu\xDFR_CTRL_GRP/Fu\xDFR_CTRL"
    classID: 4
    script: {fileID: 0}
  - curve:
      serializedVersion: 2
      m_Curve:
      - time: 0
        value: 1.5
        inSlope: 0
        outSlope: 0
        tangentMode: 10
      m_PreInfinity: 2
      m_PostInfinity: 2
      m_RotationOrder: 4
    attribute: m_LocalPosition.y
    path: "Fu\xDFR_CTRL_GRP/Fu\xDFR_CTRL"
    classID: 4
    script: {fileID: 0}
  - curve:
      serializedVersion: 2
      m_Curve:
      - time: 0
        value: -0
        inSlope: 0
        outSlope: 0
        tangentMode: 10
      m_PreInfinity: 2
      m_PostInfinity: 2
      m_RotationOrder: 4
    attribute: m_LocalPosition.z
    path: "Fu\xDFR_CTRL_GRP/Fu\xDFR_CTRL"
    classID: 4
    script: {fileID: 0}
  - curve:
      serializedVersion: 2
      m_Curve:
      - time: 0
        value: 0
        inSlope: 0
        outSlope: 0
        tangentMode: 10
      - time: 0.41666666
        value: 0
        inSlope: 0
        outSlope: 0
        tangentMode: 10
      m_PreInfinity: 2
      m_PostInfinity: 2
      m_RotationOrder: 4
    attribute: localEulerAnglesRaw.x
    path: "Fu\xDFR_CTRL_GRP/Fu\xDFR_CTRL"
    classID: 4
    script: {fileID: 0}
  - curve:
      serializedVersion: 2
      m_Curve:
      - time: 0
        value: 0
        inSlope: 0
        outSlope: 0
        tangentMode: 10
      - time: 0.41666666
        value: 0
        inSlope: 0
        outSlope: 0
        tangentMode: 10
      m_PreInfinity: 2
      m_PostInfinity: 2
      m_RotationOrder: 4
    attribute: localEulerAnglesRaw.y
    path: "Fu\xDFR_CTRL_GRP/Fu\xDFR_CTRL"
    classID: 4
    script: {fileID: 0}
  - curve:
      serializedVersion: 2
      m_Curve:
      - time: 0
        value: -4.3241997
        inSlope: 0
        outSlope: 0
        tangentMode: 10
      - time: 0.41666666
        value: -4.3241997
        inSlope: 0
        outSlope: 0
        tangentMode: 10
      m_PreInfinity: 2
      m_PostInfinity: 2
      m_RotationOrder: 4
    attribute: localEulerAnglesRaw.z
    path: "Fu\xDFR_CTRL_GRP/Fu\xDFR_CTRL"
    classID: 4
    script: {fileID: 0}
  - curve:
      serializedVersion: 2
      m_Curve:
      - time: 0
        value: 0
        inSlope: 0
        outSlope: 0
        tangentMode: 0
      - time: 0.016666668
        value: 0
        inSlope: 0
        outSlope: 0
        tangentMode: 0
      - time: 0.033333335
        value: 0
        inSlope: 0
        outSlope: 0
        tangentMode: 0
      - time: 0.050000004
        value: 0
        inSlope: 0
        outSlope: 0
        tangentMode: 0
      - time: 0.06666667
        value: 0
        inSlope: 0
        outSlope: 0
        tangentMode: 0
      - time: 0.083333336
        value: 0
        inSlope: 0
        outSlope: 0
        tangentMode: 0
      - time: 0.1
        value: 0
        inSlope: 0
        outSlope: 0
        tangentMode: 0
      - time: 0.11666667
        value: 0
        inSlope: 0
        outSlope: 0
        tangentMode: 0
      - time: 0.13333334
        value: 0
        inSlope: 0
        outSlope: 0
        tangentMode: 0
      - time: 0.15
        value: 0
        inSlope: 0
        outSlope: 0
        tangentMode: 0
      - time: 0.16666667
        value: 0
        inSlope: 0
        outSlope: 0
        tangentMode: 0
      - time: 0.18333334
        value: 0
        inSlope: 0
        outSlope: 0
        tangentMode: 0
      - time: 0.2
        value: 0
        inSlope: 0
        outSlope: 0
        tangentMode: 0
      - time: 0.21666667
        value: 0
        inSlope: 0
        outSlope: 0
        tangentMode: 0
      - time: 0.23333333
        value: 0
        inSlope: 0
        outSlope: 0
        tangentMode: 0
      - time: 0.25
        value: 0
        inSlope: 0
        outSlope: 0
        tangentMode: 0
      - time: 0.26666668
        value: 0
        inSlope: 0
        outSlope: 0
        tangentMode: 0
      - time: 0.28333336
        value: 0
        inSlope: 0
        outSlope: 0
        tangentMode: 0
      - time: 0.30000004
        value: 0
        inSlope: 0
        outSlope: 0
        tangentMode: 0
      - time: 0.31666672
        value: 0
        inSlope: 0
        outSlope: 0
        tangentMode: 0
      - time: 0.3333334
        value: 0
        inSlope: 0
        outSlope: 0
        tangentMode: 0
      - time: 0.35000008
        value: 0
        inSlope: 0
        outSlope: 0
        tangentMode: 0
      - time: 0.36666676
        value: 0
        inSlope: 0
        outSlope: 0
        tangentMode: 0
      - time: 0.38333344
        value: 0
        inSlope: 0
        outSlope: 0
        tangentMode: 0
      - time: 0.40000013
        value: 0
        inSlope: 0
        outSlope: 0
        tangentMode: 0
      - time: 0.41666666
        value: 0
        inSlope: 0
        outSlope: 0
        tangentMode: 0
      m_PreInfinity: 2
      m_PostInfinity: 2
      m_RotationOrder: 4
    attribute: m_LocalRotation.x
    path: Brust_CTRL_GRP/Brust_CTRL
    classID: 4
    script: {fileID: 0}
  - curve:
      serializedVersion: 2
      m_Curve:
      - time: 0
        value: 0
        inSlope: 0
        outSlope: 0
        tangentMode: 0
      - time: 0.016666668
        value: 0
        inSlope: 0
        outSlope: 0
        tangentMode: 0
      - time: 0.033333335
        value: 0
        inSlope: 0
        outSlope: 0
        tangentMode: 0
      - time: 0.050000004
        value: 0
        inSlope: 0
        outSlope: 0
        tangentMode: 0
      - time: 0.06666667
        value: 0
        inSlope: 0
        outSlope: 0
        tangentMode: 0
      - time: 0.083333336
        value: 0
        inSlope: 0
        outSlope: 0
        tangentMode: 0
      - time: 0.1
        value: 0
        inSlope: 0
        outSlope: 0
        tangentMode: 0
      - time: 0.11666667
        value: 0
        inSlope: 0
        outSlope: 0
        tangentMode: 0
      - time: 0.13333334
        value: 0
        inSlope: 0
        outSlope: 0
        tangentMode: 0
      - time: 0.15
        value: 0
        inSlope: 0
        outSlope: 0
        tangentMode: 0
      - time: 0.16666667
        value: 0
        inSlope: 0
        outSlope: 0
        tangentMode: 0
      - time: 0.18333334
        value: 0
        inSlope: 0
        outSlope: 0
        tangentMode: 0
      - time: 0.2
        value: 0
        inSlope: 0
        outSlope: 0
        tangentMode: 0
      - time: 0.21666667
        value: 0
        inSlope: 0
        outSlope: 0
        tangentMode: 0
      - time: 0.23333333
        value: 0
        inSlope: 0
        outSlope: 0
        tangentMode: 0
      - time: 0.25
        value: 0
        inSlope: 0
        outSlope: 0
        tangentMode: 0
      - time: 0.26666668
        value: 0
        inSlope: 0
        outSlope: 0
        tangentMode: 0
      - time: 0.28333336
        value: 0
        inSlope: 0
        outSlope: 0
        tangentMode: 0
      - time: 0.30000004
        value: 0
        inSlope: 0
        outSlope: 0
        tangentMode: 0
      - time: 0.31666672
        value: 0
        inSlope: 0
        outSlope: 0
        tangentMode: 0
      - time: 0.3333334
        value: 0
        inSlope: 0
        outSlope: 0
        tangentMode: 0
      - time: 0.35000008
        value: 0
        inSlope: 0
        outSlope: 0
        tangentMode: 0
      - time: 0.36666676
        value: 0
        inSlope: 0
        outSlope: 0
        tangentMode: 0
      - time: 0.38333344
        value: 0
        inSlope: 0
        outSlope: 0
        tangentMode: 0
      - time: 0.40000013
        value: 0
        inSlope: 0
        outSlope: 0
        tangentMode: 0
      - time: 0.41666666
        value: 0
        inSlope: 0
        outSlope: 0
        tangentMode: 0
      m_PreInfinity: 2
      m_PostInfinity: 2
      m_RotationOrder: 4
    attribute: m_LocalRotation.y
    path: Brust_CTRL_GRP/Brust_CTRL
    classID: 4
    script: {fileID: 0}
  - curve:
      serializedVersion: 2
      m_Curve:
      - time: 0
        value: -0.002826143
        inSlope: -1.192187
        outSlope: -1.192187
        tangentMode: 0
      - time: 0.016666668
        value: -0.022695927
        inSlope: -1.2626424
        outSlope: -1.2626424
        tangentMode: 0
      - time: 0.033333335
        value: -0.044914223
        inSlope: -1.2971141
        outSlope: -1.2971141
        tangentMode: 0
      - time: 0.050000004
        value: -0.06593307
        inSlope: -1.1191776
        outSlope: -1.1191776
        tangentMode: 0
      - time: 0.06666667
        value: -0.082220145
        inSlope: -0.7299004
        outSlope: -0.7299004
        tangentMode: 0
      - time: 0.083333336
        value: -0.09026308
        inSlope: -0.22402258
        outSlope: -0.22402258
        tangentMode: 0
      - time: 0.1
        value: -0.08968756
        inSlope: 0.20947897
        outSlope: 0.20947897
        tangentMode: 0
      - time: 0.11666667
        value: -0.08328045
        inSlope: 0.5224131
        outSlope: 0.5224131
        tangentMode: 0
      - time: 0.13333334
        value: -0.07227379
        inSlope: 0.76141846
        outSlope: 0.76141846
        tangentMode: 0
      - time: 0.15
        value: -0.057899833
        inSlope: 0.9263422
        outSlope: 0.9263422
        tangentMode: 0
      - time: 0.16666667
        value: -0.04139572
        inSlope: 1.0168458
        outSlope: 1.0168458
        tangentMode: 0
      - time: 0.18333334
        value: -0.024004973
        inSlope: 1.0325978
        outSlope: 1.0325978
        tangentMode: 0
      - time: 0.2
        value: -0.006975795
        inSlope: 0.9734154
        outSlope: 0.9734154
        tangentMode: 0
      - time: 0.21666667
        value: 0.008442204
        inSlope: 0.839309
        outSlope: 0.839309
        tangentMode: 0
      - time: 0.23333333
        value: 0.02100117
        inSlope: 0.63043475
        outSlope: 0.63043475
        tangentMode: 0
      - time: 0.25
        value: 0.029456694
        inSlope: 0.3841513
        outSlope: 0.3841513
        tangentMode: 0
      - time: 0.26666668
        value: 0.033806216
        inSlope: 0.17583564
        outSlope: 0.17583564
        tangentMode: 0
      - time: 0.28333336
        value: 0.035317887
        inSlope: 0.025463866
        outSlope: 0.025463866
        tangentMode: 0
      - time: 0.30000004
        value: 0.034655012
        inSlope: -0.08512498
        outSlope: -0.08512498
        tangentMode: 0
      - time: 0.31666672
        value: 0.032480385
        inSlope: -0.15594977
        outSlope: -0.15594977
        tangentMode: 0
      - time: 0.3333334
        value: 0.029456683
        inSlope: -0.2223936
        outSlope: -0.2223936
        tangentMode: 0
      - time: 0.35000008
        value: 0.025067259
        inSlope: -0.3176114
        outSlope: -0.3176114
        tangentMode: 0
      - time: 0.36666676
        value: 0.018869627
        inSlope: -0.40287256
        outSlope: -0.40287256
        tangentMode: 0
      - time: 0.38333344
        value: 0.011638163
        inSlope: -0.4416546
        outSlope: -0.4416546
        tangentMode: 0
      - time: 0.40000013
        value: 0.004147795
        inSlope: -0.4339307
        outSlope: -0.4339307
        tangentMode: 0
      - time: 0.41666666
        value: -0.002826143
        inSlope: -0.4184397
        outSlope: -0.4184397
        tangentMode: 0
      m_PreInfinity: 2
      m_PostInfinity: 2
      m_RotationOrder: 4
    attribute: m_LocalRotation.z
    path: Brust_CTRL_GRP/Brust_CTRL
    classID: 4
    script: {fileID: 0}
  - curve:
      serializedVersion: 2
      m_Curve:
      - time: 0
        value: 0.999996
        inSlope: -0.015217065
        outSlope: -0.015217065
        tangentMode: 0
      - time: 0.016666668
        value: 0.9997424
        inSlope: -0.03015518
        outSlope: -0.03015518
        tangentMode: 0
      - time: 0.033333335
        value: 0.99899083
        inSlope: -0.05754947
        outSlope: -0.05754947
        tangentMode: 0
      - time: 0.050000004
        value: 0.9978241
        inSlope: -0.07129848
        outSlope: -0.07129848
        tangentMode: 0
      - time: 0.06666667
        value: 0.9966142
        inSlope: -0.057182916
        outSlope: -0.057182916
        tangentMode: 0
      - time: 0.083333336
        value: 0.995918
        inSlope: -0.019328
        outSlope: -0.019328
        tangentMode: 0
      - time: 0.1
        value: 0.99596995
        inSlope: 0.018244388
        outSlope: 0.018244388
        tangentMode: 0
      - time: 0.11666667
        value: 0.9965261
        inSlope: 0.042446844
        outSlope: 0.042446844
        tangentMode: 0
      - time: 0.13333334
        value: 0.99738485
        inSlope: 0.053889148
        outSlope: 0.053889148
        tangentMode: 0
      - time: 0.15
        value: 0.9983224
        inSlope: 0.052739386
        outSlope: 0.052739386
        tangentMode: 0
      - time: 0.16666667
        value: 0.9991428
        inSlope: 0.04168153
        outSlope: 0.04168153
        tangentMode: 0
      - time: 0.18333334
        value: 0.9997118
        inSlope: 0.024985675
        outSlope: 0.024985675
        tangentMode: 0
      - time: 0.2
        value: 0.9999757
        inSlope: 0.0075763473
        outSlope: 0.0075763473
        tangentMode: 0
      - time: 0.21666667
        value: 0.99996436
        inSlope: -0.005886555
        outSlope: -0.005886555
        tangentMode: 0
      - time: 0.23333333
        value: 0.99977946
        inSlope: -0.011948348
        outSlope: -0.011948348
        tangentMode: 0
      - time: 0.25
        value: 0.9995661
        inSlope: -0.010532138
        outSlope: -0.010532138
        tangentMode: 0
      - time: 0.26666668
        value: 0.9994284
        inSlope: -0.0056987954
        outSlope: -0.0056987954
        tangentMode: 0
      - time: 0.28333336
        value: 0.9993761
        inSlope: -0.00087082316
        outSlope: -0.00087082316
        tangentMode: 0
      - time: 0.30000004
        value: 0.99939936
        inSlope: 0.0028878427
        outSlope: 0.0028878427
        tangentMode: 0
      - time: 0.31666672
        value: 0.9994724
        inSlope: 0.0050014216
        outSlope: 0.0050014216
        tangentMode: 0
      - time: 0.3333334
        value: 0.9995661
        inSlope: 0.0064015333
        outSlope: 0.0064015333
        tangentMode: 0
      - time: 0.35000008
        value: 0.99968576
        inSlope: 0.0076764757
        outSlope: 0.0076764757
        tangentMode: 0
      - time: 0.36666676
        value: 0.99982196
        inSlope: 0.0073957383
        outSlope: 0.0073957383
        tangentMode: 0
      - time: 0.38333344
        value: 0.9999323
        inSlope: 0.005083676
        outSlope: 0.005083676
        tangentMode: 0
      - time: 0.40000013
        value: 0.9999914
        inSlope: 0.0019115206
        outSlope: 0.0019115206
        tangentMode: 0
      - time: 0.41666666
        value: 0.999996
        inSlope: 0.0002753757
        outSlope: 0.0002753757
        tangentMode: 0
      m_PreInfinity: 2
      m_PostInfinity: 2
      m_RotationOrder: 4
    attribute: m_LocalRotation.w
    path: Brust_CTRL_GRP/Brust_CTRL
    classID: 4
    script: {fileID: 0}
  - curve:
      serializedVersion: 2
      m_Curve:
      - time: 0
        value: 0
        inSlope: 0
        outSlope: 0
        tangentMode: 0
      m_PreInfinity: 2
      m_PostInfinity: 2
      m_RotationOrder: 4
    attribute: m_LocalRotation.x
    path: "Fu\xDFL_CTRL_GRP/Fu\xDFL_CTRL"
    classID: 4
    script: {fileID: 0}
  - curve:
      serializedVersion: 2
      m_Curve:
      - time: 0
        value: 0
        inSlope: 0
        outSlope: 0
        tangentMode: 0
      m_PreInfinity: 2
      m_PostInfinity: 2
      m_RotationOrder: 4
    attribute: m_LocalRotation.y
    path: "Fu\xDFL_CTRL_GRP/Fu\xDFL_CTRL"
    classID: 4
    script: {fileID: 0}
  - curve:
      serializedVersion: 2
      m_Curve:
      - time: 0
        value: 0.060361777
        inSlope: 0
        outSlope: 0
        tangentMode: 0
      m_PreInfinity: 2
      m_PostInfinity: 2
      m_RotationOrder: 4
    attribute: m_LocalRotation.z
    path: "Fu\xDFL_CTRL_GRP/Fu\xDFL_CTRL"
    classID: 4
    script: {fileID: 0}
  - curve:
      serializedVersion: 2
      m_Curve:
      - time: 0
        value: -0.9981766
        inSlope: 0
        outSlope: 0
        tangentMode: 0
      m_PreInfinity: 2
      m_PostInfinity: 2
      m_RotationOrder: 4
    attribute: m_LocalRotation.w
    path: "Fu\xDFL_CTRL_GRP/Fu\xDFL_CTRL"
    classID: 4
    script: {fileID: 0}
  m_EulerEditorCurves:
  - curve:
      serializedVersion: 2
      m_Curve:
      - time: 0
        value: 0
        inSlope: 0
        outSlope: 0
        tangentMode: 10
      - time: 0.083333336
        value: 0
        inSlope: 0
        outSlope: 0
        tangentMode: 10
      - time: 0.25
        value: 0
        inSlope: 0
        outSlope: 0
        tangentMode: 10
      - time: 0.33333334
        value: 0
        inSlope: 0
        outSlope: 0
        tangentMode: 10
      - time: 0.41666666
        value: 0
        inSlope: 0
        outSlope: 0
        tangentMode: 10
      m_PreInfinity: 2
      m_PostInfinity: 2
      m_RotationOrder: 4
    attribute: localEulerAnglesBaked.x
    path: Brust_CTRL_GRP/Brust_CTRL
    classID: 4
    script: {fileID: 0}
  - curve:
      serializedVersion: 2
      m_Curve:
      - time: 0
        value: 0
        inSlope: 0
        outSlope: 0
        tangentMode: 10
      - time: 0.083333336
        value: 0
        inSlope: 0
        outSlope: 0
        tangentMode: 10
      - time: 0.25
        value: 0
        inSlope: 0
        outSlope: 0
        tangentMode: 10
      - time: 0.33333334
        value: 0
        inSlope: 0
        outSlope: 0
        tangentMode: 10
      - time: 0.41666666
        value: 0
        inSlope: 0
        outSlope: 0
        tangentMode: 10
      m_PreInfinity: 2
      m_PostInfinity: 2
      m_RotationOrder: 4
    attribute: localEulerAnglesBaked.y
    path: Brust_CTRL_GRP/Brust_CTRL
    classID: 4
    script: {fileID: 0}
  - curve:
      serializedVersion: 2
      m_Curve:
      - time: 0
        value: -0.32385254
        inSlope: -120.403564
        outSlope: -120.403564
        tangentMode: 10
      - time: 0.083333336
        value: -10.357483
        inSlope: -19.0014
        outSlope: -19.0014
        tangentMode: 10
      - time: 0.25
        value: 3.3759766
        inSlope: 41.200382
        outSlope: 41.200382
        tangentMode: 10
      - time: 0.33333334
        value: 3.3759766
        inSlope: -22.19898
        outSlope: -22.19898
        tangentMode: 10
      - time: 0.41666666
        value: -0.32385254
        inSlope: -44.39796
        outSlope: -44.39796
        tangentMode: 10
      m_PreInfinity: 2
      m_PostInfinity: 2
      m_RotationOrder: 4
    attribute: localEulerAnglesBaked.z
    path: Brust_CTRL_GRP/Brust_CTRL
    classID: 4
    script: {fileID: 0}
  - curve:
      serializedVersion: 2
      m_Curve:
      - time: 0
        value: 0
        inSlope: 0
        outSlope: 0
        tangentMode: 10
      m_PreInfinity: 2
      m_PostInfinity: 2
      m_RotationOrder: 4
    attribute: localEulerAnglesBaked.x
    path: "Fu\xDFL_CTRL_GRP/Fu\xDFL_CTRL"
    classID: 4
    script: {fileID: 0}
  - curve:
      serializedVersion: 2
      m_Curve:
      - time: 0
        value: 0
        inSlope: 0
        outSlope: 0
        tangentMode: 10
      m_PreInfinity: 2
      m_PostInfinity: 2
      m_RotationOrder: 4
    attribute: localEulerAnglesBaked.y
    path: "Fu\xDFL_CTRL_GRP/Fu\xDFL_CTRL"
    classID: 4
    script: {fileID: 0}
  - curve:
      serializedVersion: 2
      m_Curve:
      - time: 0
        value: 353.0788
        inSlope: -27.528664
        outSlope: -27.528664
        tangentMode: 10
      m_PreInfinity: 2
      m_PostInfinity: 2
      m_RotationOrder: 4
    attribute: localEulerAnglesBaked.z
    path: "Fu\xDFL_CTRL_GRP/Fu\xDFL_CTRL"
    classID: 4
    script: {fileID: 0}
  - curve:
      serializedVersion: 2
      m_Curve: []
      m_PreInfinity: 2
      m_PostInfinity: 2
      m_RotationOrder: 4
    attribute: m_LocalEulerAngles.z
    path: Huefte_CTRL_GRP/Huefte_CTRL
    classID: 4
    script: {fileID: 0}
  - curve:
      serializedVersion: 2
      m_Curve: []
      m_PreInfinity: 2
      m_PostInfinity: 2
      m_RotationOrder: 4
    attribute: m_LocalEulerAngles.y
    path: Huefte_CTRL_GRP/Huefte_CTRL
    classID: 4
    script: {fileID: 0}
  - curve:
      serializedVersion: 2
      m_Curve: []
      m_PreInfinity: 2
      m_PostInfinity: 2
      m_RotationOrder: 4
    attribute: m_LocalEulerAngles.x
    path: Huefte_CTRL_GRP/Huefte_CTRL
    classID: 4
    script: {fileID: 0}
  - curve:
      serializedVersion: 2
      m_Curve: []
      m_PreInfinity: 2
      m_PostInfinity: 2
      m_RotationOrder: 4
    attribute: m_LocalEulerAngles.z
    path: Kopf_CTRL_GRP/Kopf_CTRL
    classID: 4
    script: {fileID: 0}
  - curve:
      serializedVersion: 2
      m_Curve: []
      m_PreInfinity: 2
      m_PostInfinity: 2
      m_RotationOrder: 4
    attribute: m_LocalEulerAngles.y
    path: Kopf_CTRL_GRP/Kopf_CTRL
    classID: 4
    script: {fileID: 0}
  - curve:
      serializedVersion: 2
      m_Curve: []
      m_PreInfinity: 2
      m_PostInfinity: 2
      m_RotationOrder: 4
    attribute: m_LocalEulerAngles.x
    path: Kopf_CTRL_GRP/Kopf_CTRL
    classID: 4
    script: {fileID: 0}
  - curve:
      serializedVersion: 2
      m_Curve: []
      m_PreInfinity: 2
      m_PostInfinity: 2
      m_RotationOrder: 4
    attribute: m_LocalEulerAngles.z
    path: Huefte/Brust/SchulterR/ArmR/warrior_Amolette
    classID: 4
    script: {fileID: 0}
  - curve:
      serializedVersion: 2
      m_Curve: []
      m_PreInfinity: 2
      m_PostInfinity: 2
      m_RotationOrder: 4
    attribute: m_LocalEulerAngles.y
    path: Huefte/Brust/SchulterR/ArmR/warrior_Amolette
    classID: 4
    script: {fileID: 0}
  - curve:
      serializedVersion: 2
      m_Curve: []
      m_PreInfinity: 2
      m_PostInfinity: 2
      m_RotationOrder: 4
    attribute: m_LocalEulerAngles.x
    path: Huefte/Brust/SchulterR/ArmR/warrior_Amolette
    classID: 4
    script: {fileID: 0}
  - curve:
      serializedVersion: 2
      m_Curve: []
      m_PreInfinity: 2
      m_PostInfinity: 2
      m_RotationOrder: 4
    attribute: m_LocalEulerAngles.x
    path: "Fu\xDFR_CTRL_GRP/Fu\xDFR_CTRL"
    classID: 4
    script: {fileID: 0}
  - curve:
      serializedVersion: 2
      m_Curve: []
      m_PreInfinity: 2
      m_PostInfinity: 2
      m_RotationOrder: 4
    attribute: m_LocalEulerAngles.y
    path: "Fu\xDFR_CTRL_GRP/Fu\xDFR_CTRL"
    classID: 4
    script: {fileID: 0}
  - curve:
      serializedVersion: 2
      m_Curve: []
      m_PreInfinity: 2
      m_PostInfinity: 2
      m_RotationOrder: 4
    attribute: m_LocalEulerAngles.z
    path: "Fu\xDFR_CTRL_GRP/Fu\xDFR_CTRL"
    classID: 4
    script: {fileID: 0}
  m_HasGenericRootTransform: 0
  m_HasMotionFloatCurves: 0
  m_GenerateMotionCurves: 0
  m_Events: []
