%YAML 1.1
%TAG !u! tag:unity3d.com,2011:
--- !u!74 &7400000
AnimationClip:
  m_ObjectHideFlags: 0
  m_PrefabParentObject: {fileID: 0}
  m_PrefabInternal: {fileID: 0}
  m_Name: Warrior_Walljump
  serializedVersion: 6
  m_Legacy: 0
  m_Compressed: 0
  m_UseHighQualityCurve: 1
  m_RotationCurves:
  - curve:
      serializedVersion: 2
      m_Curve:
      - time: 0
        value: {x: 0, y: 0, z: -0.5592689, w: 0.82898635}
        inSlope: {x: 0, y: 0, z: 5.4279413, w: 3.2589767}
        outSlope: {x: 0, y: 0, z: 5.4279413, w: 3.2589767}
        tangentMode: 0
      - time: 0.016666668
        value: {x: 0, y: 0, z: -0.4688032, w: 0.8833026}
        inSlope: {x: 0, y: 0, z: 5.5845366, w: 2.9639301}
        outSlope: {x: 0, y: 0, z: 5.5845366, w: 2.9639301}
        tangentMode: 0
      - time: 0.033333335
        value: {x: 0, y: 0, z: -0.37311766, w: 0.927784}
        inSlope: {x: 0, y: 0, z: 5.8657637, w: 2.358976}
        outSlope: {x: 0, y: 0, z: 5.8657637, w: 2.358976}
        tangentMode: 0
      - time: 0.050000004
        value: {x: 0, y: 0, z: -0.27327773, w: 0.96193516}
        inSlope: {x: 0, y: 0, z: 6.0816784, w: 1.7277539}
        outSlope: {x: 0, y: 0, z: 6.0816784, w: 1.7277539}
        tangentMode: 0
      - time: 0.06666667
        value: {x: 0, y: 0, z: -0.17039503, w: 0.9853758}
        inSlope: {x: 0, y: 0, z: 6.2298784, w: 1.0772951}
        outSlope: {x: 0, y: 0, z: 6.2298784, w: 1.0772951}
        tangentMode: 0
      - time: 0.083333336
        value: {x: 0, y: 0, z: -0.06561513, w: 0.997845}
        inSlope: {x: 0, y: 0, z: 6.308712, w: 0.4148412}
        outSlope: {x: 0, y: 0, z: 6.308712, w: 0.4148412}
        tangentMode: 0
      - time: 0.1
        value: {x: 0, y: 0, z: 0.039895352, w: 0.99920386}
        inSlope: {x: 0, y: 0, z: 6.317303, w: -0.2522314}
        outSlope: {x: 0, y: 0, z: 6.317303, w: -0.2522314}
        tangentMode: 0
      - time: 0.11666667
        value: {x: 0, y: 0, z: 0.14496163, w: 0.9894373}
        inSlope: {x: 0, y: 0, z: 6.255556, w: -0.9164963}
        outSlope: {x: 0, y: 0, z: 6.255556, w: -0.9164963}
        tangentMode: 0
      - time: 0.13333334
        value: {x: 0, y: 0, z: 0.24841394, w: 0.968654}
        inSlope: {x: 0, y: 0, z: 6.124157, w: -1.5705566}
        outSlope: {x: 0, y: 0, z: 6.124157, w: -1.5705566}
        tangentMode: 0
      - time: 0.15
        value: {x: 0, y: 0, z: 0.34910023, w: 0.9370854}
        inSlope: {x: 0, y: 0, z: 5.924567, w: -2.2071292}
        outSlope: {x: 0, y: 0, z: 5.924567, w: -2.2071292}
        tangentMode: 0
      - time: 0.16666667
        value: {x: 0, y: 0, z: 0.4458995, w: 0.895083}
        inSlope: {x: 0, y: 0, z: 5.8079557, w: -2.520143}
        outSlope: {x: 0, y: 0, z: 5.8079557, w: -2.520143}
        tangentMode: 0
      m_PreInfinity: 2
      m_PostInfinity: 2
      m_RotationOrder: 4
    path: "Fu\xDFL_CTRL_GRP/Fu\xDFL_CTRL"
  - curve:
      serializedVersion: 2
      m_Curve:
      - time: 0
        value: {x: 0, y: 0, z: 0.0031831383, w: 0.99999493}
        inSlope: {x: 0, y: 0, z: -0.3735153, w: 0.000025033949}
        outSlope: {x: 0, y: 0, z: -0.3735153, w: 0.000025033949}
        tangentMode: 0
      - time: 0.016666668
        value: {x: 0, y: 0, z: -0.0030421172, w: 0.99999535}
        inSlope: {x: 0, y: 0, z: -0.3381467, w: -0.0008296966}
        outSlope: {x: 0, y: 0, z: -0.3381467, w: -0.0008296966}
        tangentMode: 0
      - time: 0.033333335
        value: {x: 0, y: 0, z: -0.008088418, w: 0.9999673}
        inSlope: {x: 0, y: 0, z: -0.28256416, w: -0.0021904705}
        outSlope: {x: 0, y: 0, z: -0.28256416, w: -0.0021904705}
        tangentMode: 0
      - time: 0.050000004
        value: {x: 0, y: 0, z: -0.012460924, w: 0.99992234}
        inSlope: {x: 0, y: 0, z: -0.2572915, w: -0.0031846762}
        outSlope: {x: 0, y: 0, z: -0.2572915, w: -0.0031846762}
        tangentMode: 0
      - time: 0.06666667
        value: {x: 0, y: 0, z: -0.016664801, w: 0.9998611}
        inSlope: {x: 0, y: 0, z: -0.26232624, w: -0.0044149165}
        outSlope: {x: 0, y: 0, z: -0.26232624, w: -0.0044149165}
        tangentMode: 0
      - time: 0.083333336
        value: {x: 0, y: 0, z: -0.021205131, w: 0.9997752}
        inSlope: {x: 0, y: 0, z: -0.29765984, w: -0.0064390902}
        outSlope: {x: 0, y: 0, z: -0.29765984, w: -0.0064390902}
        tangentMode: 0
      - time: 0.1
        value: {x: 0, y: 0, z: -0.026586795, w: 0.9996465}
        inSlope: {x: 0, y: 0, z: -0.36327404, w: -0.009908081}
        outSlope: {x: 0, y: 0, z: -0.36327404, w: -0.009908081}
        tangentMode: 0
      - time: 0.11666667
        value: {x: 0, y: 0, z: -0.033314265, w: 0.9994449}
        inSlope: {x: 0, y: 0, z: -0.4591319, w: -0.01572847}
        outSlope: {x: 0, y: 0, z: -0.4591319, w: -0.01572847}
        tangentMode: 0
      - time: 0.13333334
        value: {x: 0, y: 0, z: -0.041891195, w: 0.9991222}
        inSlope: {x: 0, y: 0, z: -0.58516157, w: -0.025225278}
        outSlope: {x: 0, y: 0, z: -0.58516157, w: -0.025225278}
        tangentMode: 0
      - time: 0.15
        value: {x: 0, y: 0, z: -0.052819654, w: 0.99860406}
        inSlope: {x: 0, y: 0, z: -0.7412249, w: -0.04027069}
        outSlope: {x: 0, y: 0, z: -0.7412249, w: -0.04027069}
        tangentMode: 0
      - time: 0.16666667
        value: {x: 0, y: 0, z: -0.06659869, w: 0.99777985}
        inSlope: {x: 0, y: 0, z: -1.0189098, w: -0.07130564}
        outSlope: {x: 0, y: 0, z: -1.0189098, w: -0.07130564}
        tangentMode: 0
      - time: 0.18333334
        value: {x: 0, y: 0, z: -0.08678331, w: 0.9962272}
        inSlope: {x: 0, y: 0, z: -1.4456844, w: -0.13169648}
        outSlope: {x: 0, y: 0, z: -1.4456844, w: -0.13169648}
        tangentMode: 0
      - time: 0.2
        value: {x: 0, y: 0, z: -0.11478817, w: 0.99338996}
        inSlope: {x: 0, y: 0, z: -1.8330542, w: -0.2166796}
        outSlope: {x: 0, y: 0, z: -1.8330542, w: -0.2166796}
        tangentMode: 0
      - time: 0.21666667
        value: {x: 0, y: 0, z: -0.14788511, w: 0.98900455}
        inSlope: {x: 0, y: 0, z: -2.0567641, w: -0.31025115}
        outSlope: {x: 0, y: 0, z: -2.0567641, w: -0.31025115}
        tangentMode: 0
      - time: 0.23333333
        value: {x: 0, y: 0, z: -0.18334697, w: 0.98304826}
        inSlope: {x: 0, y: 0, z: -2.1178727, w: -0.39489987}
        outSlope: {x: 0, y: 0, z: -2.1178727, w: -0.39489987}
        tangentMode: 0
      - time: 0.25
        value: {x: 0, y: 0, z: -0.21848087, w: 0.9758412}
        inSlope: {x: 0, y: 0, z: -2.0195029, w: -0.44922155}
        outSlope: {x: 0, y: 0, z: -2.0195029, w: -0.44922155}
        tangentMode: 0
      - time: 0.26666668
        value: {x: 0, y: 0, z: -0.25066376, w: 0.9680742}
        inSlope: {x: 0, y: 0, z: -1.7664893, w: -0.45228803}
        outSlope: {x: 0, y: 0, z: -1.7664893, w: -0.45228803}
        tangentMode: 0
      - time: 0.28333336
        value: {x: 0, y: 0, z: -0.2773639, w: 0.96076494}
        inSlope: {x: 0, y: 0, z: -1.3640836, w: -0.38782746}
        outSlope: {x: 0, y: 0, z: -1.3640836, w: -0.38782746}
        tangentMode: 0
      - time: 0.30000004
        value: {x: 0, y: 0, z: -0.29613325, w: 0.9551466}
        inSlope: {x: 0, y: 0, z: -0.81591475, w: -0.24816492}
        outSlope: {x: 0, y: 0, z: -0.81591475, w: -0.24816492}
        tangentMode: 0
      - time: 0.31666672
        value: {x: 0, y: 0, z: -0.30456108, w: 0.9524928}
        inSlope: {x: 0, y: 0, z: -0.12166937, w: -0.03800508}
        outSlope: {x: 0, y: 0, z: -0.12166937, w: -0.03800508}
        tangentMode: 0
      - time: 0.3333334
        value: {x: 0, y: 0, z: -0.3001889, w: 0.9538798}
        inSlope: {x: 0, y: 0, z: 0.85366327, w: 0.25903502}
        outSlope: {x: 0, y: 0, z: 0.85366327, w: 0.25903502}
        tangentMode: 0
      - time: 0.35000008
        value: {x: 0, y: 0, z: -0.2761056, w: 0.9611273}
        inSlope: {x: 0, y: 0, z: 2.0372174, w: 0.56306314}
        outSlope: {x: 0, y: 0, z: 2.0372174, w: 0.56306314}
        tangentMode: 0
      - time: 0.36666676
        value: {x: 0, y: 0, z: -0.2322816, w: 0.97264856}
        inSlope: {x: 0, y: 0, z: 2.9836545, w: 0.69439113}
        outSlope: {x: 0, y: 0, z: 2.9836545, w: 0.69439113}
        tangentMode: 0
      - time: 0.38333344
        value: {x: 0, y: 0, z: -0.17665038, w: 0.9842737}
        inSlope: {x: 0, y: 0, z: 3.4407983, w: 0.6124158}
        outSlope: {x: 0, y: 0, z: 3.4407983, w: 0.6124158}
        tangentMode: 0
      - time: 0.40000013
        value: {x: 0, y: 0, z: -0.11758822, w: 0.99306244}
        inSlope: {x: 0, y: 0, z: 3.3837748, w: 0.41055956}
        outSlope: {x: 0, y: 0, z: 3.3837748, w: 0.41055956}
        tangentMode: 0
      - time: 0.41666666
        value: {x: 0, y: 0, z: -0.06385826, w: 0.99795896}
        inSlope: {x: 0, y: 0, z: 3.2238235, w: 0.29379368}
        outSlope: {x: 0, y: 0, z: 3.2238235, w: 0.29379368}
        tangentMode: 0
      m_PreInfinity: 2
      m_PostInfinity: 2
      m_RotationOrder: 4
    path: Brust_CTRL_GRP/Brust_CTRL
  - curve:
      serializedVersion: 2
      m_Curve:
      - time: 0
        value: {x: 0, y: 0, z: -0.76741683, w: 0.6411485}
        inSlope: {x: 0, y: 0, z: 0.7133388, w: 0.8380794}
        outSlope: {x: 0, y: 0, z: 0.7133388, w: 0.8380794}
        tangentMode: 0
      - time: 0.016666668
        value: {x: 0, y: 0, z: -0.75552785, w: 0.6551165}
        inSlope: {x: 0, y: 0, z: 0.67030185, w: 0.7750189}
        outSlope: {x: 0, y: 0, z: 0.67030185, w: 0.7750189}
        tangentMode: 0
      - time: 0.033333335
        value: {x: 0, y: 0, z: -0.74507344, w: 0.6669825}
        inSlope: {x: 0, y: 0, z: 0.59050786, w: 0.6610303}
        outSlope: {x: 0, y: 0, z: 0.59050786, w: 0.6610303}
        tangentMode: 0
      - time: 0.050000004
        value: {x: 0, y: 0, z: -0.73584425, w: 0.67715085}
        inSlope: {x: 0, y: 0, z: 0.52421623, w: 0.5705899}
        outSlope: {x: 0, y: 0, z: 0.52421623, w: 0.5705899}
        tangentMode: 0
      - time: 0.06666667
        value: {x: 0, y: 0, z: -0.72759956, w: 0.68600214}
        inSlope: {x: 0, y: 0, z: 0.47309163, w: 0.502376}
        outSlope: {x: 0, y: 0, z: 0.47309163, w: 0.502376}
        tangentMode: 0
      - time: 0.083333336
        value: {x: 0, y: 0, z: -0.72007453, w: 0.6938967}
        inSlope: {x: 0, y: 0, z: 0.4384196, w: 0.45529786}
        outSlope: {x: 0, y: 0, z: 0.4384196, w: 0.45529786}
        tangentMode: 0
      - time: 0.1
        value: {x: 0, y: 0, z: -0.7129856, w: 0.7011787}
        inSlope: {x: 0, y: 0, z: 0.42123023, w: 0.42845073}
        outSlope: {x: 0, y: 0, z: 0.42123023, w: 0.42845073}
        tangentMode: 0
      - time: 0.11666667
        value: {x: 0, y: 0, z: -0.7060335, w: 0.7081784}
        inSlope: {x: 0, y: 0, z: 0.42237276, w: 0.42103165}
        outSlope: {x: 0, y: 0, z: 0.42237276, w: 0.42103165}
        tangentMode: 0
      - time: 0.13333334
        value: {x: 0, y: 0, z: -0.6989065, w: 0.7152131}
        inSlope: {x: 0, y: 0, z: 0.44261986, w: 0.4322701}
        outSlope: {x: 0, y: 0, z: 0.44261986, w: 0.4322701}
        tangentMode: 0
      - time: 0.15
        value: {x: 0, y: 0, z: -0.69127953, w: 0.7225874}
        inSlope: {x: 0, y: 0, z: 0.48275656, w: 0.46135786}
        outSlope: {x: 0, y: 0, z: 0.48275656, w: 0.46135786}
        tangentMode: 0
      - time: 0.16666667
        value: {x: 0, y: 0, z: -0.6828146, w: 0.7305917}
        inSlope: {x: 0, y: 0, z: 0.5436534, w: 0.50734526}
        outSlope: {x: 0, y: 0, z: 0.5436534, w: 0.50734526}
        tangentMode: 0
      - time: 0.18333334
        value: {x: 0, y: 0, z: -0.67315775, w: 0.7394989}
        inSlope: {x: 0, y: 0, z: 0.6263316, w: 0.56903607}
        outSlope: {x: 0, y: 0, z: 0.6263316, w: 0.56903607}
        tangentMode: 0
      - time: 0.2
        value: {x: 0, y: 0, z: -0.6619369, w: 0.7495596}
        inSlope: {x: 0, y: 0, z: 0.7320393, w: 0.64491576}
        outSlope: {x: 0, y: 0, z: 0.7320393, w: 0.64491576}
        tangentMode: 0
      - time: 0.21666667
        value: {x: 0, y: 0, z: -0.64875644, w: 0.7609961}
        inSlope: {x: 0, y: 0, z: 0.86228913, w: 0.73300844}
        outSlope: {x: 0, y: 0, z: 0.86228913, w: 0.73300844}
        tangentMode: 0
      - time: 0.23333333
        value: {x: 0, y: 0, z: -0.6331939, w: 0.7739932}
        inSlope: {x: 0, y: 0, z: 1.0188837, w: 0.8307571}
        outSlope: {x: 0, y: 0, z: 1.0188837, w: 0.8307571}
        tangentMode: 0
      - time: 0.25
        value: {x: 0, y: 0, z: -0.61479366, w: 0.788688}
        inSlope: {x: 0, y: 0, z: 1.2039287, w: 0.9348872}
        outSlope: {x: 0, y: 0, z: 1.2039287, w: 0.9348872}
        tangentMode: 0
      - time: 0.26666668
        value: {x: 0, y: 0, z: -0.59306294, w: 0.8051561}
        inSlope: {x: 0, y: 0, z: 1.4197922, w: 1.0412381}
        outSlope: {x: 0, y: 0, z: 1.4197922, w: 1.0412381}
        tangentMode: 0
      - time: 0.28333336
        value: {x: 0, y: 0, z: -0.5674672, w: 0.82339597}
        inSlope: {x: 0, y: 0, z: 1.6690317, w: 1.144596}
        outSlope: {x: 0, y: 0, z: 1.6690317, w: 1.144596}
        tangentMode: 0
      - time: 0.30000004
        value: {x: 0, y: 0, z: -0.5374285, w: 0.84330934}
        inSlope: {x: 0, y: 0, z: 1.9542434, w: 1.2384751}
        outSlope: {x: 0, y: 0, z: 1.9542434, w: 1.2384751}
        tangentMode: 0
      - time: 0.31666672
        value: {x: 0, y: 0, z: -0.5023257, w: 0.8646785}
        inSlope: {x: 0, y: 0, z: 2.2778623, w: 1.3149304}
        outSlope: {x: 0, y: 0, z: 2.2778623, w: 1.3149304}
        tangentMode: 0
      - time: 0.3333334
        value: {x: 0, y: 0, z: -0.4614997, w: 0.8871404}
        inSlope: {x: 0, y: 0, z: 2.8513467, w: 1.4587343}
        outSlope: {x: 0, y: 0, z: 2.8513467, w: 1.4587343}
        tangentMode: 0
      - time: 0.35000008
        value: {x: 0, y: 0, z: -0.40728074, w: 0.913303}
        inSlope: {x: 0, y: 0, z: 3.7666812, w: 1.6422508}
        outSlope: {x: 0, y: 0, z: 3.7666812, w: 1.6422508}
        tangentMode: 0
      - time: 0.36666676
        value: {x: 0, y: 0, z: -0.33594355, w: 0.94188213}
        inSlope: {x: 0, y: 0, z: 4.6156354, w: 1.6215513}
        outSlope: {x: 0, y: 0, z: 4.6156354, w: 1.6215513}
        tangentMode: 0
      - time: 0.38333344
        value: {x: 0, y: 0, z: -0.2534261, w: 0.9673548}
        inSlope: {x: 0, y: 0, z: 5.07812, w: 1.3239033}
        outSlope: {x: 0, y: 0, z: 5.07812, w: 1.3239033}
        tangentMode: 0
      - time: 0.40000013
        value: {x: 0, y: 0, z: -0.16667274, w: 0.9860123}
        inSlope: {x: 0, y: 0, z: 5.102259, w: 0.8749655}
        outSlope: {x: 0, y: 0, z: 5.102259, w: 0.8749655}
        tangentMode: 0
      - time: 0.41666666
        value: {x: 0, y: 0, z: -0.0833514, w: 0.9965202}
        inSlope: {x: 0, y: 0, z: 4.9993205, w: 0.6304816}
        outSlope: {x: 0, y: 0, z: 4.9993205, w: 0.6304816}
        tangentMode: 0
      m_PreInfinity: 2
      m_PostInfinity: 2
      m_RotationOrder: 4
    path: "Fu\xDFR_CTRL_GRP/Fu\xDFR_CTRL"
  m_CompressedRotationCurves: []
  m_EulerCurves:
  - curve:
      serializedVersion: 2
      m_Curve:
      - time: 0
        value: {x: 0, y: 0, z: 355.0034}
        inSlope: {x: 0, y: 0, z: 119.741455}
        outSlope: {x: 0, y: 0, z: 119.741455}
        tangentMode: 0
      - time: 0.16666667
        value: {x: 0, y: 0, z: 374.9603}
        inSlope: {x: 0, y: 0, z: -143.76031}
        outSlope: {x: 0, y: 0, z: -143.76031}
        tangentMode: 0
      - time: 0.33333334
        value: {x: 0, y: 0, z: 307.08328}
        inSlope: {x: 0, y: 0, z: 94.56488}
        outSlope: {x: 0, y: 0, z: 94.56488}
        tangentMode: 0
      - time: 0.41666666
        value: {x: 0, y: 0, z: 356.7826}
        inSlope: {x: 0, y: 0, z: 596.39185}
        outSlope: {x: 0, y: 0, z: 596.39185}
        tangentMode: 0
      m_PreInfinity: 2
      m_PostInfinity: 2
      m_RotationOrder: 4
    path: Kopf_CTRL_GRP/Kopf_CTRL
  - curve:
      serializedVersion: 2
      m_Curve:
      - time: 0
        value: {x: 0, y: 0, z: 669.5689}
        inSlope: {x: 0, y: 0, z: -300.61057}
        outSlope: {x: 0, y: 0, z: -300.61057}
        tangentMode: 0
      - time: 0.41666666
        value: {x: 0, y: 0, z: 544.3145}
        inSlope: {x: 0, y: 0, z: -300.61057}
        outSlope: {x: 0, y: 0, z: -300.61057}
        tangentMode: 0
      m_PreInfinity: 2
      m_PostInfinity: 2
      m_RotationOrder: 4
    path: "H\xFCfte/Brust/SchulterR/ArmR/warrior_Amolette"
  - curve:
      serializedVersion: 2
      m_Curve:
      - time: 0
        value: {x: 0, y: 0, z: 5.81}
        inSlope: {x: 0, y: 0, z: -127.6203}
        outSlope: {x: 0, y: 0, z: -127.6203}
        tangentMode: 0
      - time: 0.33333334
        value: {x: 0, y: 0, z: -36.7301}
        inSlope: {x: 0, y: 0, z: 4.7026596}
        outSlope: {x: 0, y: 0, z: 4.7026596}
        tangentMode: 0
      - time: 0.41666666
        value: {x: 0, y: 0, z: -25.3113}
        inSlope: {x: 0, y: 0, z: 137.02562}
        outSlope: {x: 0, y: 0, z: 137.02562}
        tangentMode: 0
      m_PreInfinity: 2
      m_PostInfinity: 2
      m_RotationOrder: 4
    path: Huefte_CTRL_GRP/Huefte_CTRL
  - curve:
      serializedVersion: 2
      m_Curve:
      - time: 0
        value: {x: 0, y: 0, z: 157.3133}
        inSlope: {x: 0, y: 0, z: 211.72105}
        outSlope: {x: 0, y: 0, z: 211.72105}
        tangentMode: 0
      - time: 0.41666666
        value: {x: 0, y: 0, z: 245.5304}
        inSlope: {x: 0, y: 0, z: 211.72105}
        outSlope: {x: 0, y: 0, z: 211.72105}
        tangentMode: 0
      m_PreInfinity: 2
      m_PostInfinity: 2
      m_RotationOrder: 4
    path: Huefte/Brust/SchulterR/ArmR/warrior_Amolette
  m_PositionCurves:
  - curve:
      serializedVersion: 2
      m_Curve:
      - time: 0
        value: {x: -1.7, y: 4.5, z: 0}
        inSlope: {x: 58.8, y: 49.8, z: -0}
        outSlope: {x: 58.8, y: 49.8, z: -0}
        tangentMode: 0
      - time: 0.16666667
        value: {x: 8.1, y: 12.8, z: -0}
        inSlope: {x: 42.6, y: 119.4, z: 0}
        outSlope: {x: 42.6, y: 119.4, z: 0}
        tangentMode: 0
      - time: 0.33333334
        value: {x: 12.5, y: 44.3, z: 0}
        inSlope: {x: -66.00002, y: 195.90002, z: 0}
        outSlope: {x: -66.00002, y: 195.90002, z: 0}
        tangentMode: 0
      - time: 0.41666666
        value: {x: -0.7, y: 61.2, z: -0}
        inSlope: {x: -158.40004, y: 202.80006, z: -0}
        outSlope: {x: -158.40004, y: 202.80006, z: -0}
        tangentMode: 0
      m_PreInfinity: 2
      m_PostInfinity: 2
      m_RotationOrder: 4
    path: "Fu\xDFL_CTRL_GRP/Fu\xDFL_CTRL"
  - curve:
      serializedVersion: 2
      m_Curve:
      - time: 0
        value: {x: -43.3, y: 32.6, z: 0}
        inSlope: {x: 6.541626, y: 4.741894, z: -9.7578196e-18}
        outSlope: {x: 6.541626, y: 4.741894, z: -9.7578196e-18}
        tangentMode: 0
      - time: 0.33333334
        value: {x: -41.119457, y: 34.18063, z: -3.2526065e-18}
        inSlope: {x: 18.987606, y: 28.287174, z: 2.5045077e-17}
        outSlope: {x: 18.987606, y: 28.287174, z: 2.5045077e-17}
        tangentMode: 0
      - time: 0.41666666
        value: {x: -38.499992, y: 38.5, z: 1.7347235e-18}
        inSlope: {x: 31.433586, y: 51.832455, z: 5.984797e-17}
        outSlope: {x: 31.433586, y: 51.832455, z: 5.984797e-17}
        tangentMode: 0
      m_PreInfinity: 2
      m_PostInfinity: 2
      m_RotationOrder: 4
    path: "Fu\xDFR_CTRL_GRP/Fu\xDFR_CTRL"
  - curve:
      serializedVersion: 2
      m_Curve:
      - time: 0
        value: {x: -4.4, y: 51.1, z: 0}
        inSlope: {x: 29.04, y: 14.880002, z: 0}
        outSlope: {x: 29.04, y: 14.880002, z: 0}
        tangentMode: 0
      - time: 0.41666666
        value: {x: 7.7, y: 57.3, z: 0}
        inSlope: {x: 29.04, y: 14.880002, z: 0}
        outSlope: {x: 29.04, y: 14.880002, z: 0}
        tangentMode: 0
      m_PreInfinity: 2
      m_PostInfinity: 2
      m_RotationOrder: 4
    path: HandL_CTRL_GRP/HandL_CTRL
  - curve:
      serializedVersion: 2
      m_Curve:
      - time: 0
        value: {x: -5.1, y: 0.3, z: 0}
        inSlope: {x: -167.99998, y: 11.400001, z: 0}
        outSlope: {x: -167.99998, y: 11.400001, z: 0}
        tangentMode: 0
      - time: 0.16666667
        value: {x: -33.1, y: 2.2, z: 0}
        inSlope: {x: -72, y: 76.49999, z: 0}
        outSlope: {x: -72, y: 76.49999, z: 0}
        tangentMode: 0
      - time: 0.33333334
        value: {x: -29.1, y: 25.8, z: 0}
        inSlope: {x: 40.80001, y: 165.6, z: 0}
        outSlope: {x: 40.80001, y: 165.6, z: 0}
        tangentMode: 0
      - time: 0.41666666
        value: {x: -24.3, y: 41.6, z: 0}
        inSlope: {x: 57.60003, y: 189.60004, z: 0}
        outSlope: {x: 57.60003, y: 189.60004, z: 0}
        tangentMode: 0
      m_PreInfinity: 2
      m_PostInfinity: 2
      m_RotationOrder: 4
    path: HandR_CTRL_GRP/HandR_CTRL
  - curve:
      serializedVersion: 2
      m_Curve:
      - time: 0
        value: {x: 0.1, y: 1.21, z: -0}
        inSlope: {x: -0.09600001, y: 0.023999978, z: 0}
        outSlope: {x: -0.09600001, y: 0.023999978, z: 0}
        tangentMode: 0
      - time: 0.41666666
        value: {x: 0.06, y: 1.22, z: -0}
        inSlope: {x: -0.09600001, y: 0.023999978, z: 0}
        outSlope: {x: -0.09600001, y: 0.023999978, z: 0}
        tangentMode: 0
      m_PreInfinity: 2
      m_PostInfinity: 2
      m_RotationOrder: 4
    path: "H\xFCfte/Brust/SchulterR/ArmR/warrior_Amolette"
  - curve:
      serializedVersion: 2
      m_Curve:
      - time: 0
        value: {x: 0.20000002, y: -2.3999996, z: 7.390781e-13}
        inSlope: {x: 0.000005722046, y: 0, z: 2.6425368e-12}
        outSlope: {x: 0.000005722046, y: 0, z: 2.6425368e-12}
        tangentMode: 0
      - time: 0.16666667
        value: {x: 0.20000097, y: -2.3999996, z: 1.1795009e-12}
        inSlope: {x: 0.000002861023, y: 0, z: 2.1739197e-12}
        outSlope: {x: 0.000002861023, y: 0, z: 2.1739197e-12}
        tangentMode: 0
      - time: 0.33333334
        value: {x: 0.20000097, y: -2.3999996, z: 1.463718e-12}
        inSlope: {x: 0, y: 0, z: 3.1548104e-12}
        outSlope: {x: 0, y: 0, z: 3.1548104e-12}
        tangentMode: 0
      - time: 0.41666666
        value: {x: 0.20000097, y: -2.3999996, z: 1.8474111e-12}
        inSlope: {x: 0, y: 0, z: 4.6043182e-12}
        outSlope: {x: 0, y: 0, z: 4.6043182e-12}
        tangentMode: 0
      m_PreInfinity: 2
      m_PostInfinity: 2
      m_RotationOrder: 4
    path: Brust_CTRL_GRP/Brust_CTRL
  - curve:
      serializedVersion: 2
      m_Curve:
      - time: 0
        value: {x: 0, y: 0, z: 0}
        inSlope: {x: 0.000045776367, y: -1.3425756e-25, z: -1.2472085e-18}
        outSlope: {x: 0.000045776367, y: -1.3425756e-25, z: -1.2472085e-18}
        tangentMode: 0
      - time: 0.16666667
        value: {x: 0.0000076293945, y: -2.237626e-26, z: -2.0786808e-19}
        inSlope: {x: 0.000045776367, y: -1.3425756e-25, z: -1.2472085e-18}
        outSlope: {x: 0.000045776367, y: -1.3425756e-25, z: -1.2472085e-18}
        tangentMode: 0
      m_PreInfinity: 2
      m_PostInfinity: 2
      m_RotationOrder: 4
    path: Kopf_CTRL_GRP/Kopf_CTRL
  - curve:
      serializedVersion: 2
      m_Curve:
      - time: 0
        value: {x: 0, y: 0, z: -1.6484591e-12}
        inSlope: {x: -34.8, y: -49.199997, z: 9.890755e-12}
        outSlope: {x: -34.8, y: -49.199997, z: 9.890755e-12}
        tangentMode: 0
      - time: 0.16666667
        value: {x: -5.8, y: -8.2, z: -0}
        inSlope: {x: -74.10006, y: 0.30001068, z: 3.0524916e-11}
        outSlope: {x: -74.10006, y: 0.30001068, z: 3.0524916e-11}
        tangentMode: 0
      - time: 0.33333334
        value: {x: -24.70002, y: 0.100002766, z: 8.526513e-12}
        inSlope: {x: -56.70006, y: 24.90001, z: 1.1220893e-10}
        outSlope: {x: -56.70006, y: 24.90001, z: 1.1220893e-10}
        tangentMode: 0
      - time: 0.41666666
        value: {x: -24.70002, y: 0.100002766, z: 2.2964741e-11}
        inSlope: {x: 0, y: 0, z: 1.7325878e-10}
        outSlope: {x: 0, y: 0, z: 1.7325878e-10}
        tangentMode: 0
      m_PreInfinity: 2
      m_PostInfinity: 2
      m_RotationOrder: 4
    path: Huefte_CTRL_GRP/Huefte_CTRL
  - curve:
      serializedVersion: 2
      m_Curve:
      - time: 0
        value: {x: 0.1, y: 1.21, z: 0}
        inSlope: {x: -0.28800002, y: -0.047999956, z: 0}
        outSlope: {x: -0.28800002, y: -0.047999956, z: 0}
        tangentMode: 0
      - time: 0.41666666
        value: {x: -0.02, y: 1.19, z: 0}
        inSlope: {x: -0.28800002, y: -0.047999956, z: 0}
        outSlope: {x: -0.28800002, y: -0.047999956, z: 0}
        tangentMode: 0
      m_PreInfinity: 2
      m_PostInfinity: 2
      m_RotationOrder: 4
    path: Huefte/Brust/SchulterR/ArmR/warrior_Amolette
  m_ScaleCurves: []
  m_FloatCurves: []
  m_PPtrCurves: []
  m_SampleRate: 60
  m_WrapMode: 0
  m_Bounds:
    m_Center: {x: 0, y: 0, z: 0}
    m_Extent: {x: 0, y: 0, z: 0}
  m_ClipBindingConstant:
    genericBindings:
    - path: 2501583950
      attribute: 1
      script: {fileID: 0}
      classID: 4
      customType: 0
      isPPtrCurve: 0
    - path: 887904761
      attribute: 1
      script: {fileID: 0}
      classID: 4
      customType: 0
      isPPtrCurve: 0
    - path: 3395650270
      attribute: 1
      script: {fileID: 0}
      classID: 4
      customType: 0
      isPPtrCurve: 0
    - path: 1804795753
      attribute: 1
      script: {fileID: 0}
      classID: 4
      customType: 0
      isPPtrCurve: 0
    - path: 1869052434
      attribute: 1
      script: {fileID: 0}
      classID: 4
      customType: 0
      isPPtrCurve: 0
    - path: 4199396277
      attribute: 1
      script: {fileID: 0}
      classID: 4
      customType: 0
      isPPtrCurve: 0
    - path: 3339800587
      attribute: 1
      script: {fileID: 0}
      classID: 4
      customType: 0
      isPPtrCurve: 0
    - path: 3257212491
      attribute: 1
      script: {fileID: 0}
      classID: 4
      customType: 0
      isPPtrCurve: 0
    - path: 1028011994
      attribute: 1
      script: {fileID: 0}
      classID: 4
      customType: 0
      isPPtrCurve: 0
    - path: 2501583950
      attribute: 2
      script: {fileID: 0}
      classID: 4
      customType: 0
      isPPtrCurve: 0
    - path: 4199396277
      attribute: 2
      script: {fileID: 0}
      classID: 4
      customType: 0
      isPPtrCurve: 0
    - path: 887904761
      attribute: 2
      script: {fileID: 0}
      classID: 4
      customType: 0
      isPPtrCurve: 0
    - path: 3339800587
      attribute: 4
      script: {fileID: 0}
      classID: 4
      customType: 14
      isPPtrCurve: 0
    - path: 1869052434
      attribute: 4
      script: {fileID: 0}
      classID: 4
      customType: 14
      isPPtrCurve: 0
    - path: 3257212491
      attribute: 4
      script: {fileID: 0}
      classID: 4
      customType: 14
      isPPtrCurve: 0
    - path: 1028011994
      attribute: 4
      script: {fileID: 0}
      classID: 4
      customType: 14
      isPPtrCurve: 0
    pptrCurveMapping: []
  m_AnimationClipSettings:
    serializedVersion: 2
    m_AdditiveReferencePoseClip: {fileID: 0}
    m_AdditiveReferencePoseTime: 0
    m_StartTime: 0
    m_StopTime: 0.41666666
    m_OrientationOffsetY: 0
    m_Level: 0
    m_CycleOffset: 0
    m_HasAdditiveReferencePose: 0
    m_LoopTime: 1
    m_LoopBlend: 0
    m_LoopBlendOrientation: 0
    m_LoopBlendPositionY: 0
    m_LoopBlendPositionXZ: 0
    m_KeepOriginalOrientation: 0
    m_KeepOriginalPositionY: 1
    m_KeepOriginalPositionXZ: 0
    m_HeightFromFeet: 0
    m_Mirror: 0
  m_EditorCurves:
  - curve:
      serializedVersion: 2
      m_Curve:
      - time: 0
        value: -1.7
        inSlope: 58.8
        outSlope: 58.8
        tangentMode: 10
      - time: 0.16666667
        value: 8.1
        inSlope: 42.6
        outSlope: 42.6
        tangentMode: 10
      - time: 0.33333334
        value: 12.5
        inSlope: -66.00002
        outSlope: -66.00002
        tangentMode: 10
      - time: 0.41666666
        value: -0.7
        inSlope: -158.40004
        outSlope: -158.40004
        tangentMode: 10
      m_PreInfinity: 2
      m_PostInfinity: 2
      m_RotationOrder: 4
    attribute: m_LocalPosition.x
    path: "Fu\xDFL_CTRL_GRP/Fu\xDFL_CTRL"
    classID: 4
    script: {fileID: 0}
  - curve:
      serializedVersion: 2
      m_Curve:
      - time: 0
        value: 4.5
        inSlope: 49.8
        outSlope: 49.8
        tangentMode: 10
      - time: 0.16666667
        value: 12.8
        inSlope: 119.4
        outSlope: 119.4
        tangentMode: 10
      - time: 0.33333334
        value: 44.3
        inSlope: 195.90002
        outSlope: 195.90002
        tangentMode: 10
      - time: 0.41666666
        value: 61.2
        inSlope: 202.80006
        outSlope: 202.80006
        tangentMode: 10
      m_PreInfinity: 2
      m_PostInfinity: 2
      m_RotationOrder: 4
    attribute: m_LocalPosition.y
    path: "Fu\xDFL_CTRL_GRP/Fu\xDFL_CTRL"
    classID: 4
    script: {fileID: 0}
  - curve:
      serializedVersion: 2
      m_Curve:
      - time: 0
        value: 0
        inSlope: -0
        outSlope: -0
        tangentMode: 10
      - time: 0.16666667
        value: -0
        inSlope: 0
        outSlope: 0
        tangentMode: 10
      - time: 0.33333334
        value: 0
        inSlope: 0
        outSlope: 0
        tangentMode: 10
      - time: 0.41666666
        value: -0
        inSlope: -0
        outSlope: -0
        tangentMode: 10
      m_PreInfinity: 2
      m_PostInfinity: 2
      m_RotationOrder: 4
    attribute: m_LocalPosition.z
    path: "Fu\xDFL_CTRL_GRP/Fu\xDFL_CTRL"
    classID: 4
    script: {fileID: 0}
  - curve:
      serializedVersion: 2
      m_Curve:
      - time: 0
        value: -43.3
        inSlope: 6.541626
        outSlope: 6.541626
        tangentMode: 10
      - time: 0.33333334
        value: -41.119457
        inSlope: 18.987606
        outSlope: 18.987606
        tangentMode: 10
      - time: 0.41666666
        value: -38.499992
        inSlope: 31.433586
        outSlope: 31.433586
        tangentMode: 10
      m_PreInfinity: 2
      m_PostInfinity: 2
      m_RotationOrder: 4
    attribute: m_LocalPosition.x
    path: "Fu\xDFR_CTRL_GRP/Fu\xDFR_CTRL"
    classID: 4
    script: {fileID: 0}
  - curve:
      serializedVersion: 2
      m_Curve:
      - time: 0
        value: 32.6
        inSlope: 4.741894
        outSlope: 4.741894
        tangentMode: 10
      - time: 0.33333334
        value: 34.18063
        inSlope: 28.287174
        outSlope: 28.287174
        tangentMode: 10
      - time: 0.41666666
        value: 38.5
        inSlope: 51.832455
        outSlope: 51.832455
        tangentMode: 10
      m_PreInfinity: 2
      m_PostInfinity: 2
      m_RotationOrder: 4
    attribute: m_LocalPosition.y
    path: "Fu\xDFR_CTRL_GRP/Fu\xDFR_CTRL"
    classID: 4
    script: {fileID: 0}
  - curve:
      serializedVersion: 2
      m_Curve:
      - time: 0
        value: 0
        inSlope: -9.7578196e-18
        outSlope: -9.7578196e-18
        tangentMode: 10
      - time: 0.33333334
        value: -3.2526065e-18
        inSlope: 2.5045077e-17
        outSlope: 2.5045077e-17
        tangentMode: 10
      - time: 0.41666666
        value: 1.7347235e-18
        inSlope: 5.984797e-17
        outSlope: 5.984797e-17
        tangentMode: 10
      m_PreInfinity: 2
      m_PostInfinity: 2
      m_RotationOrder: 4
    attribute: m_LocalPosition.z
    path: "Fu\xDFR_CTRL_GRP/Fu\xDFR_CTRL"
    classID: 4
    script: {fileID: 0}
  - curve:
      serializedVersion: 2
      m_Curve:
      - time: 0
        value: -4.4
        inSlope: 29.04
        outSlope: 29.04
        tangentMode: 10
      - time: 0.41666666
        value: 7.7
        inSlope: 29.04
        outSlope: 29.04
        tangentMode: 10
      m_PreInfinity: 2
      m_PostInfinity: 2
      m_RotationOrder: 4
    attribute: m_LocalPosition.x
    path: HandL_CTRL_GRP/HandL_CTRL
    classID: 4
    script: {fileID: 0}
  - curve:
      serializedVersion: 2
      m_Curve:
      - time: 0
        value: 51.1
        inSlope: 14.880002
        outSlope: 14.880002
        tangentMode: 10
      - time: 0.41666666
        value: 57.3
        inSlope: 14.880002
        outSlope: 14.880002
        tangentMode: 10
      m_PreInfinity: 2
      m_PostInfinity: 2
      m_RotationOrder: 4
    attribute: m_LocalPosition.y
    path: HandL_CTRL_GRP/HandL_CTRL
    classID: 4
    script: {fileID: 0}
  - curve:
      serializedVersion: 2
      m_Curve:
      - time: 0
        value: 0
        inSlope: 0
        outSlope: 0
        tangentMode: 10
      - time: 0.41666666
        value: 0
        inSlope: 0
        outSlope: 0
        tangentMode: 10
      m_PreInfinity: 2
      m_PostInfinity: 2
      m_RotationOrder: 4
    attribute: m_LocalPosition.z
    path: HandL_CTRL_GRP/HandL_CTRL
    classID: 4
    script: {fileID: 0}
  - curve:
      serializedVersion: 2
      m_Curve:
      - time: 0
        value: -5.1
        inSlope: -167.99998
        outSlope: -167.99998
        tangentMode: 10
      - time: 0.16666667
        value: -33.1
        inSlope: -72
        outSlope: -72
        tangentMode: 10
      - time: 0.33333334
        value: -29.1
        inSlope: 40.80001
        outSlope: 40.80001
        tangentMode: 10
      - time: 0.41666666
        value: -24.3
        inSlope: 57.60003
        outSlope: 57.60003
        tangentMode: 10
      m_PreInfinity: 2
      m_PostInfinity: 2
      m_RotationOrder: 4
    attribute: m_LocalPosition.x
    path: HandR_CTRL_GRP/HandR_CTRL
    classID: 4
    script: {fileID: 0}
  - curve:
      serializedVersion: 2
      m_Curve:
      - time: 0
        value: 0.3
        inSlope: 11.400001
        outSlope: 11.400001
        tangentMode: 10
      - time: 0.16666667
        value: 2.2
        inSlope: 76.49999
        outSlope: 76.49999
        tangentMode: 10
      - time: 0.33333334
        value: 25.8
        inSlope: 165.6
        outSlope: 165.6
        tangentMode: 10
      - time: 0.41666666
        value: 41.6
        inSlope: 189.60004
        outSlope: 189.60004
        tangentMode: 10
      m_PreInfinity: 2
      m_PostInfinity: 2
      m_RotationOrder: 4
    attribute: m_LocalPosition.y
    path: HandR_CTRL_GRP/HandR_CTRL
    classID: 4
    script: {fileID: 0}
  - curve:
      serializedVersion: 2
      m_Curve:
      - time: 0
        value: 0
        inSlope: 0
        outSlope: 0
        tangentMode: 10
      - time: 0.16666667
        value: 0
        inSlope: 0
        outSlope: 0
        tangentMode: 10
      - time: 0.33333334
        value: 0
        inSlope: 0
        outSlope: 0
        tangentMode: 10
      - time: 0.41666666
        value: 0
        inSlope: 0
        outSlope: 0
        tangentMode: 10
      m_PreInfinity: 2
      m_PostInfinity: 2
      m_RotationOrder: 4
    attribute: m_LocalPosition.z
    path: HandR_CTRL_GRP/HandR_CTRL
    classID: 4
    script: {fileID: 0}
  - curve:
      serializedVersion: 2
      m_Curve:
      - time: 0
        value: 0
        inSlope: 0
        outSlope: 0
        tangentMode: 10
      - time: 0.16666667
        value: 0
        inSlope: 0
        outSlope: 0
        tangentMode: 10
      - time: 0.33333334
        value: 0
        inSlope: 0
        outSlope: 0
        tangentMode: 10
      - time: 0.41666666
        value: 0
        inSlope: 0
        outSlope: 0
        tangentMode: 10
      m_PreInfinity: 2
      m_PostInfinity: 2
      m_RotationOrder: 4
    attribute: localEulerAnglesRaw.x
    path: Kopf_CTRL_GRP/Kopf_CTRL
    classID: 4
    script: {fileID: 0}
  - curve:
      serializedVersion: 2
      m_Curve:
      - time: 0
        value: 0
        inSlope: 0
        outSlope: 0
        tangentMode: 10
      - time: 0.16666667
        value: 0
        inSlope: 0
        outSlope: 0
        tangentMode: 10
      - time: 0.33333334
        value: 0
        inSlope: 0
        outSlope: 0
        tangentMode: 10
      - time: 0.41666666
        value: 0
        inSlope: 0
        outSlope: 0
        tangentMode: 10
      m_PreInfinity: 2
      m_PostInfinity: 2
      m_RotationOrder: 4
    attribute: localEulerAnglesRaw.y
    path: Kopf_CTRL_GRP/Kopf_CTRL
    classID: 4
    script: {fileID: 0}
  - curve:
      serializedVersion: 2
      m_Curve:
      - time: 0
        value: 355.0034
        inSlope: 119.741455
        outSlope: 119.741455
        tangentMode: 10
      - time: 0.16666667
        value: 374.9603
        inSlope: -143.76031
        outSlope: -143.76031
        tangentMode: 10
      - time: 0.33333334
        value: 307.08328
        inSlope: 94.56488
        outSlope: 94.56488
        tangentMode: 10
      - time: 0.41666666
        value: 356.7826
        inSlope: 596.39185
        outSlope: 596.39185
        tangentMode: 10
      m_PreInfinity: 2
      m_PostInfinity: 2
      m_RotationOrder: 4
    attribute: localEulerAnglesRaw.z
    path: Kopf_CTRL_GRP/Kopf_CTRL
    classID: 4
    script: {fileID: 0}
  - curve:
      serializedVersion: 2
      m_Curve:
      - time: 0
        value: 0.1
        inSlope: -0.09600001
        outSlope: -0.09600001
        tangentMode: 10
      - time: 0.41666666
        value: 0.06
        inSlope: -0.09600001
        outSlope: -0.09600001
        tangentMode: 10
      m_PreInfinity: 2
      m_PostInfinity: 2
      m_RotationOrder: 4
    attribute: m_LocalPosition.x
    path: "H\xFCfte/Brust/SchulterR/ArmR/warrior_Amolette"
    classID: 4
    script: {fileID: 0}
  - curve:
      serializedVersion: 2
      m_Curve:
      - time: 0
        value: 1.21
        inSlope: 0.023999978
        outSlope: 0.023999978
        tangentMode: 10
      - time: 0.41666666
        value: 1.22
        inSlope: 0.023999978
        outSlope: 0.023999978
        tangentMode: 10
      m_PreInfinity: 2
      m_PostInfinity: 2
      m_RotationOrder: 4
    attribute: m_LocalPosition.y
    path: "H\xFCfte/Brust/SchulterR/ArmR/warrior_Amolette"
    classID: 4
    script: {fileID: 0}
  - curve:
      serializedVersion: 2
      m_Curve:
      - time: 0
        value: -0
        inSlope: 0
        outSlope: 0
        tangentMode: 10
      - time: 0.41666666
        value: -0
        inSlope: 0
        outSlope: 0
        tangentMode: 10
      m_PreInfinity: 2
      m_PostInfinity: 2
      m_RotationOrder: 4
    attribute: m_LocalPosition.z
    path: "H\xFCfte/Brust/SchulterR/ArmR/warrior_Amolette"
    classID: 4
    script: {fileID: 0}
  - curve:
      serializedVersion: 2
      m_Curve:
      - time: 0
        value: 0
        inSlope: 0
        outSlope: 0
        tangentMode: 10
      - time: 0.41666666
        value: 0
        inSlope: 0
        outSlope: 0
        tangentMode: 10
      m_PreInfinity: 2
      m_PostInfinity: 2
      m_RotationOrder: 4
    attribute: localEulerAnglesRaw.x
    path: "H\xFCfte/Brust/SchulterR/ArmR/warrior_Amolette"
    classID: 4
    script: {fileID: 0}
  - curve:
      serializedVersion: 2
      m_Curve:
      - time: 0
        value: 0
        inSlope: 0
        outSlope: 0
        tangentMode: 10
      - time: 0.41666666
        value: 0
        inSlope: 0
        outSlope: 0
        tangentMode: 10
      m_PreInfinity: 2
      m_PostInfinity: 2
      m_RotationOrder: 4
    attribute: localEulerAnglesRaw.y
    path: "H\xFCfte/Brust/SchulterR/ArmR/warrior_Amolette"
    classID: 4
    script: {fileID: 0}
  - curve:
      serializedVersion: 2
      m_Curve:
      - time: 0
        value: 669.5689
        inSlope: -300.61057
        outSlope: -300.61057
        tangentMode: 10
      - time: 0.41666666
        value: 544.3145
        inSlope: -300.61057
        outSlope: -300.61057
        tangentMode: 10
      m_PreInfinity: 2
      m_PostInfinity: 2
      m_RotationOrder: 4
    attribute: localEulerAnglesRaw.z
    path: "H\xFCfte/Brust/SchulterR/ArmR/warrior_Amolette"
    classID: 4
    script: {fileID: 0}
  - curve:
      serializedVersion: 2
      m_Curve:
      - time: 0
        value: 0
        inSlope: 0
        outSlope: 0
        tangentMode: 0
      - time: 0.016666668
        value: 0
        inSlope: 0
        outSlope: 0
        tangentMode: 0
      - time: 0.033333335
        value: 0
        inSlope: 0
        outSlope: 0
        tangentMode: 0
      - time: 0.050000004
        value: 0
        inSlope: 0
        outSlope: 0
        tangentMode: 0
      - time: 0.06666667
        value: 0
        inSlope: 0
        outSlope: 0
        tangentMode: 0
      - time: 0.083333336
        value: 0
        inSlope: 0
        outSlope: 0
        tangentMode: 0
      - time: 0.1
        value: 0
        inSlope: 0
        outSlope: 0
        tangentMode: 0
      - time: 0.11666667
        value: 0
        inSlope: 0
        outSlope: 0
        tangentMode: 0
      - time: 0.13333334
        value: 0
        inSlope: 0
        outSlope: 0
        tangentMode: 0
      - time: 0.15
        value: 0
        inSlope: 0
        outSlope: 0
        tangentMode: 0
      - time: 0.16666667
        value: 0
        inSlope: 0
        outSlope: 0
        tangentMode: 0
      m_PreInfinity: 2
      m_PostInfinity: 2
      m_RotationOrder: 4
    attribute: m_LocalRotation.x
    path: "Fu\xDFL_CTRL_GRP/Fu\xDFL_CTRL"
    classID: 4
    script: {fileID: 0}
  - curve:
      serializedVersion: 2
      m_Curve:
      - time: 0
        value: 0
        inSlope: 0
        outSlope: 0
        tangentMode: 0
      - time: 0.016666668
        value: 0
        inSlope: 0
        outSlope: 0
        tangentMode: 0
      - time: 0.033333335
        value: 0
        inSlope: 0
        outSlope: 0
        tangentMode: 0
      - time: 0.050000004
        value: 0
        inSlope: 0
        outSlope: 0
        tangentMode: 0
      - time: 0.06666667
        value: 0
        inSlope: 0
        outSlope: 0
        tangentMode: 0
      - time: 0.083333336
        value: 0
        inSlope: 0
        outSlope: 0
        tangentMode: 0
      - time: 0.1
        value: 0
        inSlope: 0
        outSlope: 0
        tangentMode: 0
      - time: 0.11666667
        value: 0
        inSlope: 0
        outSlope: 0
        tangentMode: 0
      - time: 0.13333334
        value: 0
        inSlope: 0
        outSlope: 0
        tangentMode: 0
      - time: 0.15
        value: 0
        inSlope: 0
        outSlope: 0
        tangentMode: 0
      - time: 0.16666667
        value: 0
        inSlope: 0
        outSlope: 0
        tangentMode: 0
      m_PreInfinity: 2
      m_PostInfinity: 2
      m_RotationOrder: 4
    attribute: m_LocalRotation.y
    path: "Fu\xDFL_CTRL_GRP/Fu\xDFL_CTRL"
    classID: 4
    script: {fileID: 0}
  - curve:
      serializedVersion: 2
      m_Curve:
      - time: 0
        value: -0.5592689
        inSlope: 5.4279413
        outSlope: 5.4279413
        tangentMode: 0
      - time: 0.016666668
        value: -0.4688032
        inSlope: 5.5845366
        outSlope: 5.5845366
        tangentMode: 0
      - time: 0.033333335
        value: -0.37311766
        inSlope: 5.8657637
        outSlope: 5.8657637
        tangentMode: 0
      - time: 0.050000004
        value: -0.27327773
        inSlope: 6.0816784
        outSlope: 6.0816784
        tangentMode: 0
      - time: 0.06666667
        value: -0.17039503
        inSlope: 6.2298784
        outSlope: 6.2298784
        tangentMode: 0
      - time: 0.083333336
        value: -0.06561513
        inSlope: 6.308712
        outSlope: 6.308712
        tangentMode: 0
      - time: 0.1
        value: 0.039895352
        inSlope: 6.317303
        outSlope: 6.317303
        tangentMode: 0
      - time: 0.11666667
        value: 0.14496163
        inSlope: 6.255556
        outSlope: 6.255556
        tangentMode: 0
      - time: 0.13333334
        value: 0.24841394
        inSlope: 6.124157
        outSlope: 6.124157
        tangentMode: 0
      - time: 0.15
        value: 0.34910023
        inSlope: 5.924567
        outSlope: 5.924567
        tangentMode: 0
      - time: 0.16666667
        value: 0.4458995
        inSlope: 5.8079557
        outSlope: 5.8079557
        tangentMode: 0
      m_PreInfinity: 2
      m_PostInfinity: 2
      m_RotationOrder: 4
    attribute: m_LocalRotation.z
    path: "Fu\xDFL_CTRL_GRP/Fu\xDFL_CTRL"
    classID: 4
    script: {fileID: 0}
  - curve:
      serializedVersion: 2
      m_Curve:
      - time: 0
        value: 0.82898635
        inSlope: 3.2589767
        outSlope: 3.2589767
        tangentMode: 0
      - time: 0.016666668
        value: 0.8833026
        inSlope: 2.9639301
        outSlope: 2.9639301
        tangentMode: 0
      - time: 0.033333335
        value: 0.927784
        inSlope: 2.358976
        outSlope: 2.358976
        tangentMode: 0
      - time: 0.050000004
        value: 0.96193516
        inSlope: 1.7277539
        outSlope: 1.7277539
        tangentMode: 0
      - time: 0.06666667
        value: 0.9853758
        inSlope: 1.0772951
        outSlope: 1.0772951
        tangentMode: 0
      - time: 0.083333336
        value: 0.997845
        inSlope: 0.4148412
        outSlope: 0.4148412
        tangentMode: 0
      - time: 0.1
        value: 0.99920386
        inSlope: -0.2522314
        outSlope: -0.2522314
        tangentMode: 0
      - time: 0.11666667
        value: 0.9894373
        inSlope: -0.9164963
        outSlope: -0.9164963
        tangentMode: 0
      - time: 0.13333334
        value: 0.968654
        inSlope: -1.5705566
        outSlope: -1.5705566
        tangentMode: 0
      - time: 0.15
        value: 0.9370854
        inSlope: -2.2071292
        outSlope: -2.2071292
        tangentMode: 0
      - time: 0.16666667
        value: 0.895083
        inSlope: -2.520143
        outSlope: -2.520143
        tangentMode: 0
      m_PreInfinity: 2
      m_PostInfinity: 2
      m_RotationOrder: 4
    attribute: m_LocalRotation.w
    path: "Fu\xDFL_CTRL_GRP/Fu\xDFL_CTRL"
    classID: 4
    script: {fileID: 0}
  - curve:
      serializedVersion: 2
      m_Curve:
      - time: 0
        value: 0.20000002
        inSlope: 0.000005722046
        outSlope: 0.000005722046
        tangentMode: 10
      - time: 0.16666667
        value: 0.20000097
        inSlope: 0.000002861023
        outSlope: 0.000002861023
        tangentMode: 10
      - time: 0.33333334
        value: 0.20000097
        inSlope: 0
        outSlope: 0
        tangentMode: 10
      - time: 0.41666666
        value: 0.20000097
        inSlope: 0
        outSlope: 0
        tangentMode: 10
      m_PreInfinity: 2
      m_PostInfinity: 2
      m_RotationOrder: 4
    attribute: m_LocalPosition.x
    path: Brust_CTRL_GRP/Brust_CTRL
    classID: 4
    script: {fileID: 0}
  - curve:
      serializedVersion: 2
      m_Curve:
      - time: 0
        value: -2.3999996
        inSlope: 0
        outSlope: 0
        tangentMode: 10
      - time: 0.16666667
        value: -2.3999996
        inSlope: 0
        outSlope: 0
        tangentMode: 10
      - time: 0.33333334
        value: -2.3999996
        inSlope: 0
        outSlope: 0
        tangentMode: 10
      - time: 0.41666666
        value: -2.3999996
        inSlope: 0
        outSlope: 0
        tangentMode: 10
      m_PreInfinity: 2
      m_PostInfinity: 2
      m_RotationOrder: 4
    attribute: m_LocalPosition.y
    path: Brust_CTRL_GRP/Brust_CTRL
    classID: 4
    script: {fileID: 0}
  - curve:
      serializedVersion: 2
      m_Curve:
      - time: 0
        value: 7.390781e-13
        inSlope: 2.6425368e-12
        outSlope: 2.6425368e-12
        tangentMode: 10
      - time: 0.16666667
        value: 1.1795009e-12
        inSlope: 2.1739197e-12
        outSlope: 2.1739197e-12
        tangentMode: 10
      - time: 0.33333334
        value: 1.463718e-12
        inSlope: 3.1548104e-12
        outSlope: 3.1548104e-12
        tangentMode: 10
      - time: 0.41666666
        value: 1.8474111e-12
        inSlope: 4.6043182e-12
        outSlope: 4.6043182e-12
        tangentMode: 10
      m_PreInfinity: 2
      m_PostInfinity: 2
      m_RotationOrder: 4
    attribute: m_LocalPosition.z
    path: Brust_CTRL_GRP/Brust_CTRL
    classID: 4
    script: {fileID: 0}
  - curve:
      serializedVersion: 2
      m_Curve:
      - time: 0
        value: 0
        inSlope: 0
        outSlope: 0
        tangentMode: 0
      - time: 0.016666668
        value: 0
        inSlope: 0
        outSlope: 0
        tangentMode: 0
      - time: 0.033333335
        value: 0
        inSlope: 0
        outSlope: 0
        tangentMode: 0
      - time: 0.050000004
        value: 0
        inSlope: 0
        outSlope: 0
        tangentMode: 0
      - time: 0.06666667
        value: 0
        inSlope: 0
        outSlope: 0
        tangentMode: 0
      - time: 0.083333336
        value: 0
        inSlope: 0
        outSlope: 0
        tangentMode: 0
      - time: 0.1
        value: 0
        inSlope: 0
        outSlope: 0
        tangentMode: 0
      - time: 0.11666667
        value: 0
        inSlope: 0
        outSlope: 0
        tangentMode: 0
      - time: 0.13333334
        value: 0
        inSlope: 0
        outSlope: 0
        tangentMode: 0
      - time: 0.15
        value: 0
        inSlope: 0
        outSlope: 0
        tangentMode: 0
      - time: 0.16666667
        value: 0
        inSlope: 0
        outSlope: 0
        tangentMode: 0
      - time: 0.18333334
        value: 0
        inSlope: 0
        outSlope: 0
        tangentMode: 0
      - time: 0.2
        value: 0
        inSlope: 0
        outSlope: 0
        tangentMode: 0
      - time: 0.21666667
        value: 0
        inSlope: 0
        outSlope: 0
        tangentMode: 0
      - time: 0.23333333
        value: 0
        inSlope: 0
        outSlope: 0
        tangentMode: 0
      - time: 0.25
        value: 0
        inSlope: 0
        outSlope: 0
        tangentMode: 0
      - time: 0.26666668
        value: 0
        inSlope: 0
        outSlope: 0
        tangentMode: 0
      - time: 0.28333336
        value: 0
        inSlope: 0
        outSlope: 0
        tangentMode: 0
      - time: 0.30000004
        value: 0
        inSlope: 0
        outSlope: 0
        tangentMode: 0
      - time: 0.31666672
        value: 0
        inSlope: 0
        outSlope: 0
        tangentMode: 0
      - time: 0.3333334
        value: 0
        inSlope: 0
        outSlope: 0
        tangentMode: 0
      - time: 0.35000008
        value: 0
        inSlope: 0
        outSlope: 0
        tangentMode: 0
      - time: 0.36666676
        value: 0
        inSlope: 0
        outSlope: 0
        tangentMode: 0
      - time: 0.38333344
        value: 0
        inSlope: 0
        outSlope: 0
        tangentMode: 0
      - time: 0.40000013
        value: 0
        inSlope: 0
        outSlope: 0
        tangentMode: 0
      - time: 0.41666666
        value: 0
        inSlope: 0
        outSlope: 0
        tangentMode: 0
      m_PreInfinity: 2
      m_PostInfinity: 2
      m_RotationOrder: 4
    attribute: m_LocalRotation.x
    path: Brust_CTRL_GRP/Brust_CTRL
    classID: 4
    script: {fileID: 0}
  - curve:
      serializedVersion: 2
      m_Curve:
      - time: 0
        value: 0
        inSlope: 0
        outSlope: 0
        tangentMode: 0
      - time: 0.016666668
        value: 0
        inSlope: 0
        outSlope: 0
        tangentMode: 0
      - time: 0.033333335
        value: 0
        inSlope: 0
        outSlope: 0
        tangentMode: 0
      - time: 0.050000004
        value: 0
        inSlope: 0
        outSlope: 0
        tangentMode: 0
      - time: 0.06666667
        value: 0
        inSlope: 0
        outSlope: 0
        tangentMode: 0
      - time: 0.083333336
        value: 0
        inSlope: 0
        outSlope: 0
        tangentMode: 0
      - time: 0.1
        value: 0
        inSlope: 0
        outSlope: 0
        tangentMode: 0
      - time: 0.11666667
        value: 0
        inSlope: 0
        outSlope: 0
        tangentMode: 0
      - time: 0.13333334
        value: 0
        inSlope: 0
        outSlope: 0
        tangentMode: 0
      - time: 0.15
        value: 0
        inSlope: 0
        outSlope: 0
        tangentMode: 0
      - time: 0.16666667
        value: 0
        inSlope: 0
        outSlope: 0
        tangentMode: 0
      - time: 0.18333334
        value: 0
        inSlope: 0
        outSlope: 0
        tangentMode: 0
      - time: 0.2
        value: 0
        inSlope: 0
        outSlope: 0
        tangentMode: 0
      - time: 0.21666667
        value: 0
        inSlope: 0
        outSlope: 0
        tangentMode: 0
      - time: 0.23333333
        value: 0
        inSlope: 0
        outSlope: 0
        tangentMode: 0
      - time: 0.25
        value: 0
        inSlope: 0
        outSlope: 0
        tangentMode: 0
      - time: 0.26666668
        value: 0
        inSlope: 0
        outSlope: 0
        tangentMode: 0
      - time: 0.28333336
        value: 0
        inSlope: 0
        outSlope: 0
        tangentMode: 0
      - time: 0.30000004
        value: 0
        inSlope: 0
        outSlope: 0
        tangentMode: 0
      - time: 0.31666672
        value: 0
        inSlope: 0
        outSlope: 0
        tangentMode: 0
      - time: 0.3333334
        value: 0
        inSlope: 0
        outSlope: 0
        tangentMode: 0
      - time: 0.35000008
        value: 0
        inSlope: 0
        outSlope: 0
        tangentMode: 0
      - time: 0.36666676
        value: 0
        inSlope: 0
        outSlope: 0
        tangentMode: 0
      - time: 0.38333344
        value: 0
        inSlope: 0
        outSlope: 0
        tangentMode: 0
      - time: 0.40000013
        value: 0
        inSlope: 0
        outSlope: 0
        tangentMode: 0
      - time: 0.41666666
        value: 0
        inSlope: 0
        outSlope: 0
        tangentMode: 0
      m_PreInfinity: 2
      m_PostInfinity: 2
      m_RotationOrder: 4
    attribute: m_LocalRotation.y
    path: Brust_CTRL_GRP/Brust_CTRL
    classID: 4
    script: {fileID: 0}
  - curve:
      serializedVersion: 2
      m_Curve:
      - time: 0
        value: 0.0031831383
        inSlope: -0.3735153
        outSlope: -0.3735153
        tangentMode: 0
      - time: 0.016666668
        value: -0.0030421172
        inSlope: -0.3381467
        outSlope: -0.3381467
        tangentMode: 0
      - time: 0.033333335
        value: -0.008088418
        inSlope: -0.28256416
        outSlope: -0.28256416
        tangentMode: 0
      - time: 0.050000004
        value: -0.012460924
        inSlope: -0.2572915
        outSlope: -0.2572915
        tangentMode: 0
      - time: 0.06666667
        value: -0.016664801
        inSlope: -0.26232624
        outSlope: -0.26232624
        tangentMode: 0
      - time: 0.083333336
        value: -0.021205131
        inSlope: -0.29765984
        outSlope: -0.29765984
        tangentMode: 0
      - time: 0.1
        value: -0.026586795
        inSlope: -0.36327404
        outSlope: -0.36327404
        tangentMode: 0
      - time: 0.11666667
        value: -0.033314265
        inSlope: -0.4591319
        outSlope: -0.4591319
        tangentMode: 0
      - time: 0.13333334
        value: -0.041891195
        inSlope: -0.58516157
        outSlope: -0.58516157
        tangentMode: 0
      - time: 0.15
        value: -0.052819654
        inSlope: -0.7412249
        outSlope: -0.7412249
        tangentMode: 0
      - time: 0.16666667
        value: -0.06659869
        inSlope: -1.0189098
        outSlope: -1.0189098
        tangentMode: 0
      - time: 0.18333334
        value: -0.08678331
        inSlope: -1.4456844
        outSlope: -1.4456844
        tangentMode: 0
      - time: 0.2
        value: -0.11478817
        inSlope: -1.8330542
        outSlope: -1.8330542
        tangentMode: 0
      - time: 0.21666667
        value: -0.14788511
        inSlope: -2.0567641
        outSlope: -2.0567641
        tangentMode: 0
      - time: 0.23333333
        value: -0.18334697
        inSlope: -2.1178727
        outSlope: -2.1178727
        tangentMode: 0
      - time: 0.25
        value: -0.21848087
        inSlope: -2.0195029
        outSlope: -2.0195029
        tangentMode: 0
      - time: 0.26666668
        value: -0.25066376
        inSlope: -1.7664893
        outSlope: -1.7664893
        tangentMode: 0
      - time: 0.28333336
        value: -0.2773639
        inSlope: -1.3640836
        outSlope: -1.3640836
        tangentMode: 0
      - time: 0.30000004
        value: -0.29613325
        inSlope: -0.81591475
        outSlope: -0.81591475
        tangentMode: 0
      - time: 0.31666672
        value: -0.30456108
        inSlope: -0.12166937
        outSlope: -0.12166937
        tangentMode: 0
      - time: 0.3333334
        value: -0.3001889
        inSlope: 0.85366327
        outSlope: 0.85366327
        tangentMode: 0
      - time: 0.35000008
        value: -0.2761056
        inSlope: 2.0372174
        outSlope: 2.0372174
        tangentMode: 0
      - time: 0.36666676
        value: -0.2322816
        inSlope: 2.9836545
        outSlope: 2.9836545
        tangentMode: 0
      - time: 0.38333344
        value: -0.17665038
        inSlope: 3.4407983
        outSlope: 3.4407983
        tangentMode: 0
      - time: 0.40000013
        value: -0.11758822
        inSlope: 3.3837748
        outSlope: 3.3837748
        tangentMode: 0
      - time: 0.41666666
        value: -0.06385826
        inSlope: 3.2238235
        outSlope: 3.2238235
        tangentMode: 0
      m_PreInfinity: 2
      m_PostInfinity: 2
      m_RotationOrder: 4
    attribute: m_LocalRotation.z
    path: Brust_CTRL_GRP/Brust_CTRL
    classID: 4
    script: {fileID: 0}
  - curve:
      serializedVersion: 2
      m_Curve:
      - time: 0
        value: 0.99999493
        inSlope: 0.000025033949
        outSlope: 0.000025033949
        tangentMode: 0
      - time: 0.016666668
        value: 0.99999535
        inSlope: -0.0008296966
        outSlope: -0.0008296966
        tangentMode: 0
      - time: 0.033333335
        value: 0.9999673
        inSlope: -0.0021904705
        outSlope: -0.0021904705
        tangentMode: 0
      - time: 0.050000004
        value: 0.99992234
        inSlope: -0.0031846762
        outSlope: -0.0031846762
        tangentMode: 0
      - time: 0.06666667
        value: 0.9998611
        inSlope: -0.0044149165
        outSlope: -0.0044149165
        tangentMode: 0
      - time: 0.083333336
        value: 0.9997752
        inSlope: -0.0064390902
        outSlope: -0.0064390902
        tangentMode: 0
      - time: 0.1
        value: 0.9996465
        inSlope: -0.009908081
        outSlope: -0.009908081
        tangentMode: 0
      - time: 0.11666667
        value: 0.9994449
        inSlope: -0.01572847
        outSlope: -0.01572847
        tangentMode: 0
      - time: 0.13333334
        value: 0.9991222
        inSlope: -0.025225278
        outSlope: -0.025225278
        tangentMode: 0
      - time: 0.15
        value: 0.99860406
        inSlope: -0.04027069
        outSlope: -0.04027069
        tangentMode: 0
      - time: 0.16666667
        value: 0.99777985
        inSlope: -0.07130564
        outSlope: -0.07130564
        tangentMode: 0
      - time: 0.18333334
        value: 0.9962272
        inSlope: -0.13169648
        outSlope: -0.13169648
        tangentMode: 0
      - time: 0.2
        value: 0.99338996
        inSlope: -0.2166796
        outSlope: -0.2166796
        tangentMode: 0
      - time: 0.21666667
        value: 0.98900455
        inSlope: -0.31025115
        outSlope: -0.31025115
        tangentMode: 0
      - time: 0.23333333
        value: 0.98304826
        inSlope: -0.39489987
        outSlope: -0.39489987
        tangentMode: 0
      - time: 0.25
        value: 0.9758412
        inSlope: -0.44922155
        outSlope: -0.44922155
        tangentMode: 0
      - time: 0.26666668
        value: 0.9680742
        inSlope: -0.45228803
        outSlope: -0.45228803
        tangentMode: 0
      - time: 0.28333336
        value: 0.96076494
        inSlope: -0.38782746
        outSlope: -0.38782746
        tangentMode: 0
      - time: 0.30000004
        value: 0.9551466
        inSlope: -0.24816492
        outSlope: -0.24816492
        tangentMode: 0
      - time: 0.31666672
        value: 0.9524928
        inSlope: -0.03800508
        outSlope: -0.03800508
        tangentMode: 0
      - time: 0.3333334
        value: 0.9538798
        inSlope: 0.25903502
        outSlope: 0.25903502
        tangentMode: 0
      - time: 0.35000008
        value: 0.9611273
        inSlope: 0.56306314
        outSlope: 0.56306314
        tangentMode: 0
      - time: 0.36666676
        value: 0.97264856
        inSlope: 0.69439113
        outSlope: 0.69439113
        tangentMode: 0
      - time: 0.38333344
        value: 0.9842737
        inSlope: 0.6124158
        outSlope: 0.6124158
        tangentMode: 0
      - time: 0.40000013
        value: 0.99306244
        inSlope: 0.41055956
        outSlope: 0.41055956
        tangentMode: 0
      - time: 0.41666666
        value: 0.99795896
        inSlope: 0.29379368
        outSlope: 0.29379368
        tangentMode: 0
      m_PreInfinity: 2
      m_PostInfinity: 2
      m_RotationOrder: 4
    attribute: m_LocalRotation.w
    path: Brust_CTRL_GRP/Brust_CTRL
    classID: 4
    script: {fileID: 0}
  - curve:
      serializedVersion: 2
      m_Curve:
      - time: 0
        value: 0
        inSlope: 0.000045776367
        outSlope: 0.000045776367
        tangentMode: 10
      - time: 0.16666667
        value: 0.0000076293945
        inSlope: 0.000045776367
        outSlope: 0.000045776367
        tangentMode: 10
      m_PreInfinity: 2
      m_PostInfinity: 2
      m_RotationOrder: 4
    attribute: m_LocalPosition.x
    path: Kopf_CTRL_GRP/Kopf_CTRL
    classID: 4
    script: {fileID: 0}
  - curve:
      serializedVersion: 2
      m_Curve:
      - time: 0
        value: 0
        inSlope: -1.3425756e-25
        outSlope: -1.3425756e-25
        tangentMode: 10
      - time: 0.16666667
        value: -2.237626e-26
        inSlope: -1.3425756e-25
        outSlope: -1.3425756e-25
        tangentMode: 10
      m_PreInfinity: 2
      m_PostInfinity: 2
      m_RotationOrder: 4
    attribute: m_LocalPosition.y
    path: Kopf_CTRL_GRP/Kopf_CTRL
    classID: 4
    script: {fileID: 0}
  - curve:
      serializedVersion: 2
      m_Curve:
      - time: 0
        value: 0
        inSlope: -1.2472085e-18
        outSlope: -1.2472085e-18
        tangentMode: 10
      - time: 0.16666667
        value: -2.0786808e-19
        inSlope: -1.2472085e-18
        outSlope: -1.2472085e-18
        tangentMode: 10
      m_PreInfinity: 2
      m_PostInfinity: 2
      m_RotationOrder: 4
    attribute: m_LocalPosition.z
    path: Kopf_CTRL_GRP/Kopf_CTRL
    classID: 4
    script: {fileID: 0}
  - curve:
      serializedVersion: 2
      m_Curve:
      - time: 0
        value: 0
        inSlope: 0
        outSlope: 0
        tangentMode: 0
      - time: 0.016666668
        value: 0
        inSlope: 0
        outSlope: 0
        tangentMode: 0
      - time: 0.033333335
        value: 0
        inSlope: 0
        outSlope: 0
        tangentMode: 0
      - time: 0.050000004
        value: 0
        inSlope: 0
        outSlope: 0
        tangentMode: 0
      - time: 0.06666667
        value: 0
        inSlope: 0
        outSlope: 0
        tangentMode: 0
      - time: 0.083333336
        value: 0
        inSlope: 0
        outSlope: 0
        tangentMode: 0
      - time: 0.1
        value: 0
        inSlope: 0
        outSlope: 0
        tangentMode: 0
      - time: 0.11666667
        value: 0
        inSlope: 0
        outSlope: 0
        tangentMode: 0
      - time: 0.13333334
        value: 0
        inSlope: 0
        outSlope: 0
        tangentMode: 0
      - time: 0.15
        value: 0
        inSlope: 0
        outSlope: 0
        tangentMode: 0
      - time: 0.16666667
        value: 0
        inSlope: 0
        outSlope: 0
        tangentMode: 0
      - time: 0.18333334
        value: 0
        inSlope: 0
        outSlope: 0
        tangentMode: 0
      - time: 0.2
        value: 0
        inSlope: 0
        outSlope: 0
        tangentMode: 0
      - time: 0.21666667
        value: 0
        inSlope: 0
        outSlope: 0
        tangentMode: 0
      - time: 0.23333333
        value: 0
        inSlope: 0
        outSlope: 0
        tangentMode: 0
      - time: 0.25
        value: 0
        inSlope: 0
        outSlope: 0
        tangentMode: 0
      - time: 0.26666668
        value: 0
        inSlope: 0
        outSlope: 0
        tangentMode: 0
      - time: 0.28333336
        value: 0
        inSlope: 0
        outSlope: 0
        tangentMode: 0
      - time: 0.30000004
        value: 0
        inSlope: 0
        outSlope: 0
        tangentMode: 0
      - time: 0.31666672
        value: 0
        inSlope: 0
        outSlope: 0
        tangentMode: 0
      - time: 0.3333334
        value: 0
        inSlope: 0
        outSlope: 0
        tangentMode: 0
      - time: 0.35000008
        value: 0
        inSlope: 0
        outSlope: 0
        tangentMode: 0
      - time: 0.36666676
        value: 0
        inSlope: 0
        outSlope: 0
        tangentMode: 0
      - time: 0.38333344
        value: 0
        inSlope: 0
        outSlope: 0
        tangentMode: 0
      - time: 0.40000013
        value: 0
        inSlope: 0
        outSlope: 0
        tangentMode: 0
      - time: 0.41666666
        value: 0
        inSlope: 0
        outSlope: 0
        tangentMode: 0
      m_PreInfinity: 2
      m_PostInfinity: 2
      m_RotationOrder: 4
    attribute: m_LocalRotation.x
    path: "Fu\xDFR_CTRL_GRP/Fu\xDFR_CTRL"
    classID: 4
    script: {fileID: 0}
  - curve:
      serializedVersion: 2
      m_Curve:
      - time: 0
        value: 0
        inSlope: 0
        outSlope: 0
        tangentMode: 0
      - time: 0.016666668
        value: 0
        inSlope: 0
        outSlope: 0
        tangentMode: 0
      - time: 0.033333335
        value: 0
        inSlope: 0
        outSlope: 0
        tangentMode: 0
      - time: 0.050000004
        value: 0
        inSlope: 0
        outSlope: 0
        tangentMode: 0
      - time: 0.06666667
        value: 0
        inSlope: 0
        outSlope: 0
        tangentMode: 0
      - time: 0.083333336
        value: 0
        inSlope: 0
        outSlope: 0
        tangentMode: 0
      - time: 0.1
        value: 0
        inSlope: 0
        outSlope: 0
        tangentMode: 0
      - time: 0.11666667
        value: 0
        inSlope: 0
        outSlope: 0
        tangentMode: 0
      - time: 0.13333334
        value: 0
        inSlope: 0
        outSlope: 0
        tangentMode: 0
      - time: 0.15
        value: 0
        inSlope: 0
        outSlope: 0
        tangentMode: 0
      - time: 0.16666667
        value: 0
        inSlope: 0
        outSlope: 0
        tangentMode: 0
      - time: 0.18333334
        value: 0
        inSlope: 0
        outSlope: 0
        tangentMode: 0
      - time: 0.2
        value: 0
        inSlope: 0
        outSlope: 0
        tangentMode: 0
      - time: 0.21666667
        value: 0
        inSlope: 0
        outSlope: 0
        tangentMode: 0
      - time: 0.23333333
        value: 0
        inSlope: 0
        outSlope: 0
        tangentMode: 0
      - time: 0.25
        value: 0
        inSlope: 0
        outSlope: 0
        tangentMode: 0
      - time: 0.26666668
        value: 0
        inSlope: 0
        outSlope: 0
        tangentMode: 0
      - time: 0.28333336
        value: 0
        inSlope: 0
        outSlope: 0
        tangentMode: 0
      - time: 0.30000004
        value: 0
        inSlope: 0
        outSlope: 0
        tangentMode: 0
      - time: 0.31666672
        value: 0
        inSlope: 0
        outSlope: 0
        tangentMode: 0
      - time: 0.3333334
        value: 0
        inSlope: 0
        outSlope: 0
        tangentMode: 0
      - time: 0.35000008
        value: 0
        inSlope: 0
        outSlope: 0
        tangentMode: 0
      - time: 0.36666676
        value: 0
        inSlope: 0
        outSlope: 0
        tangentMode: 0
      - time: 0.38333344
        value: 0
        inSlope: 0
        outSlope: 0
        tangentMode: 0
      - time: 0.40000013
        value: 0
        inSlope: 0
        outSlope: 0
        tangentMode: 0
      - time: 0.41666666
        value: 0
        inSlope: 0
        outSlope: 0
        tangentMode: 0
      m_PreInfinity: 2
      m_PostInfinity: 2
      m_RotationOrder: 4
    attribute: m_LocalRotation.y
    path: "Fu\xDFR_CTRL_GRP/Fu\xDFR_CTRL"
    classID: 4
    script: {fileID: 0}
  - curve:
      serializedVersion: 2
      m_Curve:
      - time: 0
        value: -0.76741683
        inSlope: 0.7133388
        outSlope: 0.7133388
        tangentMode: 0
      - time: 0.016666668
        value: -0.75552785
        inSlope: 0.67030185
        outSlope: 0.67030185
        tangentMode: 0
      - time: 0.033333335
        value: -0.74507344
        inSlope: 0.59050786
        outSlope: 0.59050786
        tangentMode: 0
      - time: 0.050000004
        value: -0.73584425
        inSlope: 0.52421623
        outSlope: 0.52421623
        tangentMode: 0
      - time: 0.06666667
        value: -0.72759956
        inSlope: 0.47309163
        outSlope: 0.47309163
        tangentMode: 0
      - time: 0.083333336
        value: -0.72007453
        inSlope: 0.4384196
        outSlope: 0.4384196
        tangentMode: 0
      - time: 0.1
        value: -0.7129856
        inSlope: 0.42123023
        outSlope: 0.42123023
        tangentMode: 0
      - time: 0.11666667
        value: -0.7060335
        inSlope: 0.42237276
        outSlope: 0.42237276
        tangentMode: 0
      - time: 0.13333334
        value: -0.6989065
        inSlope: 0.44261986
        outSlope: 0.44261986
        tangentMode: 0
      - time: 0.15
        value: -0.69127953
        inSlope: 0.48275656
        outSlope: 0.48275656
        tangentMode: 0
      - time: 0.16666667
        value: -0.6828146
        inSlope: 0.5436534
        outSlope: 0.5436534
        tangentMode: 0
      - time: 0.18333334
        value: -0.67315775
        inSlope: 0.6263316
        outSlope: 0.6263316
        tangentMode: 0
      - time: 0.2
        value: -0.6619369
        inSlope: 0.7320393
        outSlope: 0.7320393
        tangentMode: 0
      - time: 0.21666667
        value: -0.64875644
        inSlope: 0.86228913
        outSlope: 0.86228913
        tangentMode: 0
      - time: 0.23333333
        value: -0.6331939
        inSlope: 1.0188837
        outSlope: 1.0188837
        tangentMode: 0
      - time: 0.25
        value: -0.61479366
        inSlope: 1.2039287
        outSlope: 1.2039287
        tangentMode: 0
      - time: 0.26666668
        value: -0.59306294
        inSlope: 1.4197922
        outSlope: 1.4197922
        tangentMode: 0
      - time: 0.28333336
        value: -0.5674672
        inSlope: 1.6690317
        outSlope: 1.6690317
        tangentMode: 0
      - time: 0.30000004
        value: -0.5374285
        inSlope: 1.9542434
        outSlope: 1.9542434
        tangentMode: 0
      - time: 0.31666672
        value: -0.5023257
        inSlope: 2.2778623
        outSlope: 2.2778623
        tangentMode: 0
      - time: 0.3333334
        value: -0.4614997
        inSlope: 2.8513467
        outSlope: 2.8513467
        tangentMode: 0
      - time: 0.35000008
        value: -0.40728074
        inSlope: 3.7666812
        outSlope: 3.7666812
        tangentMode: 0
      - time: 0.36666676
        value: -0.33594355
        inSlope: 4.6156354
        outSlope: 4.6156354
        tangentMode: 0
      - time: 0.38333344
        value: -0.2534261
        inSlope: 5.07812
        outSlope: 5.07812
        tangentMode: 0
      - time: 0.40000013
        value: -0.16667274
        inSlope: 5.102259
        outSlope: 5.102259
        tangentMode: 0
      - time: 0.41666666
        value: -0.0833514
        inSlope: 4.9993205
        outSlope: 4.9993205
        tangentMode: 0
      m_PreInfinity: 2
      m_PostInfinity: 2
      m_RotationOrder: 4
    attribute: m_LocalRotation.z
    path: "Fu\xDFR_CTRL_GRP/Fu\xDFR_CTRL"
    classID: 4
    script: {fileID: 0}
  - curve:
      serializedVersion: 2
      m_Curve:
      - time: 0
        value: 0.6411485
        inSlope: 0.8380794
        outSlope: 0.8380794
        tangentMode: 0
      - time: 0.016666668
        value: 0.6551165
        inSlope: 0.7750189
        outSlope: 0.7750189
        tangentMode: 0
      - time: 0.033333335
        value: 0.6669825
        inSlope: 0.6610303
        outSlope: 0.6610303
        tangentMode: 0
      - time: 0.050000004
        value: 0.67715085
        inSlope: 0.5705899
        outSlope: 0.5705899
        tangentMode: 0
      - time: 0.06666667
        value: 0.68600214
        inSlope: 0.502376
        outSlope: 0.502376
        tangentMode: 0
      - time: 0.083333336
        value: 0.6938967
        inSlope: 0.45529786
        outSlope: 0.45529786
        tangentMode: 0
      - time: 0.1
        value: 0.7011787
        inSlope: 0.42845073
        outSlope: 0.42845073
        tangentMode: 0
      - time: 0.11666667
        value: 0.7081784
        inSlope: 0.42103165
        outSlope: 0.42103165
        tangentMode: 0
      - time: 0.13333334
        value: 0.7152131
        inSlope: 0.4322701
        outSlope: 0.4322701
        tangentMode: 0
      - time: 0.15
        value: 0.7225874
        inSlope: 0.46135786
        outSlope: 0.46135786
        tangentMode: 0
      - time: 0.16666667
        value: 0.7305917
        inSlope: 0.50734526
        outSlope: 0.50734526
        tangentMode: 0
      - time: 0.18333334
        value: 0.7394989
        inSlope: 0.56903607
        outSlope: 0.56903607
        tangentMode: 0
      - time: 0.2
        value: 0.7495596
        inSlope: 0.64491576
        outSlope: 0.64491576
        tangentMode: 0
      - time: 0.21666667
        value: 0.7609961
        inSlope: 0.73300844
        outSlope: 0.73300844
        tangentMode: 0
      - time: 0.23333333
        value: 0.7739932
        inSlope: 0.8307571
        outSlope: 0.8307571
        tangentMode: 0
      - time: 0.25
        value: 0.788688
        inSlope: 0.9348872
        outSlope: 0.9348872
        tangentMode: 0
      - time: 0.26666668
        value: 0.8051561
        inSlope: 1.0412381
        outSlope: 1.0412381
        tangentMode: 0
      - time: 0.28333336
        value: 0.82339597
        inSlope: 1.144596
        outSlope: 1.144596
        tangentMode: 0
      - time: 0.30000004
        value: 0.84330934
        inSlope: 1.2384751
        outSlope: 1.2384751
        tangentMode: 0
      - time: 0.31666672
        value: 0.8646785
        inSlope: 1.3149304
        outSlope: 1.3149304
        tangentMode: 0
      - time: 0.3333334
        value: 0.8871404
        inSlope: 1.4587343
        outSlope: 1.4587343
        tangentMode: 0
      - time: 0.35000008
        value: 0.913303
        inSlope: 1.6422508
        outSlope: 1.6422508
        tangentMode: 0
      - time: 0.36666676
        value: 0.94188213
        inSlope: 1.6215513
        outSlope: 1.6215513
        tangentMode: 0
      - time: 0.38333344
        value: 0.9673548
        inSlope: 1.3239033
        outSlope: 1.3239033
        tangentMode: 0
      - time: 0.40000013
        value: 0.9860123
        inSlope: 0.8749655
        outSlope: 0.8749655
        tangentMode: 0
      - time: 0.41666666
        value: 0.9965202
        inSlope: 0.6304816
        outSlope: 0.6304816
        tangentMode: 0
      m_PreInfinity: 2
      m_PostInfinity: 2
      m_RotationOrder: 4
    attribute: m_LocalRotation.w
    path: "Fu\xDFR_CTRL_GRP/Fu\xDFR_CTRL"
    classID: 4
    script: {fileID: 0}
  - curve:
      serializedVersion: 2
      m_Curve:
      - time: 0
        value: 0
        inSlope: -34.8
        outSlope: -34.8
        tangentMode: 10
      - time: 0.16666667
        value: -5.8
        inSlope: -74.10006
        outSlope: -74.10006
        tangentMode: 10
      - time: 0.33333334
        value: -24.70002
        inSlope: -56.70006
        outSlope: -56.70006
        tangentMode: 10
      - time: 0.41666666
        value: -24.70002
        inSlope: 0
        outSlope: 0
        tangentMode: 10
      m_PreInfinity: 2
      m_PostInfinity: 2
      m_RotationOrder: 4
    attribute: m_LocalPosition.x
    path: Huefte_CTRL_GRP/Huefte_CTRL
    classID: 4
    script: {fileID: 0}
  - curve:
      serializedVersion: 2
      m_Curve:
      - time: 0
        value: 0
        inSlope: -49.199997
        outSlope: -49.199997
        tangentMode: 10
      - time: 0.16666667
        value: -8.2
        inSlope: 0.30001068
        outSlope: 0.30001068
        tangentMode: 10
      - time: 0.33333334
        value: 0.100002766
        inSlope: 24.90001
        outSlope: 24.90001
        tangentMode: 10
      - time: 0.41666666
        value: 0.100002766
        inSlope: 0
        outSlope: 0
        tangentMode: 10
      m_PreInfinity: 2
      m_PostInfinity: 2
      m_RotationOrder: 4
    attribute: m_LocalPosition.y
    path: Huefte_CTRL_GRP/Huefte_CTRL
    classID: 4
    script: {fileID: 0}
  - curve:
      serializedVersion: 2
      m_Curve:
      - time: 0
        value: -1.6484591e-12
        inSlope: 9.890755e-12
        outSlope: 9.890755e-12
        tangentMode: 10
      - time: 0.16666667
        value: -0
        inSlope: 3.0524916e-11
        outSlope: 3.0524916e-11
        tangentMode: 10
      - time: 0.33333334
        value: 8.526513e-12
        inSlope: 1.1220893e-10
        outSlope: 1.1220893e-10
        tangentMode: 10
      - time: 0.41666666
        value: 2.2964741e-11
        inSlope: 1.7325878e-10
        outSlope: 1.7325878e-10
        tangentMode: 10
      m_PreInfinity: 2
      m_PostInfinity: 2
      m_RotationOrder: 4
    attribute: m_LocalPosition.z
    path: Huefte_CTRL_GRP/Huefte_CTRL
    classID: 4
    script: {fileID: 0}
  - curve:
      serializedVersion: 2
      m_Curve:
      - time: 0
        value: 0
        inSlope: 0
        outSlope: 0
        tangentMode: 10
      - time: 0.33333334
        value: 0
        inSlope: 0
        outSlope: 0
        tangentMode: 10
      - time: 0.41666666
        value: 0
        inSlope: 0
        outSlope: 0
        tangentMode: 10
      m_PreInfinity: 2
      m_PostInfinity: 2
      m_RotationOrder: 4
    attribute: localEulerAnglesRaw.x
    path: Huefte_CTRL_GRP/Huefte_CTRL
    classID: 4
    script: {fileID: 0}
  - curve:
      serializedVersion: 2
      m_Curve:
      - time: 0
        value: 0
        inSlope: 0
        outSlope: 0
        tangentMode: 10
      - time: 0.33333334
        value: 0
        inSlope: 0
        outSlope: 0
        tangentMode: 10
      - time: 0.41666666
        value: 0
        inSlope: 0
        outSlope: 0
        tangentMode: 10
      m_PreInfinity: 2
      m_PostInfinity: 2
      m_RotationOrder: 4
    attribute: localEulerAnglesRaw.y
    path: Huefte_CTRL_GRP/Huefte_CTRL
    classID: 4
    script: {fileID: 0}
  - curve:
      serializedVersion: 2
      m_Curve:
      - time: 0
        value: 5.81
        inSlope: -127.6203
        outSlope: -127.6203
        tangentMode: 10
      - time: 0.33333334
        value: -36.7301
        inSlope: 4.7026596
        outSlope: 4.7026596
        tangentMode: 10
      - time: 0.41666666
        value: -25.3113
        inSlope: 137.02562
        outSlope: 137.02562
        tangentMode: 10
      m_PreInfinity: 2
      m_PostInfinity: 2
      m_RotationOrder: 4
    attribute: localEulerAnglesRaw.z
    path: Huefte_CTRL_GRP/Huefte_CTRL
    classID: 4
    script: {fileID: 0}
  - curve:
      serializedVersion: 2
      m_Curve:
      - time: 0
        value: 0
        inSlope: 0
        outSlope: 0
        tangentMode: 10
      - time: 0.41666666
        value: 0
        inSlope: 0
        outSlope: 0
        tangentMode: 10
      m_PreInfinity: 2
      m_PostInfinity: 2
      m_RotationOrder: 4
    attribute: localEulerAnglesRaw.x
    path: Huefte/Brust/SchulterR/ArmR/warrior_Amolette
    classID: 4
    script: {fileID: 0}
  - curve:
      serializedVersion: 2
      m_Curve:
      - time: 0
        value: 0
        inSlope: 0
        outSlope: 0
        tangentMode: 10
      - time: 0.41666666
        value: 0
        inSlope: 0
        outSlope: 0
        tangentMode: 10
      m_PreInfinity: 2
      m_PostInfinity: 2
      m_RotationOrder: 4
    attribute: localEulerAnglesRaw.y
    path: Huefte/Brust/SchulterR/ArmR/warrior_Amolette
    classID: 4
    script: {fileID: 0}
  - curve:
      serializedVersion: 2
      m_Curve:
      - time: 0
        value: 157.3133
        inSlope: 211.72105
        outSlope: 211.72105
        tangentMode: 10
      - time: 0.41666666
        value: 245.5304
        inSlope: 211.72105
        outSlope: 211.72105
        tangentMode: 10
      m_PreInfinity: 2
      m_PostInfinity: 2
      m_RotationOrder: 4
    attribute: localEulerAnglesRaw.z
    path: Huefte/Brust/SchulterR/ArmR/warrior_Amolette
    classID: 4
    script: {fileID: 0}
  - curve:
      serializedVersion: 2
      m_Curve:
      - time: 0
        value: 0.1
        inSlope: -0.28800002
        outSlope: -0.28800002
        tangentMode: 10
      - time: 0.41666666
        value: -0.02
        inSlope: -0.28800002
        outSlope: -0.28800002
        tangentMode: 10
      m_PreInfinity: 2
      m_PostInfinity: 2
      m_RotationOrder: 4
    attribute: m_LocalPosition.x
    path: Huefte/Brust/SchulterR/ArmR/warrior_Amolette
    classID: 4
    script: {fileID: 0}
  - curve:
      serializedVersion: 2
      m_Curve:
      - time: 0
        value: 1.21
        inSlope: -0.047999956
        outSlope: -0.047999956
        tangentMode: 10
      - time: 0.41666666
        value: 1.19
        inSlope: -0.047999956
        outSlope: -0.047999956
        tangentMode: 10
      m_PreInfinity: 2
      m_PostInfinity: 2
      m_RotationOrder: 4
    attribute: m_LocalPosition.y
    path: Huefte/Brust/SchulterR/ArmR/warrior_Amolette
    classID: 4
    script: {fileID: 0}
  - curve:
      serializedVersion: 2
      m_Curve:
      - time: 0
        value: 0
        inSlope: 0
        outSlope: 0
        tangentMode: 10
      - time: 0.41666666
        value: 0
        inSlope: 0
        outSlope: 0
        tangentMode: 10
      m_PreInfinity: 2
      m_PostInfinity: 2
      m_RotationOrder: 4
    attribute: m_LocalPosition.z
    path: Huefte/Brust/SchulterR/ArmR/warrior_Amolette
    classID: 4
    script: {fileID: 0}
  m_EulerEditorCurves:
  - curve:
      serializedVersion: 2
      m_Curve:
      - time: 0
        value: 0
        inSlope: 0
        outSlope: 0
        tangentMode: 10
      - time: 0.16666667
        value: 0
        inSlope: 0
        outSlope: 0
        tangentMode: 10
      - time: 0.33333334
        value: 0
        inSlope: 0
        outSlope: 0
        tangentMode: 10
      - time: 0.41666666
        value: 0
        inSlope: 0
        outSlope: 0
        tangentMode: 10
      m_PreInfinity: 2
      m_PostInfinity: 2
      m_RotationOrder: 4
    attribute: localEulerAnglesBaked.x
    path: Brust_CTRL_GRP/Brust_CTRL
    classID: 4
    script: {fileID: 0}
  - curve:
      serializedVersion: 2
      m_Curve:
      - time: 0
        value: 0
        inSlope: 0
        outSlope: 0
        tangentMode: 10
      - time: 0.16666667
        value: 0
        inSlope: 0
        outSlope: 0
        tangentMode: 10
      - time: 0.33333334
        value: 0
        inSlope: 0
        outSlope: 0
        tangentMode: 10
      - time: 0.41666666
        value: 0
        inSlope: 0
        outSlope: 0
        tangentMode: 10
      m_PreInfinity: 2
      m_PostInfinity: 2
      m_RotationOrder: 4
    attribute: localEulerAnglesBaked.y
    path: Brust_CTRL_GRP/Brust_CTRL
    classID: 4
    script: {fileID: 0}
  - curve:
      serializedVersion: 2
      m_Curve:
      - time: 0
        value: 0.36476135
        inSlope: -48.01237
        outSlope: -48.01237
        tangentMode: 10
      - time: 0.16666667
        value: -7.6373
        inSlope: -105.90798
        outSlope: -105.90798
        tangentMode: 10
      - time: 0.33333334
        value: -34.9379
        inSlope: 83.790054
        outSlope: 83.790054
        tangentMode: 10
      - time: 0.41666666
        value: -7.3226
        inSlope: 331.3837
        outSlope: 331.3837
        tangentMode: 10
      m_PreInfinity: 2
      m_PostInfinity: 2
      m_RotationOrder: 4
    attribute: localEulerAnglesBaked.z
    path: Brust_CTRL_GRP/Brust_CTRL
    classID: 4
    script: {fileID: 0}
  - curve:
      serializedVersion: 2
      m_Curve:
      - time: 0
        value: 0
        inSlope: 0
        outSlope: 0
        tangentMode: 10
      - time: 0.16666667
        value: 0
        inSlope: 0
        outSlope: 0
        tangentMode: 10
      m_PreInfinity: 2
      m_PostInfinity: 2
      m_RotationOrder: 4
    attribute: localEulerAnglesBaked.x
    path: "Fu\xDFL_CTRL_GRP/Fu\xDFL_CTRL"
    classID: 4
    script: {fileID: 0}
  - curve:
      serializedVersion: 2
      m_Curve:
      - time: 0
        value: 0
        inSlope: 0
        outSlope: 0
        tangentMode: 10
      - time: 0.16666667
        value: 0
        inSlope: 0
        outSlope: 0
        tangentMode: 10
      m_PreInfinity: 2
      m_PostInfinity: 2
      m_RotationOrder: 4
    attribute: localEulerAnglesBaked.y
    path: "Fu\xDFL_CTRL_GRP/Fu\xDFL_CTRL"
    classID: 4
    script: {fileID: 0}
  - curve:
      serializedVersion: 2
      m_Curve:
      - time: 0
        value: -68.0105
        inSlope: 725.83374
        outSlope: 725.83374
        tangentMode: 10
      - time: 0.16666667
        value: 52.9618
        inSlope: 725.83374
        outSlope: 725.83374
        tangentMode: 10
      m_PreInfinity: 2
      m_PostInfinity: 2
      m_RotationOrder: 4
    attribute: localEulerAnglesBaked.z
    path: "Fu\xDFL_CTRL_GRP/Fu\xDFL_CTRL"
    classID: 4
    script: {fileID: 0}
  - curve:
      serializedVersion: 2
      m_Curve:
      - time: 0
        value: 0
        inSlope: 0
        outSlope: 0
        tangentMode: 10
      - time: 0.33333334
        value: 0
        inSlope: 0
        outSlope: 0
        tangentMode: 10
      - time: 0.41666666
        value: 0
        inSlope: 0
        outSlope: 0
        tangentMode: 10
      m_PreInfinity: 2
      m_PostInfinity: 2
      m_RotationOrder: 4
    attribute: localEulerAnglesBaked.x
    path: "Fu\xDFR_CTRL_GRP/Fu\xDFR_CTRL"
    classID: 4
    script: {fileID: 0}
  - curve:
      serializedVersion: 2
      m_Curve:
      - time: 0
        value: 0
        inSlope: 0
        outSlope: 0
        tangentMode: 10
      - time: 0.33333334
        value: 0
        inSlope: 0
        outSlope: 0
        tangentMode: 10
      - time: 0.41666666
        value: 0
        inSlope: 0
        outSlope: 0
        tangentMode: 10
      m_PreInfinity: 2
      m_PostInfinity: 2
      m_RotationOrder: 4
    attribute: localEulerAnglesBaked.y
    path: "Fu\xDFR_CTRL_GRP/Fu\xDFR_CTRL"
    classID: 4
    script: {fileID: 0}
  - curve:
      serializedVersion: 2
      m_Curve:
      - time: 0
        value: -100.244965
        inSlope: 135.83131
        outSlope: 135.83131
        tangentMode: 10
      - time: 0.33333334
        value: -54.967857
        inSlope: 340.34808
        outSlope: 340.34808
        tangentMode: 10
      - time: 0.41666666
        value: -9.56246
        inSlope: 544.86487
        outSlope: 544.86487
        tangentMode: 10
      m_PreInfinity: 2
      m_PostInfinity: 2
      m_RotationOrder: 4
    attribute: localEulerAnglesBaked.z
    path: "Fu\xDFR_CTRL_GRP/Fu\xDFR_CTRL"
    classID: 4
    script: {fileID: 0}
  - curve:
      serializedVersion: 2
      m_Curve: []
      m_PreInfinity: 2
      m_PostInfinity: 2
      m_RotationOrder: 4
    attribute: m_LocalEulerAngles.z
    path: Kopf_CTRL_GRP/Kopf_CTRL
    classID: 4
    script: {fileID: 0}
  - curve:
      serializedVersion: 2
      m_Curve: []
      m_PreInfinity: 2
      m_PostInfinity: 2
      m_RotationOrder: 4
    attribute: m_LocalEulerAngles.y
    path: Kopf_CTRL_GRP/Kopf_CTRL
    classID: 4
    script: {fileID: 0}
  - curve:
      serializedVersion: 2
      m_Curve: []
      m_PreInfinity: 2
      m_PostInfinity: 2
      m_RotationOrder: 4
    attribute: m_LocalEulerAngles.x
    path: Kopf_CTRL_GRP/Kopf_CTRL
    classID: 4
    script: {fileID: 0}
  - curve:
      serializedVersion: 2
      m_Curve: []
      m_PreInfinity: 2
      m_PostInfinity: 2
      m_RotationOrder: 4
    attribute: m_LocalEulerAngles.x
    path: "H\xFCfte/Brust/SchulterR/ArmR/warrior_Amolette"
    classID: 4
    script: {fileID: 0}
  - curve:
      serializedVersion: 2
      m_Curve: []
      m_PreInfinity: 2
      m_PostInfinity: 2
      m_RotationOrder: 4
    attribute: m_LocalEulerAngles.y
    path: "H\xFCfte/Brust/SchulterR/ArmR/warrior_Amolette"
    classID: 4
    script: {fileID: 0}
  - curve:
      serializedVersion: 2
      m_Curve: []
      m_PreInfinity: 2
      m_PostInfinity: 2
      m_RotationOrder: 4
    attribute: m_LocalEulerAngles.z
    path: "H\xFCfte/Brust/SchulterR/ArmR/warrior_Amolette"
    classID: 4
    script: {fileID: 0}
  - curve:
      serializedVersion: 2
      m_Curve: []
      m_PreInfinity: 2
      m_PostInfinity: 2
      m_RotationOrder: 4
    attribute: m_LocalEulerAngles.x
    path: Huefte_CTRL_GRP/Huefte_CTRL
    classID: 4
    script: {fileID: 0}
  - curve:
      serializedVersion: 2
      m_Curve: []
      m_PreInfinity: 2
      m_PostInfinity: 2
      m_RotationOrder: 4
    attribute: m_LocalEulerAngles.y
    path: Huefte_CTRL_GRP/Huefte_CTRL
    classID: 4
    script: {fileID: 0}
  - curve:
      serializedVersion: 2
      m_Curve: []
      m_PreInfinity: 2
      m_PostInfinity: 2
      m_RotationOrder: 4
    attribute: m_LocalEulerAngles.z
    path: Huefte_CTRL_GRP/Huefte_CTRL
    classID: 4
    script: {fileID: 0}
  - curve:
      serializedVersion: 2
      m_Curve: []
      m_PreInfinity: 2
      m_PostInfinity: 2
      m_RotationOrder: 4
    attribute: m_LocalEulerAngles.x
    path: Huefte/Brust/SchulterR/ArmR/warrior_Amolette
    classID: 4
    script: {fileID: 0}
  - curve:
      serializedVersion: 2
      m_Curve: []
      m_PreInfinity: 2
      m_PostInfinity: 2
      m_RotationOrder: 4
    attribute: m_LocalEulerAngles.y
    path: Huefte/Brust/SchulterR/ArmR/warrior_Amolette
    classID: 4
    script: {fileID: 0}
  - curve:
      serializedVersion: 2
      m_Curve: []
      m_PreInfinity: 2
      m_PostInfinity: 2
      m_RotationOrder: 4
    attribute: m_LocalEulerAngles.z
    path: Huefte/Brust/SchulterR/ArmR/warrior_Amolette
    classID: 4
    script: {fileID: 0}
  m_HasGenericRootTransform: 0
  m_HasMotionFloatCurves: 0
  m_GenerateMotionCurves: 0
  m_Events: []
